﻿object={
	name="pine_dense_generator_1_0"
	clamp_to_water_level=no
	render_under_water=no
	generated_content=yes
	layer="semidynamic"
	pdxmesh="tree_fir_001_mesh"
	count=0
}
object={
	name="pine_dense_generator_1_1"
	clamp_to_water_level=no
	render_under_water=no
	generated_content=yes
	layer="semidynamic"
	pdxmesh="tree_fir_002_mesh"
	count=137
	transform="4570.979980 0.000000 2583.629639 0.000000 0.505943 0.000000 0.862567 0.476820 0.476820 0.476820
4585.260742 0.000000 2586.019043 0.000000 0.622164 0.000000 0.782887 0.428148 0.428148 0.428148
4552.908691 0.000000 2587.696777 0.000000 0.374639 0.000000 0.927171 0.403020 0.403020 0.403020
4578.735840 0.000000 2581.449951 0.000000 0.225120 0.000000 0.974331 0.550887 0.550887 0.550887
4571.595215 0.000000 2592.320557 0.000000 0.324948 0.000000 0.945732 0.423399 0.423399 0.423399
4579.666992 0.000000 2578.283203 0.000000 0.660384 0.000000 0.750928 0.496710 0.496710 0.496710
4567.836426 0.000000 2592.409668 0.000000 0.219606 0.000000 0.975589 0.497271 0.497271 0.497271
4607.976562 0.000000 2592.412354 0.000000 0.469177 0.000000 0.883104 0.560762 0.560762 0.560762
4523.690430 0.000000 2601.845215 0.000000 0.636463 0.000000 0.771307 0.475566 0.475566 0.475566
4667.981445 0.000000 2540.531738 0.000000 0.129857 0.000000 0.991533 0.490475 0.490475 0.490475
4720.205566 0.000000 2541.771240 0.000000 0.641870 0.000000 0.766813 0.500917 0.500917 0.500917
4730.368164 0.000000 2537.238525 0.000000 0.413522 0.000000 0.910494 0.427437 0.427437 0.427437
4716.662598 0.000000 2535.892578 0.000000 0.177617 0.000000 0.984100 0.400975 0.400975 0.400975
4709.098633 0.000000 2528.183594 0.000000 0.676939 0.000000 0.736040 0.400069 0.400069 0.400069
4701.237305 0.000000 2518.834717 0.000000 0.315505 0.000000 0.948924 0.498641 0.498641 0.498641
4723.213867 0.000000 2531.569824 0.000000 0.575241 0.000000 0.817984 0.521352 0.521352 0.521352
4733.507812 0.000000 2535.089355 0.000000 0.372196 0.000000 0.928154 0.560803 0.560803 0.560803
4730.305176 0.000000 2529.293945 0.000000 0.689972 0.000000 0.723836 0.484385 0.484385 0.484385
4714.288574 0.000000 2508.460205 0.000000 0.298666 0.000000 0.954358 0.448590 0.448590 0.448590
4725.519043 0.000000 2511.937988 0.000000 0.428185 0.000000 0.903691 0.516778 0.516778 0.516778
4711.299805 0.000000 2531.691895 0.000000 0.658623 0.000000 0.752473 0.455666 0.455666 0.455666
4703.328613 0.000000 2535.634277 0.000000 0.560616 0.000000 0.828076 0.516160 0.516160 0.516160
4628.968750 0.000000 2593.921875 0.000000 0.433254 0.000000 0.901272 0.491353 0.491353 0.491353
4608.254883 0.000000 2588.937744 0.000000 0.382625 0.000000 0.923904 0.559057 0.559057 0.559057
4664.550781 0.000000 2574.656006 0.000000 0.192138 0.000000 0.981368 0.494301 0.494301 0.494301
4669.512207 0.000000 2541.822998 0.000000 0.334644 0.000000 0.942344 0.410622 0.410622 0.410622
4649.260742 0.000000 2586.019043 0.000000 0.167831 0.000000 0.985816 0.494810 0.494810 0.494810
4633.621582 0.000000 2589.671631 0.000000 0.283165 0.000000 0.959071 0.482899 0.482899 0.482899
4658.789551 0.000000 2553.884277 0.000000 0.351401 0.000000 0.936225 0.397888 0.397888 0.397888
4663.107910 0.000000 2586.998291 0.000000 0.487479 0.000000 0.873135 0.563664 0.563664 0.563664
4622.953125 0.000000 2595.768555 0.000000 0.346694 0.000000 0.937978 0.383554 0.383554 0.383554
4662.864258 0.000000 2596.795410 0.000000 0.117067 0.000000 0.993124 0.400012 0.400012 0.400012
4609.884766 0.000000 2592.849365 0.000000 0.209363 0.000000 0.977838 0.439829 0.439829 0.439829
4664.315430 0.000000 2578.805908 0.000000 0.386092 0.000000 0.922460 0.549919 0.549919 0.549919
4644.620605 0.000000 2588.505371 0.000000 0.642509 0.000000 0.766278 0.488953 0.488953 0.488953
4626.579102 0.000000 2596.985840 0.000000 0.540323 0.000000 0.841458 0.561804 0.561804 0.561804
4663.060547 0.000000 2583.396484 0.000000 0.313861 0.000000 0.949469 0.418498 0.418498 0.418498
4659.634277 0.000000 2584.524658 0.000000 0.251485 0.000000 0.967861 0.549710 0.549710 0.549710
4633.681152 0.000000 2575.574463 0.000000 0.204178 0.000000 0.978934 0.466152 0.466152 0.466152
4631.836426 0.000000 2592.409668 0.000000 0.665947 0.000000 0.745999 0.440089 0.440089 0.440089
4614.507812 0.000000 2593.887939 0.000000 0.173636 0.000000 0.984810 0.514072 0.514072 0.514072
4617.278320 0.000000 2591.880371 0.000000 0.359619 0.000000 0.933099 0.554051 0.554051 0.554051
4659.016113 0.000000 2562.647949 0.000000 0.608965 0.000000 0.793197 0.514166 0.514166 0.514166
4657.394043 0.000000 2567.126709 0.000000 0.027270 0.000000 0.999628 0.495689 0.495689 0.495689
4618.235840 0.000000 2585.481201 0.000000 0.271445 0.000000 0.962454 0.513416 0.513416 0.513416
4635.698730 0.000000 2588.296143 0.000000 0.274254 0.000000 0.961657 0.516899 0.516899 0.516899
4673.318848 0.000000 2580.685303 0.000000 0.404765 0.000000 0.914421 0.534508 0.534508 0.534508
4709.982422 0.000000 2592.058594 0.000000 0.385832 0.000000 0.922569 0.503998 0.503998 0.503998
4712.832520 0.000000 2545.298096 0.000000 0.275861 0.000000 0.961198 0.437660 0.437660 0.437660
4683.959473 0.000000 2590.287842 0.000000 0.242359 0.000000 0.970187 0.549351 0.549351 0.549351
4727.638184 0.000000 2557.540283 0.000000 0.127756 0.000000 0.991806 0.499397 0.499397 0.499397
4710.893555 0.000000 2561.244141 0.000000 0.700316 0.000000 0.713833 0.431185 0.431185 0.431185
4679.979980 0.000000 2583.932129 0.000000 0.233379 0.000000 0.972386 0.442617 0.442617 0.442617
4681.203613 0.000000 2577.497559 0.000000 0.543666 0.000000 0.839302 0.396340 0.396340 0.396340
4726.816895 0.000000 2543.047607 0.000000 0.232898 0.000000 0.972501 0.513471 0.513471 0.513471
4733.292480 0.000000 2554.355957 0.000000 0.249165 0.000000 0.968461 0.455650 0.455650 0.455650
4716.062988 0.000000 2550.785889 0.000000 0.000284 0.000000 1.000000 0.435773 0.435773 0.435773
4722.789551 0.000000 2553.884277 0.000000 0.520952 0.000000 0.853586 0.410395 0.410395 0.410395
4672.098633 0.000000 2548.745850 0.000000 0.238537 0.000000 0.971133 0.457727 0.457727 0.457727
4730.511719 0.000000 2562.306885 0.000000 0.068492 0.000000 0.997652 0.451849 0.451849 0.451849
4722.318359 0.000000 2542.002686 0.000000 0.284388 0.000000 0.958709 0.423823 0.423823 0.423823
4699.932617 0.000000 2562.066406 0.000000 0.007553 0.000000 0.999971 0.479667 0.479667 0.479667
4710.889160 0.000000 2565.236572 0.000000 0.032552 0.000000 0.999470 0.446586 0.446586 0.446586
4680.908691 0.000000 2587.696777 0.000000 0.000593 0.000000 1.000000 0.548372 0.548372 0.548372
4713.322754 0.000000 2590.072510 0.000000 0.074550 0.000000 0.997217 0.550022 0.550022 0.550022
4730.385254 0.000000 2544.388916 0.000000 0.162171 0.000000 0.986763 0.474310 0.474310 0.474310
4676.957520 0.000000 2581.644043 0.000000 0.672682 0.000000 0.739931 0.439040 0.439040 0.439040
4730.028320 0.000000 2554.895508 0.000000 0.470902 0.000000 0.882186 0.556286 0.556286 0.556286
4717.386719 0.000000 2596.503906 0.000000 0.635983 0.000000 0.771703 0.455078 0.455078 0.455078
4684.457520 0.000000 2593.572754 0.000000 0.409103 0.000000 0.912488 0.556357 0.556357 0.556357
4705.099609 0.000000 2575.746582 0.000000 0.392455 0.000000 0.919771 0.521485 0.521485 0.521485
4681.278320 0.000000 2591.880371 0.000000 0.084642 0.000000 0.996411 0.544684 0.544684 0.544684
4695.191895 0.000000 2587.687500 0.000000 0.682568 0.000000 0.730822 0.571704 0.571704 0.571704
4688.939453 0.000000 2557.725586 0.000000 0.008222 0.000000 0.999966 0.448346 0.448346 0.448346
4716.352051 0.000000 2559.057861 0.000000 0.107600 0.000000 0.994194 0.440129 0.440129 0.440129
4679.408691 0.000000 2559.634277 0.000000 0.186808 0.000000 0.982397 0.500939 0.500939 0.500939
4684.721191 0.000000 2580.121826 0.000000 0.532027 0.000000 0.846727 0.459683 0.459683 0.459683
4686.686523 0.000000 2556.388428 0.000000 0.055989 0.000000 0.998431 0.452720 0.452720 0.452720
4696.535645 0.000000 2558.151855 0.000000 0.542304 0.000000 0.840183 0.488440 0.488440 0.488440
4691.894531 0.000000 2549.568604 0.000000 0.273692 0.000000 0.961817 0.489541 0.489541 0.489541
4662.816895 0.000000 2599.531982 0.000000 0.697793 0.000000 0.716299 0.573208 0.573208 0.573208
4697.661133 0.000000 2601.347412 0.000000 0.305474 0.000000 0.952201 0.512094 0.512094 0.512094
4710.824707 0.000000 2603.519043 0.000000 0.698409 0.000000 0.715699 0.501569 0.501569 0.501569
4400.205566 0.000000 2824.193115 0.000000 0.670254 0.000000 0.742131 0.469291 0.469291 0.469291
4359.671387 0.000000 2792.590820 0.000000 0.254053 0.000000 0.967190 0.549812 0.549812 0.549812
4385.210449 0.000000 2812.607666 0.000000 0.697032 0.000000 0.717040 0.569460 0.569460 0.569460
4396.760254 0.000000 2806.239502 0.000000 0.524886 0.000000 0.851173 0.422482 0.422482 0.422482
4406.864258 0.000000 2822.732910 0.000000 0.065093 0.000000 0.997879 0.499996 0.499996 0.499996
4382.060547 0.000000 2815.889160 0.000000 0.610240 0.000000 0.792216 0.565071 0.565071 0.565071
4356.755371 0.000000 2795.606934 0.000000 0.494005 0.000000 0.869459 0.563447 0.563447 0.563447
4396.412598 0.000000 2810.008057 0.000000 0.237445 0.000000 0.971401 0.554640 0.554640 0.554640
4411.981445 0.000000 2822.953613 0.000000 0.456726 0.000000 0.889608 0.558117 0.558117 0.558117
4381.392090 0.000000 2812.407715 0.000000 0.066266 0.000000 0.997802 0.545012 0.545012 0.545012
4371.991699 0.000000 2800.961914 0.000000 0.407084 0.000000 0.913391 0.559119 0.559119 0.559119
4391.299805 0.000000 2814.113770 0.000000 0.025337 0.000000 0.999679 0.478977 0.478977 0.478977
4413.125000 0.000000 2820.213623 0.000000 0.470398 0.000000 0.882455 0.461766 0.461766 0.461766
4415.976562 0.000000 2818.349854 0.000000 0.490130 0.000000 0.871649 0.561628 0.561628 0.561628
4384.544434 0.000000 2815.065918 0.000000 0.591435 0.000000 0.806352 0.564173 0.564173 0.564173
4436.089355 0.000000 2812.551270 0.000000 0.514106 0.000000 0.857727 0.540412 0.540412 0.540412
4451.765137 0.000000 2793.581543 0.000000 0.292762 0.000000 0.956185 0.551349 0.551349 0.551349
4452.276367 0.000000 2800.981201 0.000000 0.052198 0.000000 0.998637 0.477378 0.477378 0.477378
4433.256836 0.000000 2802.449219 0.000000 0.487037 0.000000 0.873381 0.559431 0.559431 0.559431
4430.220703 0.000000 2784.815186 0.000000 0.039262 0.000000 0.999229 0.541500 0.541500 0.541500
4442.364746 0.000000 2793.295654 0.000000 0.052881 0.000000 0.998601 0.515157 0.515157 0.515157
4445.237305 0.000000 2801.256592 0.000000 0.662331 0.000000 0.749211 0.567652 0.567652 0.567652
4443.932617 0.000000 2788.003906 0.000000 0.596995 0.000000 0.802245 0.564437 0.564437 0.564437
4422.424805 0.000000 2788.094482 0.000000 0.176777 0.000000 0.984251 0.547831 0.547831 0.547831
4434.230469 0.000000 2805.770020 0.000000 0.691529 0.000000 0.722349 0.569168 0.569168 0.569168
4450.857422 0.000000 2796.863281 0.000000 0.274693 0.000000 0.961532 0.489566 0.489566 0.489566
4440.572266 0.000000 2807.198730 0.000000 0.524441 0.000000 0.851447 0.561087 0.561087 0.561087
4428.457520 0.000000 2819.510254 0.000000 0.556816 0.000000 0.830636 0.562557 0.562557 0.562557
4439.191895 0.000000 2813.625000 0.000000 0.518882 0.000000 0.854846 0.560838 0.560838 0.560838
4430.604980 0.000000 2815.311279 0.000000 0.312157 0.000000 0.950031 0.525952 0.525952 0.525952
4430.686523 0.000000 2782.325928 0.000000 0.094637 0.000000 0.995512 0.501882 0.501882 0.501882
4435.640625 0.000000 2793.046143 0.000000 0.456659 0.000000 0.889642 0.561810 0.561810 0.561810
4429.872070 0.000000 2796.136963 0.000000 0.445479 0.000000 0.895293 0.562537 0.562537 0.562537
4408.065918 0.000000 2849.581299 0.000000 0.516604 0.000000 0.856225 0.560736 0.560736 0.560736
4408.550781 0.000000 2857.077881 0.000000 0.319716 0.000000 0.947513 0.552431 0.552431 0.552431
4413.292480 0.000000 2836.777832 0.000000 0.484618 0.000000 0.874726 0.458553 0.458553 0.458553
4407.531250 0.000000 2834.822510 0.000000 0.412355 0.000000 0.911023 0.432147 0.432147 0.432147
4405.994141 0.000000 2845.504883 0.000000 0.281617 0.000000 0.959527 0.440102 0.440102 0.440102
4413.524414 0.000000 2841.288574 0.000000 0.418931 0.000000 0.908018 0.453515 0.453515 0.453515
4411.211426 0.000000 2853.836914 0.000000 0.277569 0.000000 0.960706 0.556635 0.556635 0.556635
4397.375000 0.000000 2849.140381 0.000000 0.033005 0.000000 0.999455 0.418184 0.418184 0.418184
4399.663086 0.000000 2834.230713 0.000000 0.461481 0.000000 0.887150 0.560610 0.560610 0.560610
4398.042969 0.000000 2830.073486 0.000000 0.486133 0.000000 0.873885 0.477490 0.477490 0.477490
4404.003906 0.000000 2827.546387 0.000000 0.273553 0.000000 0.961857 0.555429 0.555429 0.555429
4404.463867 0.000000 2839.300537 0.000000 0.113756 0.000000 0.993509 0.546319 0.546319 0.546319
4410.631836 0.000000 2859.355225 0.000000 0.346233 0.000000 0.938148 0.441405 0.441405 0.441405
4412.013184 0.000000 2839.083496 0.000000 0.629529 0.000000 0.776977 0.565807 0.565807 0.565807
4409.460938 0.000000 2824.322021 0.000000 0.375109 0.000000 0.926981 0.557708 0.557708 0.557708
4405.428223 0.000000 2842.060059 0.000000 0.272940 0.000000 0.962031 0.554340 0.554340 0.554340
4428.978516 0.000000 2824.954834 0.000000 0.209642 0.000000 0.977778 0.536379 0.536379 0.536379
4418.356934 0.000000 2829.116943 0.000000 0.549204 0.000000 0.835688 0.561475 0.561475 0.561475
4425.084961 0.000000 2835.036621 0.000000 0.188262 0.000000 0.982119 0.500977 0.500977 0.500977
4417.451660 0.000000 2833.611084 0.000000 0.634361 0.000000 0.773037 0.566248 0.566248 0.566248
6271.958008 0.000000 2449.727051 0.000000 0.174639 0.000000 0.984633 0.381469 0.381469 0.381469
"}
object={
	name="pine_dense_generator_1_2"
	clamp_to_water_level=no
	render_under_water=no
	generated_content=yes
	layer="semidynamic"
	pdxmesh="tree_fir_003_mesh"
	count=145
	transform="4517.982422 0.000000 2592.058594 0.000000 0.852023 0.000000 0.523505 0.533507 0.533507 0.533507
4537.910645 0.000000 2589.747803 0.000000 0.991528 0.000000 0.129895 0.510010 0.510010 0.510010
4564.968750 0.000000 2593.921875 0.000000 0.853359 0.000000 0.521324 0.401725 0.401725 0.401725
4582.230957 0.000000 2580.325928 0.000000 0.855098 0.000000 0.518467 0.579180 0.579180 0.579180
4574.236816 0.000000 2594.326660 0.000000 0.721930 0.000000 0.691966 0.389888 0.389888 0.389888
4550.215332 0.000000 2590.734619 0.000000 0.865486 0.000000 0.500932 0.580588 0.580588 0.580588
4607.586426 0.000000 2595.231445 0.000000 0.743836 0.000000 0.668362 0.415059 0.415059 0.415059
4553.641113 0.000000 2594.984619 0.000000 0.998774 0.000000 0.049511 0.489787 0.489787 0.489787
4560.971680 0.000000 2590.973877 0.000000 0.928653 0.000000 0.370949 0.394687 0.394687 0.394687
4581.098633 0.000000 2584.667969 0.000000 0.980600 0.000000 0.196019 0.431354 0.431354 0.431354
4595.213867 0.000000 2588.054199 0.000000 0.723002 0.000000 0.690846 0.442771 0.442771 0.442771
4588.412598 0.000000 2584.070557 0.000000 0.956190 0.000000 0.292746 0.485750 0.485750 0.485750
4583.591309 0.000000 2583.632812 0.000000 0.956890 0.000000 0.290452 0.588743 0.588743 0.588743
4520.832520 0.000000 2601.782471 0.000000 0.826081 0.000000 0.563552 0.464400 0.464400 0.464400
4534.816895 0.000000 2599.531982 0.000000 0.965437 0.000000 0.260637 0.482643 0.482643 0.482643
4663.107910 0.000000 2530.513916 0.000000 0.991895 0.000000 0.127057 0.433812 0.433812 0.433812
4689.256836 0.000000 2520.027344 0.000000 0.726166 0.000000 0.687519 0.455082 0.455082 0.455082
4705.947754 0.000000 2534.786133 0.000000 0.967994 0.000000 0.250973 0.422729 0.422729 0.422729
4720.647949 0.000000 2525.788330 0.000000 0.900270 0.000000 0.435331 0.542454 0.542454 0.542454
4695.371094 0.000000 2528.326416 0.000000 0.998614 0.000000 0.052634 0.501428 0.501428 0.501428
4678.507812 0.000000 2537.403564 0.000000 0.972581 0.000000 0.232563 0.471738 0.471738 0.471738
4729.384766 0.000000 2541.564209 0.000000 0.900684 0.000000 0.434475 0.452331 0.452331 0.452331
4705.910645 0.000000 2527.635254 0.000000 0.712019 0.000000 0.702161 0.573939 0.573939 0.573939
4721.394043 0.000000 2510.642334 0.000000 0.976020 0.000000 0.217681 0.567995 0.567995 0.567995
4676.384766 0.000000 2536.085205 0.000000 0.719683 0.000000 0.694302 0.518018 0.518018 0.518018
4664.065918 0.000000 2567.159424 0.000000 0.834123 0.000000 0.551579 0.432383 0.432383 0.432383
4666.368164 0.000000 2593.722900 0.000000 0.999702 0.000000 0.024397 0.498152 0.498152 0.498152
4655.722656 0.000000 2586.116455 0.000000 0.975876 0.000000 0.218327 0.410418 0.410418 0.410418
4617.641113 0.000000 2594.984619 0.000000 0.717990 0.000000 0.696054 0.570593 0.570593 0.570593
4642.932617 0.000000 2595.873779 0.000000 0.999496 0.000000 0.031734 0.430200 0.430200 0.430200
4669.524414 0.000000 2558.866699 0.000000 0.794892 0.000000 0.606752 0.508777 0.508777 0.508777
4638.060547 0.000000 2589.951660 0.000000 0.929408 0.000000 0.369053 0.587062 0.587062 0.587062
4662.381836 0.000000 2571.124512 0.000000 0.985929 0.000000 0.167162 0.416363 0.416363 0.416363
4659.213867 0.000000 2588.054199 0.000000 0.995410 0.000000 0.095701 0.596339 0.596339 0.596339
4616.908691 0.000000 2587.696777 0.000000 0.878122 0.000000 0.478437 0.465162 0.465162 0.465162
4638.953613 0.000000 2598.049316 0.000000 0.880392 0.000000 0.474247 0.547448 0.547448 0.547448
4659.759277 0.000000 2573.161621 0.000000 0.971521 0.000000 0.236952 0.437066 0.437066 0.437066
4615.437500 0.000000 2596.840576 0.000000 0.975001 0.000000 0.222200 0.592213 0.592213 0.592213
4629.934570 0.000000 2596.608887 0.000000 0.739035 0.000000 0.673667 0.575143 0.575143 0.575143
4636.380371 0.000000 2596.647217 0.000000 0.744213 0.000000 0.667943 0.575293 0.575293 0.575293
4668.013184 0.000000 2556.661621 0.000000 0.923469 0.000000 0.383674 0.586965 0.586965 0.586965
4662.158691 0.000000 2573.856689 0.000000 0.726965 0.000000 0.686675 0.541211 0.541211 0.541211
4639.328613 0.000000 2592.118652 0.000000 0.762823 0.000000 0.646607 0.575354 0.575354 0.575354
4692.968750 0.000000 2593.921875 0.000000 0.774701 0.000000 0.632327 0.445446 0.445446 0.445446
4693.705078 0.000000 2568.664551 0.000000 0.825451 0.000000 0.564474 0.451984 0.451984 0.451984
4703.453613 0.000000 2558.527100 0.000000 0.795941 0.000000 0.605374 0.458428 0.458428 0.458428
4672.254883 0.000000 2588.937744 0.000000 0.805696 0.000000 0.592329 0.564215 0.564215 0.564215
4694.478027 0.000000 2576.690186 0.000000 0.964909 0.000000 0.262586 0.408452 0.408452 0.408452
4692.089355 0.000000 2586.613770 0.000000 0.868132 0.000000 0.496333 0.458510 0.458510 0.458510
4716.662598 0.000000 2592.376953 0.000000 0.968187 0.000000 0.250228 0.425304 0.425304 0.425304
4713.260742 0.000000 2586.019043 0.000000 0.962497 0.000000 0.271294 0.590123 0.590123 0.590123
4689.256836 0.000000 2576.511719 0.000000 0.880360 0.000000 0.474305 0.455246 0.455246 0.455246
4691.007324 0.000000 2559.875244 0.000000 0.810464 0.000000 0.585788 0.440343 0.440343 0.440343
4697.505859 0.000000 2595.568604 0.000000 0.795335 0.000000 0.606170 0.547872 0.547872 0.547872
4707.991211 0.000000 2557.523438 0.000000 0.932086 0.000000 0.362236 0.489216 0.489216 0.489216
4726.173828 0.000000 2547.981201 0.000000 0.963311 0.000000 0.268389 0.467164 0.467164 0.467164
4693.668945 0.000000 2551.585693 0.000000 0.990644 0.000000 0.136470 0.478876 0.478876 0.478876
4717.375000 0.000000 2566.718506 0.000000 0.996970 0.000000 0.077784 0.597440 0.597440 0.597440
4702.953613 0.000000 2598.049316 0.000000 0.960082 0.000000 0.279719 0.589171 0.589171 0.589171
4693.502930 0.000000 2590.115967 0.000000 0.764826 0.000000 0.644237 0.519765 0.519765 0.519765
4701.392090 0.000000 2586.470215 0.000000 0.947572 0.000000 0.319543 0.495289 0.495289 0.495289
4683.406250 0.000000 2574.867676 0.000000 0.788782 0.000000 0.614673 0.458197 0.458197 0.458197
4678.724121 0.000000 2575.304443 0.000000 0.974247 0.000000 0.225482 0.493653 0.493653 0.493653
4678.057129 0.000000 2586.734619 0.000000 0.998443 0.000000 0.055773 0.597965 0.597965 0.597965
4686.604980 0.000000 2589.373779 0.000000 0.736235 0.000000 0.676726 0.508952 0.508952 0.508952
4696.795410 0.000000 2569.708984 0.000000 0.852622 0.000000 0.522528 0.464141 0.464141 0.464141
4673.451660 0.000000 2551.189209 0.000000 0.827491 0.000000 0.561479 0.528602 0.528602 0.528602
4672.090332 0.000000 2545.092529 0.000000 0.992099 0.000000 0.125454 0.565616 0.565616 0.565616
4692.436035 0.000000 2584.068848 0.000000 0.966277 0.000000 0.257506 0.590423 0.590423 0.590423
4674.575684 0.000000 2582.923828 0.000000 0.989735 0.000000 0.142917 0.595016 0.595016 0.595016
4699.698730 0.000000 2588.296143 0.000000 0.748384 0.000000 0.663266 0.575613 0.575613 0.575613
4615.914551 0.000000 2600.118164 0.000000 0.937480 0.000000 0.348039 0.586422 0.586422 0.586422
4626.283691 0.000000 2599.414062 0.000000 0.901946 0.000000 0.431850 0.508834 0.508834 0.508834
4619.786133 0.000000 2603.334229 0.000000 0.994215 0.000000 0.107404 0.584235 0.584235 0.584235
4666.385254 0.000000 2600.873291 0.000000 0.985727 0.000000 0.168352 0.590019 0.590019 0.590019
4665.460938 0.000000 2598.384521 0.000000 0.976898 0.000000 0.213705 0.554062 0.554062 0.554062
4700.793945 0.000000 2601.123047 0.000000 0.908162 0.000000 0.418619 0.394457 0.394457 0.394457
4704.618164 0.000000 2601.646973 0.000000 0.950834 0.000000 0.309700 0.551258 0.551258 0.551258
4714.673340 0.000000 2598.425049 0.000000 0.916458 0.000000 0.400132 0.586011 0.586011 0.586011
4389.982422 0.000000 2817.996094 0.000000 0.874611 0.000000 0.484826 0.535955 0.535955 0.535955
4410.368164 0.000000 2819.660400 0.000000 0.743608 0.000000 0.668616 0.572026 0.572026 0.572026
4399.722656 0.000000 2812.053955 0.000000 0.843419 0.000000 0.537256 0.578335 0.578335 0.578335
4374.478027 0.000000 2802.627686 0.000000 0.879866 0.000000 0.475222 0.437685 0.437685 0.437685
4389.098633 0.000000 2810.605469 0.000000 0.801817 0.000000 0.597570 0.573741 0.573741 0.573741
4365.506836 0.000000 2803.548828 0.000000 0.985157 0.000000 0.171654 0.594005 0.594005 0.594005
4413.507812 0.000000 2817.511230 0.000000 0.892156 0.000000 0.451728 0.582659 0.582659 0.582659
4393.204590 0.000000 2804.295654 0.000000 0.990360 0.000000 0.138518 0.468503 0.468503 0.468503
4377.916992 0.000000 2812.500488 0.000000 0.843079 0.000000 0.537790 0.578311 0.578311 0.578311
4375.191895 0.000000 2813.625000 0.000000 0.755207 0.000000 0.655486 0.572696 0.572696 0.572696
4409.384766 0.000000 2823.986084 0.000000 0.823223 0.000000 0.567717 0.479138 0.479138 0.479138
4358.395508 0.000000 2797.790039 0.000000 0.711888 0.000000 0.702293 0.570259 0.570259 0.570259
4372.436035 0.000000 2810.006348 0.000000 0.999351 0.000000 0.036035 0.598788 0.598788 0.598788
4436.968750 0.000000 2819.859375 0.000000 0.877179 0.000000 0.480163 0.583308 0.583308 0.583308
4417.318848 0.000000 2806.622803 0.000000 0.999361 0.000000 0.035747 0.579959 0.579959 0.579959
4447.758301 0.000000 2797.894043 0.000000 0.999716 0.000000 0.023813 0.599090 0.599090 0.599090
4430.007324 0.000000 2798.624512 0.000000 0.977691 0.000000 0.210048 0.502973 0.502973 0.502973
4438.478027 0.000000 2802.627686 0.000000 0.858320 0.000000 0.513115 0.579419 0.579419 0.579419
4423.979980 0.000000 2809.869629 0.000000 0.881649 0.000000 0.471906 0.543801 0.543801 0.543801
4435.771973 0.000000 2790.359863 0.000000 0.712994 0.000000 0.701170 0.574626 0.574626 0.574626
4427.941895 0.000000 2809.538330 0.000000 0.711059 0.000000 0.703133 0.570214 0.570214 0.570214
4424.908691 0.000000 2813.634277 0.000000 0.794344 0.000000 0.607468 0.575062 0.575062 0.575062
4445.530273 0.000000 2795.026855 0.000000 0.971354 0.000000 0.237639 0.590835 0.590835 0.590835
4425.866211 0.000000 2806.806641 0.000000 0.714709 0.000000 0.699422 0.565886 0.565886 0.565886
4443.595215 0.000000 2818.258057 0.000000 0.871309 0.000000 0.490736 0.463632 0.463632 0.463632
4451.666992 0.000000 2804.220703 0.000000 0.965181 0.000000 0.261584 0.437908 0.437908 0.437908
4439.836426 0.000000 2818.347168 0.000000 0.994612 0.000000 0.103665 0.533923 0.533923 0.533923
4449.099609 0.000000 2801.684082 0.000000 0.771977 0.000000 0.635650 0.573688 0.573688 0.573688
4425.278320 0.000000 2817.817871 0.000000 0.996071 0.000000 0.088562 0.596613 0.596613 0.596613
4441.916992 0.000000 2812.500488 0.000000 0.869601 0.000000 0.493754 0.580275 0.580275 0.580275
4425.604492 0.000000 2795.188721 0.000000 0.986879 0.000000 0.161464 0.586390 0.586390 0.586390
4445.422852 0.000000 2806.286133 0.000000 0.997693 0.000000 0.067885 0.597405 0.597405 0.597405
4426.072266 0.000000 2823.906494 0.000000 0.898527 0.000000 0.438918 0.516142 0.516142 0.516142
4428.112305 0.000000 2782.641113 0.000000 0.724474 0.000000 0.689302 0.491556 0.491556 0.491556
4433.360840 0.000000 2813.894775 0.000000 0.951508 0.000000 0.307623 0.588056 0.588056 0.588056
4430.979980 0.000000 2792.574463 0.000000 0.877090 0.000000 0.480326 0.580862 0.580862 0.580862
4437.235840 0.000000 2787.595459 0.000000 0.898790 0.000000 0.438379 0.546098 0.546098 0.546098
4427.616211 0.000000 2797.075439 0.000000 0.828423 0.000000 0.560103 0.579696 0.579696 0.579696
4432.716797 0.000000 2799.832275 0.000000 0.828148 0.000000 0.560509 0.579724 0.579724 0.579724
4435.443848 0.000000 2817.654053 0.000000 0.865331 0.000000 0.501201 0.579947 0.579947 0.579947
4430.650879 0.000000 2818.075195 0.000000 0.892394 0.000000 0.451257 0.584256 0.584256 0.584256
4430.389160 0.000000 2801.119141 0.000000 0.853931 0.000000 0.520387 0.581964 0.581964 0.581964
4434.128418 0.000000 2788.496094 0.000000 0.985513 0.000000 0.169598 0.594282 0.594282 0.594282
4418.552734 0.000000 2823.810547 0.000000 0.842085 0.000000 0.539345 0.578241 0.578241 0.578241
4410.807129 0.000000 2830.873291 0.000000 0.999996 0.000000 0.002888 0.493401 0.493401 0.493401
4413.512207 0.000000 2824.244873 0.000000 0.939018 0.000000 0.343868 0.588274 0.588274 0.588274
4396.062988 0.000000 2833.207764 0.000000 0.967827 0.000000 0.251617 0.440646 0.440646 0.440646
4397.943359 0.000000 2826.573730 0.000000 0.846084 0.000000 0.533050 0.416532 0.416532 0.416532
4406.173828 0.000000 2830.403076 0.000000 0.978160 0.000000 0.207853 0.592002 0.592002 0.592002
4399.537109 0.000000 2851.347168 0.000000 0.940212 0.000000 0.340591 0.461857 0.461857 0.461857
4408.639160 0.000000 2829.191162 0.000000 0.851518 0.000000 0.524325 0.581440 0.581440 0.581440
4413.638184 0.000000 2843.941895 0.000000 0.999380 0.000000 0.035201 0.598755 0.598755 0.598755
4393.128906 0.000000 2845.084473 0.000000 0.961925 0.000000 0.273315 0.590939 0.590939 0.590939
4414.582031 0.000000 2839.085938 0.000000 0.859818 0.000000 0.510601 0.579531 0.579531 0.579531
4417.451172 0.000000 2836.394287 0.000000 0.836850 0.000000 0.547432 0.546264 0.546264 0.546264
4436.569336 0.000000 2829.605225 0.000000 0.734034 0.000000 0.679113 0.537889 0.537889 0.537889
4424.407715 0.000000 2832.031006 0.000000 0.807445 0.000000 0.589943 0.391241 0.391241 0.391241
4434.283691 0.000000 2825.351562 0.000000 0.893232 0.000000 0.449595 0.415541 0.415541 0.415541
4422.330566 0.000000 2836.315674 0.000000 0.962023 0.000000 0.272970 0.551071 0.551071 0.551071
4420.047852 0.000000 2832.568848 0.000000 0.973661 0.000000 0.228002 0.591972 0.591972 0.591972
4419.820801 0.000000 2838.024170 0.000000 0.812639 0.000000 0.582767 0.577774 0.577774 0.577774
4438.782715 0.000000 2831.522217 0.000000 0.739597 0.000000 0.673050 0.492070 0.492070 0.492070
4431.671387 0.000000 2825.747803 0.000000 0.732867 0.000000 0.680371 0.559507 0.559507 0.559507
4435.894531 0.000000 2831.990479 0.000000 0.975586 0.000000 0.219619 0.591542 0.591542 0.591542
6279.671387 0.000000 2453.684570 0.000000 0.748840 0.000000 0.662751 0.510635 0.510635 0.510635
6274.500488 0.000000 2448.572266 0.000000 0.964968 0.000000 0.262368 0.425100 0.425100 0.425100
"}
object={
	name="pine_dense_generator_1_3"
	clamp_to_water_level=no
	render_under_water=no
	generated_content=yes
	layer="semidynamic"
	pdxmesh="tree_fir_004_mesh"
	count=154
	transform="4575.334473 0.000000 2582.782227 0.000000 0.754475 0.000000 -0.656329 0.624720 0.624720 0.624720
4605.507812 0.000000 2591.573730 0.000000 0.999987 0.000000 -0.005159 0.600197 0.600197 0.600197
4597.860840 0.000000 2589.863281 0.000000 0.998903 0.000000 -0.046837 0.547003 0.547003 0.547003
4561.722656 0.000000 2593.974121 0.000000 0.707488 0.000000 -0.706726 0.628098 0.628098 0.628098
4522.673340 0.000000 2598.425049 0.000000 0.995259 0.000000 -0.097265 0.465253 0.465253 0.465253
4703.453613 0.000000 2502.042725 0.000000 0.903103 0.000000 -0.429425 0.503088 0.503088 0.503088
4687.130859 0.000000 2524.684326 0.000000 0.993120 0.000000 -0.117102 0.449792 0.449792 0.449792
4721.272949 0.000000 2518.937500 0.000000 0.821143 0.000000 -0.570722 0.503875 0.503875 0.503875
4702.236816 0.000000 2537.842285 0.000000 0.765257 0.000000 -0.643725 0.409708 0.409708 0.409708
4728.550781 0.000000 2518.171631 0.000000 0.969545 0.000000 -0.244912 0.524240 0.524240 0.524240
4705.210449 0.000000 2530.185791 0.000000 0.960679 0.000000 -0.277661 0.431309 0.431309 0.431309
4698.074219 0.000000 2515.828857 0.000000 0.859261 0.000000 -0.511537 0.407480 0.407480 0.407480
4722.584961 0.000000 2513.206787 0.000000 0.983870 0.000000 -0.178886 0.402515 0.402515 0.402515
4714.009766 0.000000 2540.249268 0.000000 0.972349 0.000000 -0.233531 0.403284 0.403284 0.403284
4717.434082 0.000000 2515.041748 0.000000 0.897404 0.000000 -0.441209 0.462591 0.462591 0.462591
4726.864258 0.000000 2540.311035 0.000000 0.990105 0.000000 -0.140325 0.605114 0.605114 0.605114
4710.535645 0.000000 2514.820557 0.000000 0.989363 0.000000 -0.145469 0.445008 0.445008 0.445008
4726.381836 0.000000 2514.640137 0.000000 0.930983 0.000000 -0.365063 0.574735 0.574735 0.574735
4710.889160 0.000000 2508.752197 0.000000 0.988267 0.000000 -0.152737 0.445135 0.445135 0.445135
4719.868652 0.000000 2533.723389 0.000000 0.967434 0.000000 -0.253124 0.489651 0.489651 0.489651
4713.322754 0.000000 2533.588135 0.000000 0.892171 0.000000 -0.451697 0.468240 0.468240 0.468240
4716.412598 0.000000 2527.586182 0.000000 0.804597 0.000000 -0.593821 0.539111 0.539111 0.539111
4731.981445 0.000000 2540.531738 0.000000 0.849231 0.000000 -0.528021 0.538539 0.538539 0.538539
4723.634277 0.000000 2528.040283 0.000000 0.840317 0.000000 -0.542095 0.479788 0.479788 0.479788
4683.406250 0.000000 2518.383301 0.000000 0.909984 0.000000 -0.414643 0.471535 0.471535 0.471535
4666.544434 0.000000 2582.219971 0.000000 0.994289 0.000000 -0.106725 0.565787 0.565787 0.565787
4656.205566 0.000000 2598.255615 0.000000 0.993259 0.000000 -0.115919 0.445812 0.445812 0.445812
4671.487305 0.000000 2572.024658 0.000000 0.792103 0.000000 -0.610387 0.570257 0.570257 0.570257
4638.236816 0.000000 2594.326660 0.000000 0.993500 0.000000 -0.113831 0.546154 0.546154 0.546154
4652.662598 0.000000 2592.376953 0.000000 0.988910 0.000000 -0.148518 0.402047 0.402047 0.402047
4660.365234 0.000000 2581.063232 0.000000 0.832167 0.000000 -0.554525 0.596129 0.596129 0.596129
4669.292480 0.000000 2554.355957 0.000000 0.717980 0.000000 -0.696063 0.493389 0.493389 0.493389
4658.842773 0.000000 2559.666748 0.000000 0.884627 0.000000 -0.466299 0.430507 0.430507 0.430507
4650.009766 0.000000 2596.733643 0.000000 0.799573 0.000000 -0.600569 0.423407 0.423407 0.423407
4641.947754 0.000000 2591.270508 0.000000 0.880090 0.000000 -0.474806 0.449677 0.449677 0.449677
4670.419434 0.000000 2583.944092 0.000000 0.993070 0.000000 -0.117523 0.485450 0.485450 0.485450
4619.941895 0.000000 2583.600830 0.000000 0.802481 0.000000 -0.596677 0.460415 0.460415 0.460415
4656.647949 0.000000 2582.272705 0.000000 0.757254 0.000000 -0.653120 0.627185 0.627185 0.627185
4661.013672 0.000000 2576.443115 0.000000 0.874663 0.000000 -0.484732 0.462126 0.462126 0.462126
4665.910645 0.000000 2589.747803 0.000000 0.870018 0.000000 -0.493020 0.497802 0.497802 0.497802
4669.507812 0.000000 2591.573730 0.000000 0.982704 0.000000 -0.185184 0.524102 0.524102 0.524102
4646.346680 0.000000 2596.054443 0.000000 0.818744 0.000000 -0.574159 0.573194 0.573194 0.573194
4666.305176 0.000000 2585.778320 0.000000 0.737857 0.000000 -0.674957 0.628301 0.628301 0.628301
4669.611816 0.000000 2580.556641 0.000000 0.955729 0.000000 -0.294250 0.469083 0.469083 0.469083
4635.595215 0.000000 2592.320557 0.000000 0.969798 0.000000 -0.243910 0.468088 0.468088 0.468088
4649.064941 0.000000 2593.502441 0.000000 0.876384 0.000000 -0.481614 0.456615 0.456615 0.456615
4653.386719 0.000000 2596.503906 0.000000 0.896985 0.000000 -0.442061 0.616221 0.616221 0.616221
4656.580566 0.000000 2572.237549 0.000000 0.888177 0.000000 -0.459501 0.573584 0.573584 0.573584
4625.722656 0.000000 2593.974121 0.000000 0.992519 0.000000 -0.122088 0.604675 0.604675 0.604675
4663.819336 0.000000 2560.627686 0.000000 0.909630 0.000000 -0.415419 0.509546 0.509546 0.509546
4620.083496 0.000000 2587.310791 0.000000 0.978899 0.000000 -0.204344 0.551247 0.551247 0.551247
4671.976562 0.000000 2592.412354 0.000000 0.759766 0.000000 -0.650197 0.553456 0.553456 0.553456
4661.633789 0.000000 2578.854004 0.000000 0.964677 0.000000 -0.263435 0.609664 0.609664 0.609664
4687.130859 0.000000 2581.168701 0.000000 0.979065 0.000000 -0.203549 0.607001 0.607001 0.607001
4713.563477 0.000000 2568.287842 0.000000 0.843639 0.000000 -0.536911 0.448181 0.448181 0.448181
4687.272949 0.000000 2563.715332 0.000000 0.923530 0.000000 -0.383527 0.427720 0.427720 0.427720
4733.512207 0.000000 2541.822998 0.000000 0.847814 0.000000 -0.530294 0.484998 0.484998 0.484998
4686.953125 0.000000 2595.768555 0.000000 0.877358 0.000000 -0.479836 0.421247 0.421247 0.421247
4722.842773 0.000000 2559.666748 0.000000 0.939301 0.000000 -0.343095 0.439130 0.439130 0.439130
4714.009766 0.000000 2596.733643 0.000000 0.996332 0.000000 -0.085576 0.465029 0.465029 0.465029
4686.875488 0.000000 2586.558838 0.000000 0.709547 0.000000 -0.704658 0.580751 0.580751 0.580751
4698.364746 0.000000 2567.358154 0.000000 0.948630 0.000000 -0.316386 0.456099 0.456099 0.456099
4683.786133 0.000000 2546.849854 0.000000 0.994283 0.000000 -0.106780 0.453564 0.453564 0.453564
4689.260254 0.000000 2568.253906 0.000000 0.915264 0.000000 -0.402855 0.552739 0.552739 0.552739
4709.098633 0.000000 2584.667969 0.000000 0.749650 0.000000 -0.661834 0.498007 0.498007 0.498007
4672.163086 0.000000 2576.543457 0.000000 0.999823 0.000000 -0.018822 0.474231 0.474231 0.474231
4677.119141 0.000000 2558.231201 0.000000 0.895341 0.000000 -0.445382 0.447752 0.447752 0.447752
4734.624512 0.000000 2550.616943 0.000000 0.948260 0.000000 -0.317494 0.480296 0.480296 0.480296
4683.941895 0.000000 2583.600830 0.000000 0.724332 0.000000 -0.689451 0.544980 0.544980 0.544980
4695.371094 0.000000 2584.810791 0.000000 0.975564 0.000000 -0.219714 0.571722 0.571722 0.571722
4710.686523 0.000000 2542.102539 0.000000 0.851799 0.000000 -0.523868 0.510912 0.510912 0.510912
4695.293457 0.000000 2565.361572 0.000000 0.843165 0.000000 -0.537656 0.509897 0.509897 0.509897
4701.530273 0.000000 2569.089355 0.000000 0.989334 0.000000 -0.145665 0.586816 0.586816 0.586816
4710.346680 0.000000 2596.054443 0.000000 0.783479 0.000000 -0.621418 0.463731 0.463731 0.463731
4690.230469 0.000000 2579.832520 0.000000 0.851108 0.000000 -0.524991 0.571559 0.571559 0.571559
4672.894531 0.000000 2572.096924 0.000000 0.985300 0.000000 -0.170832 0.567629 0.567629 0.567629
4695.836426 0.000000 2592.409668 0.000000 0.969034 0.000000 -0.246927 0.608316 0.608316 0.608316
4719.537109 0.000000 2568.925293 0.000000 0.894451 0.000000 -0.447165 0.616284 0.616284 0.616284
4676.948730 0.000000 2541.911865 0.000000 0.966456 0.000000 -0.256832 0.503111 0.503111 0.503111
4697.916992 0.000000 2586.562988 0.000000 0.782254 0.000000 -0.622959 0.498341 0.498341 0.498341
4675.820801 0.000000 2555.602295 0.000000 0.950168 0.000000 -0.311739 0.508409 0.508409 0.508409
4689.360840 0.000000 2587.957275 0.000000 0.928658 0.000000 -0.370936 0.584432 0.584432 0.584432
4684.083496 0.000000 2587.310791 0.000000 0.970149 0.000000 -0.242509 0.548275 0.548275 0.548275
4716.127930 0.000000 2569.238281 0.000000 0.955938 0.000000 -0.293569 0.536212 0.536212 0.536212
4686.650879 0.000000 2592.137695 0.000000 0.999782 0.000000 -0.020886 0.495227 0.495227 0.495227
4710.385742 0.000000 2558.641846 0.000000 0.807275 0.000000 -0.590175 0.516833 0.516833 0.516833
4706.111328 0.000000 2573.412109 0.000000 0.822522 0.000000 -0.568733 0.527291 0.527291 0.527291
4687.870117 0.000000 2578.619629 0.000000 0.830918 0.000000 -0.556394 0.579532 0.579532 0.579532
4695.339844 0.000000 2574.204346 0.000000 0.918049 0.000000 -0.396468 0.549835 0.549835 0.549835
4673.118652 0.000000 2586.527100 0.000000 0.790038 0.000000 -0.613058 0.587110 0.587110 0.587110
4686.401855 0.000000 2583.492676 0.000000 0.999205 0.000000 -0.039870 0.584883 0.584883 0.584883
4636.793945 0.000000 2601.123047 0.000000 0.891315 0.000000 -0.453385 0.420797 0.420797 0.420797
4610.396484 0.000000 2600.143311 0.000000 0.861036 0.000000 -0.508543 0.470819 0.470819 0.470819
4658.318359 0.000000 2598.487061 0.000000 0.911145 0.000000 -0.412085 0.412015 0.412015 0.412015
4612.948730 0.000000 2598.396240 0.000000 0.886634 0.000000 -0.462472 0.603909 0.603909 0.603909
4618.564941 0.000000 2600.830078 0.000000 0.938632 0.000000 -0.344920 0.586321 0.586321 0.586321
4664.639160 0.000000 2603.253662 0.000000 0.884015 0.000000 -0.467458 0.512204 0.512204 0.512204
4608.090332 0.000000 2601.576904 0.000000 0.996496 0.000000 -0.083642 0.545351 0.545351 0.545351
4712.832520 0.000000 2601.782471 0.000000 0.929249 0.000000 -0.369455 0.439597 0.439597 0.439597
4702.961914 0.000000 2599.242676 0.000000 0.995381 0.000000 -0.096004 0.603673 0.603673 0.603673
4378.979980 0.000000 2809.567139 0.000000 0.940160 0.000000 -0.340733 0.612031 0.612031 0.612031
4372.089355 0.000000 2812.551270 0.000000 0.915946 0.000000 -0.401302 0.415888 0.415888 0.415888
4377.621582 0.000000 2815.609131 0.000000 0.999967 0.000000 -0.008132 0.600311 0.600311 0.600311
4383.334473 0.000000 2808.719727 0.000000 0.988101 0.000000 -0.153806 0.580423 0.580423 0.580423
4385.947754 0.000000 2817.208008 0.000000 0.999513 0.000000 -0.031214 0.499385 0.499385 0.499385
4375.371094 0.000000 2810.748291 0.000000 0.926317 0.000000 -0.376745 0.614755 0.614755 0.614755
4403.402344 0.000000 2821.701660 0.000000 0.744798 0.000000 -0.667290 0.563858 0.563858 0.563858
4358.724121 0.000000 2801.241943 0.000000 0.916524 0.000000 -0.399980 0.614424 0.614424 0.614424
4361.604492 0.000000 2795.188721 0.000000 0.771452 0.000000 -0.636288 0.626344 0.626344 0.626344
4363.616211 0.000000 2797.075439 0.000000 0.973269 0.000000 -0.229667 0.608852 0.608852 0.608852
4362.329590 0.000000 2792.438965 0.000000 0.865566 0.000000 -0.500795 0.618621 0.618621 0.618621
4414.390625 0.000000 2823.494873 0.000000 0.999828 0.000000 -0.018548 0.600709 0.600709 0.600709
4359.143066 0.000000 2795.118896 0.000000 0.748011 0.000000 -0.663686 0.627721 0.627721 0.627721
4437.705078 0.000000 2794.602051 0.000000 0.977378 0.000000 -0.211501 0.608140 0.608140 0.608140
4423.671387 0.000000 2792.590820 0.000000 0.971932 0.000000 -0.235263 0.598991 0.598991 0.598991
4427.959473 0.000000 2816.225342 0.000000 0.777468 0.000000 -0.628922 0.625980 0.625980 0.625980
4448.032227 0.000000 2804.672363 0.000000 0.727625 0.000000 -0.685976 0.628875 0.628875 0.628875
4441.621582 0.000000 2815.609131 0.000000 0.957729 0.000000 -0.287673 0.611146 0.611146 0.611146
4428.552734 0.000000 2793.928467 0.000000 0.960386 0.000000 -0.278674 0.610787 0.610787 0.610787
4430.875488 0.000000 2812.496338 0.000000 0.968097 0.000000 -0.250577 0.609674 0.609674 0.609674
4435.007324 0.000000 2785.812744 0.000000 0.994329 0.000000 -0.106349 0.406103 0.406103 0.406103
4442.709961 0.000000 2804.774414 0.000000 0.948275 0.000000 -0.317450 0.611783 0.611783 0.611783
4426.351562 0.000000 2788.613281 0.000000 0.744778 0.000000 -0.667313 0.627907 0.627907 0.627907
4434.817383 0.000000 2798.178223 0.000000 0.986420 0.000000 -0.164245 0.606241 0.606241 0.606241
4433.260254 0.000000 2794.191406 0.000000 0.909345 0.000000 -0.416043 0.614365 0.614365 0.614365
4417.884766 0.000000 2818.786865 0.000000 0.940354 0.000000 -0.340198 0.482123 0.482123 0.482123
4439.293457 0.000000 2791.299072 0.000000 0.999991 0.000000 -0.004251 0.578559 0.578559 0.578559
4441.681152 0.000000 2801.511963 0.000000 0.859508 0.000000 -0.511122 0.620492 0.620492 0.620492
4440.795410 0.000000 2795.646484 0.000000 0.718868 0.000000 -0.695147 0.629359 0.629359 0.629359
4432.244141 0.000000 2796.932129 0.000000 0.819397 0.000000 -0.573226 0.623317 0.623317 0.623317
4432.186523 0.000000 2786.885742 0.000000 0.792463 0.000000 -0.609921 0.625056 0.625056 0.625056
4441.283691 0.000000 2789.352051 0.000000 0.711115 0.000000 -0.703076 0.626221 0.626221 0.626221
4436.984863 0.000000 2804.932373 0.000000 0.816323 0.000000 -0.577596 0.622968 0.622968 0.622968
4428.375000 0.000000 2822.402100 0.000000 0.994089 0.000000 -0.108571 0.604139 0.604139 0.604139
4426.235840 0.000000 2811.418701 0.000000 0.996511 0.000000 -0.083457 0.544028 0.544028 0.544028
4443.190918 0.000000 2796.043701 0.000000 0.812688 0.000000 -0.582699 0.562363 0.562363 0.562363
4447.328613 0.000000 2818.056152 0.000000 0.998012 0.000000 -0.063025 0.602409 0.602409 0.602409
4439.935547 0.000000 2804.789551 0.000000 0.922908 0.000000 -0.385021 0.615097 0.615097 0.615097
4407.638184 0.000000 2839.962158 0.000000 0.935250 0.000000 -0.353988 0.613767 0.613767 0.613767
4414.624512 0.000000 2833.038818 0.000000 0.905946 0.000000 -0.423393 0.616699 0.616699 0.616699
4403.863281 0.000000 2848.591553 0.000000 0.955862 0.000000 -0.293816 0.557756 0.557756 0.557756
4400.918945 0.000000 2839.204834 0.000000 0.999950 0.000000 -0.010047 0.600359 0.600359 0.600359
4407.819336 0.000000 2843.049561 0.000000 0.989323 0.000000 -0.145739 0.605587 0.605587 0.605587
4400.746582 0.000000 2827.456299 0.000000 0.785677 0.000000 -0.618636 0.623529 0.623529 0.623529
4401.394043 0.000000 2849.548584 0.000000 0.975229 0.000000 -0.221198 0.512976 0.512976 0.512976
4408.346680 0.000000 2846.419678 0.000000 0.775083 0.000000 -0.631860 0.625613 0.625613 0.625613
4415.814453 0.000000 2842.663330 0.000000 0.923750 0.000000 -0.382995 0.615013 0.615013 0.615013
4413.251953 0.000000 2831.033203 0.000000 0.994672 0.000000 -0.103089 0.603798 0.603798 0.603798
4418.396484 0.000000 2826.080811 0.000000 0.991761 0.000000 -0.128104 0.573024 0.573024 0.573024
4416.090332 0.000000 2827.514404 0.000000 0.789883 0.000000 -0.613258 0.625217 0.625217 0.625217
4419.913086 0.000000 2835.155273 0.000000 0.833258 0.000000 -0.552885 0.622377 0.622377 0.622377
4422.363770 0.000000 2833.731445 0.000000 0.940414 0.000000 -0.340032 0.613253 0.613253 0.613253
6283.929688 0.000000 2440.833984 0.000000 0.811947 0.000000 -0.583731 0.471132 0.471132 0.471132
6278.330566 0.000000 2440.925049 0.000000 0.906370 0.000000 -0.422485 0.425684 0.425684 0.425684
"}
object={
	name="pine_dense_generator_1_4"
	clamp_to_water_level=no
	render_under_water=no
	generated_content=yes
	layer="semidynamic"
	pdxmesh="tree_fir_005_mesh"
	count=167
	transform="4531.456055 0.000000 2592.085205 0.000000 0.649740 0.000000 -0.760156 0.496695 0.496695 0.496695
4534.864258 0.000000 2596.795410 0.000000 0.375640 0.000000 -0.926766 0.644847 0.644847 0.644847
4518.346680 0.000000 2596.054443 0.000000 0.140053 0.000000 -0.990144 0.586940 0.586940 0.586940
4535.062500 0.000000 2592.814453 0.000000 0.052786 0.000000 -0.998606 0.486385 0.486385 0.486385
4591.722656 0.000000 2586.116455 0.000000 0.542148 0.000000 -0.840283 0.413551 0.413551 0.413551
4555.959473 0.000000 2590.287842 0.000000 0.584051 0.000000 -0.811717 0.423757 0.423757 0.423757
4544.254883 0.000000 2588.937744 0.000000 0.636617 0.000000 -0.771180 0.470328 0.470328 0.470328
4595.456055 0.000000 2592.085205 0.000000 0.648447 0.000000 -0.761260 0.437882 0.437882 0.437882
4569.621582 0.000000 2589.671631 0.000000 0.246898 0.000000 -0.969041 0.492910 0.492910 0.492910
4569.505859 0.000000 2595.568604 0.000000 0.150061 0.000000 -0.988677 0.525733 0.525733 0.525733
4591.868652 0.000000 2590.207764 0.000000 0.183093 0.000000 -0.983096 0.652032 0.652032 0.652032
4585.656250 0.000000 2581.906738 0.000000 0.487541 0.000000 -0.873100 0.500732 0.500732 0.500732
4550.507812 0.000000 2593.887939 0.000000 0.641691 0.000000 -0.766963 0.576211 0.576211 0.576211
4558.650879 0.000000 2592.137695 0.000000 0.389285 0.000000 -0.921117 0.640342 0.640342 0.640342
4516.045898 0.000000 2603.556152 0.000000 0.534589 0.000000 -0.845113 0.449998 0.449998 0.449998
4530.318359 0.000000 2598.487061 0.000000 0.119740 0.000000 -0.992805 0.582996 0.582996 0.582996
4516.575195 0.000000 2600.670166 0.000000 0.424175 0.000000 -0.905580 0.495000 0.495000 0.495000
4710.230957 0.000000 2523.841553 0.000000 0.157164 0.000000 -0.987573 0.546284 0.546284 0.546284
4713.385742 0.000000 2518.230713 0.000000 0.144106 0.000000 -0.989562 0.464223 0.464223 0.464223
4727.107910 0.000000 2530.513916 0.000000 0.565323 0.000000 -0.824870 0.419888 0.419888 0.419888
4678.215332 0.000000 2534.250244 0.000000 0.375106 0.000000 -0.926982 0.517737 0.517737 0.517737
4702.060547 0.000000 2533.467285 0.000000 0.043336 0.000000 -0.999061 0.544487 0.544487 0.544487
4706.735840 0.000000 2524.965576 0.000000 0.176231 0.000000 -0.984349 0.484074 0.484074 0.484074
4701.530273 0.000000 2512.604980 0.000000 0.259119 0.000000 -0.965845 0.539426 0.539426 0.539426
4723.759277 0.000000 2516.677246 0.000000 0.584884 0.000000 -0.811117 0.582483 0.582483 0.582483
4699.595215 0.000000 2535.836182 0.000000 0.429685 0.000000 -0.902979 0.564203 0.564203 0.564203
4725.860840 0.000000 2533.378906 0.000000 0.070908 0.000000 -0.997483 0.500797 0.500797 0.500797
4711.591309 0.000000 2527.148438 0.000000 0.454609 0.000000 -0.890691 0.534572 0.534572 0.534572
4735.976562 0.000000 2535.927979 0.000000 0.511261 0.000000 -0.859426 0.593615 0.593615 0.593615
4706.111328 0.000000 2516.927734 0.000000 0.373334 0.000000 -0.927697 0.538092 0.538092 0.538092
4687.870117 0.000000 2522.135254 0.000000 0.542998 0.000000 -0.839734 0.526494 0.526494 0.526494
4612.458496 0.000000 2596.262939 0.000000 0.487593 0.000000 -0.873071 0.623510 0.623510 0.623510
4645.982422 0.000000 2592.058594 0.000000 0.032744 0.000000 -0.999464 0.579280 0.579280 0.579280
4657.272949 0.000000 2575.421875 0.000000 0.056560 0.000000 -0.998399 0.420867 0.420867 0.420867
4619.959473 0.000000 2590.287842 0.000000 0.067805 0.000000 -0.997699 0.486106 0.486106 0.486106
4656.541992 0.000000 2564.382080 0.000000 0.419415 0.000000 -0.907795 0.436511 0.436511 0.436511
4669.248047 0.000000 2587.798828 0.000000 0.630680 0.000000 -0.776043 0.466257 0.466257 0.466257
4614.215332 0.000000 2590.734619 0.000000 0.323190 0.000000 -0.946334 0.504407 0.504407 0.504407
4634.074219 0.000000 2572.313232 0.000000 0.684820 0.000000 -0.728712 0.459387 0.459387 0.459387
4658.584961 0.000000 2569.691162 0.000000 0.441529 0.000000 -0.897247 0.540690 0.540690 0.540690
4671.586426 0.000000 2595.231445 0.000000 0.322625 0.000000 -0.946527 0.543733 0.543733 0.543733
4669.212891 0.000000 2567.188721 0.000000 0.429970 0.000000 -0.902843 0.469095 0.469095 0.469095
4624.971680 0.000000 2590.973877 0.000000 0.190161 0.000000 -0.981753 0.631986 0.631986 0.631986
4633.505859 0.000000 2595.568604 0.000000 0.365024 0.000000 -0.930998 0.642320 0.642320 0.642320
4645.098633 0.000000 2584.667969 0.000000 0.393095 0.000000 -0.919498 0.455504 0.455504 0.455504
4649.322754 0.000000 2590.072510 0.000000 0.474501 0.000000 -0.880255 0.461093 0.461093 0.461093
4660.003906 0.000000 2545.124512 0.000000 0.285972 0.000000 -0.958238 0.464626 0.464626 0.464626
4655.537109 0.000000 2568.925293 0.000000 0.084719 0.000000 -0.996405 0.491678 0.491678 0.491678
4661.860840 0.000000 2589.863281 0.000000 0.594773 0.000000 -0.803893 0.635669 0.635669 0.635669
4618.072266 0.000000 2597.968994 0.000000 0.241958 0.000000 -0.970287 0.517831 0.517831 0.517831
4666.504395 0.000000 2565.555664 0.000000 0.256176 0.000000 -0.966630 0.589672 0.589672 0.589672
4658.798340 0.000000 2578.478027 0.000000 0.692576 0.000000 -0.721345 0.508129 0.508129 0.508129
4622.604980 0.000000 2589.373779 0.000000 0.182665 0.000000 -0.983175 0.557523 0.557523 0.557523
4665.384766 0.000000 2598.048584 0.000000 0.635818 0.000000 -0.771839 0.584976 0.584976 0.584976
4641.062500 0.000000 2593.870850 0.000000 0.438167 0.000000 -0.898894 0.529222 0.529222 0.529222
4651.601562 0.000000 2594.697021 0.000000 0.574044 0.000000 -0.818825 0.633627 0.633627 0.633627
4671.697754 0.000000 2586.520996 0.000000 0.019277 0.000000 -0.999814 0.542049 0.542049 0.542049
4673.451172 0.000000 2553.972412 0.000000 0.099123 0.000000 -0.995075 0.552130 0.552130 0.552130
4698.979980 0.000000 2583.629639 0.000000 0.594869 0.000000 -0.803823 0.574979 0.574979 0.574979
4703.758301 0.000000 2571.956543 0.000000 0.090135 0.000000 -0.995930 0.538936 0.538936 0.538936
4681.400879 0.000000 2557.916016 0.000000 0.601016 0.000000 -0.799237 0.419254 0.419254 0.419254
4702.236816 0.000000 2594.326660 0.000000 0.655975 0.000000 -0.754782 0.574276 0.574276 0.574276
4706.900879 0.000000 2541.861572 0.000000 0.082715 0.000000 -0.996573 0.559995 0.559995 0.559995
4697.621582 0.000000 2589.671631 0.000000 0.588134 0.000000 -0.808764 0.583806 0.583806 0.583806
4678.215332 0.000000 2590.734619 0.000000 0.492077 0.000000 -0.870551 0.422545 0.422545 0.422545
4717.943359 0.000000 2544.151855 0.000000 0.701619 0.000000 -0.712552 0.415951 0.415951 0.415951
4708.276367 0.000000 2575.043701 0.000000 0.251608 0.000000 -0.967829 0.442144 0.442144 0.442144
4708.045898 0.000000 2547.071777 0.000000 0.657513 0.000000 -0.753443 0.604123 0.604123 0.604123
4684.552734 0.000000 2567.990967 0.000000 0.585272 0.000000 -0.810837 0.413942 0.413942 0.413942
4727.531250 0.000000 2552.400635 0.000000 0.395111 0.000000 -0.918633 0.482689 0.482689 0.482689
4716.083496 0.000000 2561.857910 0.000000 0.414608 0.000000 -0.910000 0.516810 0.516810 0.516810
4683.929688 0.000000 2553.802734 0.000000 0.451872 0.000000 -0.892083 0.502991 0.502991 0.502991
4678.330566 0.000000 2553.893799 0.000000 0.541321 0.000000 -0.840816 0.414690 0.414690 0.414690
4675.505371 0.000000 2585.223145 0.000000 0.134624 0.000000 -0.990897 0.654842 0.654842 0.654842
4706.932617 0.000000 2595.873779 0.000000 0.027200 0.000000 -0.999630 0.652024 0.652024 0.652024
4706.015137 0.000000 2562.292480 0.000000 0.309463 0.000000 -0.950911 0.538211 0.538211 0.538211
4702.060547 0.000000 2589.951660 0.000000 0.654327 0.000000 -0.756212 0.581447 0.581447 0.581447
4673.884766 0.000000 2592.849365 0.000000 0.618078 0.000000 -0.786117 0.513076 0.513076 0.513076
4708.620605 0.000000 2588.505371 0.000000 0.325468 0.000000 -0.945553 0.465348 0.465348 0.465348
4672.009766 0.000000 2583.989502 0.000000 0.196880 0.000000 -0.980428 0.510009 0.510009 0.510009
4699.595215 0.000000 2592.320557 0.000000 0.283138 0.000000 -0.959079 0.557929 0.557929 0.557929
4694.628418 0.000000 2571.823975 0.000000 0.699936 0.000000 -0.714206 0.489713 0.489713 0.489713
4697.681152 0.000000 2575.574463 0.000000 0.519824 0.000000 -0.854274 0.544319 0.544319 0.544319
4724.463867 0.000000 2556.878662 0.000000 0.344551 0.000000 -0.938767 0.516992 0.516992 0.516992
4678.507812 0.000000 2593.887939 0.000000 0.036220 0.000000 -0.999344 0.658616 0.658616 0.658616
4675.510742 0.000000 2588.724854 0.000000 0.369425 0.000000 -0.929260 0.599609 0.599609 0.599609
4689.722656 0.000000 2593.974121 0.000000 0.324966 0.000000 -0.945726 0.571511 0.571511 0.571511
4723.016113 0.000000 2562.647949 0.000000 0.439064 0.000000 -0.898456 0.500412 0.500412 0.500412
4700.380371 0.000000 2596.647217 0.000000 0.008078 0.000000 -0.999967 0.656999 0.656999 0.656999
4688.244141 0.000000 2570.994629 0.000000 0.253682 0.000000 -0.967288 0.507347 0.507347 0.507347
4700.947754 0.000000 2571.868652 0.000000 0.449786 0.000000 -0.893136 0.513093 0.513093 0.513093
4711.299805 0.000000 2588.176270 0.000000 0.033832 0.000000 -0.999428 0.568710 0.568710 0.568710
4709.463867 0.000000 2549.402344 0.000000 0.514098 0.000000 -0.857732 0.510098 0.510098 0.510098
4682.235840 0.000000 2585.481201 0.000000 0.162577 0.000000 -0.986696 0.649229 0.649229 0.649229
4676.384766 0.000000 2592.569580 0.000000 0.556327 0.000000 -0.830963 0.628221 0.628221 0.628221
4699.190918 0.000000 2570.106201 0.000000 0.665089 0.000000 -0.746764 0.542779 0.542779 0.542779
4703.328613 0.000000 2592.118652 0.000000 0.076715 0.000000 -0.997053 0.533289 0.533289 0.533289
4695.935547 0.000000 2578.852051 0.000000 0.055421 0.000000 -0.998463 0.557669 0.557669 0.557669
4736.254883 0.000000 2532.453369 0.000000 0.166190 0.000000 -0.986094 0.419416 0.419416 0.419416
4638.961914 0.000000 2599.242676 0.000000 0.091494 0.000000 -0.995806 0.603319 0.603319 0.603319
4706.900879 0.000000 2598.345947 0.000000 0.296335 0.000000 -0.955084 0.548783 0.548783 0.548783
4695.491699 0.000000 2598.912842 0.000000 0.212509 0.000000 -0.977159 0.524349 0.524349 0.524349
4708.575195 0.000000 2600.670166 0.000000 0.157727 0.000000 -0.987483 0.593937 0.593937 0.593937
4356.032715 0.000000 2799.345947 0.000000 0.693920 0.000000 -0.720052 0.547458 0.547458 0.547458
4361.203613 0.000000 2803.435059 0.000000 0.163272 0.000000 -0.986581 0.653735 0.653735 0.653735
4369.256836 0.000000 2802.449219 0.000000 0.128996 0.000000 -0.991645 0.655059 0.655059 0.655059
4355.837402 0.000000 2791.296387 0.000000 0.414502 0.000000 -0.910048 0.502402 0.502402 0.502402
4388.620605 0.000000 2814.442871 0.000000 0.332060 0.000000 -0.943258 0.647071 0.647071 0.647071
4407.062500 0.000000 2818.751953 0.000000 0.215100 0.000000 -0.976592 0.514020 0.514020 0.514020
4385.910645 0.000000 2810.057129 0.000000 0.318520 0.000000 -0.947916 0.647618 0.647618 0.647618
4379.698730 0.000000 2814.233643 0.000000 0.193454 0.000000 -0.981109 0.652564 0.652564 0.652564
4420.458496 0.000000 2822.200439 0.000000 0.699446 0.000000 -0.714686 0.575492 0.575492 0.575492
4446.236816 0.000000 2820.264160 0.000000 0.645701 0.000000 -0.763590 0.435148 0.435148 0.435148
4431.272949 0.000000 2789.652832 0.000000 0.044323 0.000000 -0.999017 0.658306 0.658306 0.658306
4439.890625 0.000000 2786.791992 0.000000 0.394147 0.000000 -0.919047 0.644525 0.644525 0.644525
4430.953125 0.000000 2821.706055 0.000000 0.508620 0.000000 -0.860991 0.636667 0.636667 0.636667
4442.074219 0.000000 2798.250732 0.000000 0.575018 0.000000 -0.818141 0.608723 0.608723 0.608723
4437.208496 0.000000 2807.613525 0.000000 0.089646 0.000000 -0.995974 0.547883 0.547883 0.547883
4432.971680 0.000000 2816.911377 0.000000 0.045130 0.000000 -0.998981 0.657019 0.657019 0.657019
4419.505371 0.000000 2811.160645 0.000000 0.244747 0.000000 -0.969587 0.585545 0.585545 0.585545
4450.932617 0.000000 2821.811279 0.000000 0.404174 0.000000 -0.914682 0.644107 0.644107 0.644107
4450.015137 0.000000 2788.229980 0.000000 0.392935 0.000000 -0.919566 0.644575 0.644575 0.644575
4416.156738 0.000000 2822.634521 0.000000 0.290696 0.000000 -0.956815 0.525506 0.525506 0.525506
4437.502930 0.000000 2816.053467 0.000000 0.432615 0.000000 -0.901579 0.638367 0.638367 0.638367
4434.579102 0.000000 2822.923340 0.000000 0.690773 0.000000 -0.723072 0.630872 0.630872 0.630872
4427.406250 0.000000 2800.805176 0.000000 0.430515 0.000000 -0.902583 0.637688 0.637688 0.637688
4438.628418 0.000000 2797.761475 0.000000 0.080109 0.000000 -0.996786 0.649234 0.649234 0.649234
4448.449219 0.000000 2793.729736 0.000000 0.247408 0.000000 -0.968911 0.650451 0.650451 0.650451
4433.722656 0.000000 2819.911621 0.000000 0.335159 0.000000 -0.942162 0.646945 0.646945 0.646945
4428.526855 0.000000 2790.780273 0.000000 0.704067 0.000000 -0.710133 0.556966 0.556966 0.556966
4422.057129 0.000000 2812.672119 0.000000 0.508759 0.000000 -0.860909 0.639613 0.639613 0.639613
4449.448730 0.000000 2791.031250 0.000000 0.427264 0.000000 -0.904127 0.640854 0.640854 0.640854
4429.099609 0.000000 2787.510986 0.000000 0.367342 0.000000 -0.930086 0.645632 0.645632 0.645632
4428.083496 0.000000 2813.248291 0.000000 0.441108 0.000000 -0.897454 0.501802 0.501802 0.501802
4443.635742 0.000000 2790.784668 0.000000 0.463601 0.000000 -0.886044 0.592264 0.592264 0.592264
4444.947754 0.000000 2797.806152 0.000000 0.159851 0.000000 -0.987141 0.653868 0.653868 0.653868
4449.062500 0.000000 2819.808350 0.000000 0.019626 0.000000 -0.999807 0.659250 0.659250 0.659250
4426.329590 0.000000 2792.438965 0.000000 0.379281 0.000000 -0.925281 0.645141 0.645141 0.645141
4433.436523 0.000000 2791.603516 0.000000 0.462365 0.000000 -0.886690 0.641640 0.641640 0.641640
4450.111328 0.000000 2799.349609 0.000000 0.151624 0.000000 -0.988438 0.643788 0.643788 0.643788
4443.698730 0.000000 2814.233643 0.000000 0.202052 0.000000 -0.979375 0.652229 0.652229 0.652229
4439.339844 0.000000 2800.141846 0.000000 0.682322 0.000000 -0.731052 0.631316 0.631316 0.631316
4435.362793 0.000000 2795.722168 0.000000 0.283073 0.000000 -0.959098 0.649038 0.649038 0.649038
4423.143066 0.000000 2795.118896 0.000000 0.017291 0.000000 -0.999851 0.545090 0.545090 0.545090
4401.519043 0.000000 2830.548340 0.000000 0.131001 0.000000 -0.991382 0.520241 0.520241 0.520241
4415.958008 0.000000 2845.117676 0.000000 0.476721 0.000000 -0.879055 0.578778 0.578778 0.578778
4390.893555 0.000000 2843.666016 0.000000 0.433716 0.000000 -0.901050 0.588833 0.588833 0.588833
4406.816895 0.000000 2825.469482 0.000000 0.328823 0.000000 -0.944392 0.640353 0.640353 0.640353
4402.789551 0.000000 2836.306152 0.000000 0.355758 0.000000 -0.934578 0.646107 0.646107 0.646107
4410.511719 0.000000 2844.728760 0.000000 0.192684 0.000000 -0.981261 0.607901 0.607901 0.607901
4402.318359 0.000000 2824.424561 0.000000 0.396955 0.000000 -0.917838 0.641970 0.641970 0.641970
4414.270020 0.000000 2828.650146 0.000000 0.518239 0.000000 -0.855236 0.530020 0.530020 0.530020
4410.385254 0.000000 2826.810791 0.000000 0.438111 0.000000 -0.898921 0.640000 0.640000 0.640000
4404.014648 0.000000 2833.062012 0.000000 0.646455 0.000000 -0.762952 0.630030 0.630030 0.630030
4393.676758 0.000000 2842.285645 0.000000 0.398877 0.000000 -0.917005 0.509961 0.509961 0.509961
4413.032715 0.000000 2846.406738 0.000000 0.346054 0.000000 -0.938215 0.540229 0.540229 0.540229
4410.637207 0.000000 2851.152344 0.000000 0.562489 0.000000 -0.826805 0.634338 0.634338 0.634338
4405.566895 0.000000 2836.680908 0.000000 0.630650 0.000000 -0.776068 0.633935 0.633935 0.633935
4408.473633 0.000000 2832.349609 0.000000 0.396199 0.000000 -0.918165 0.644440 0.644440 0.644440
4408.742188 0.000000 2854.112549 0.000000 0.179003 0.000000 -0.983849 0.652605 0.652605 0.652605
4416.098633 0.000000 2831.167725 0.000000 0.394771 0.000000 -0.918779 0.632657 0.632657 0.632657
4437.668945 0.000000 2834.007568 0.000000 0.687600 0.000000 -0.726090 0.508276 0.508276 0.508276
4431.831543 0.000000 2828.390625 0.000000 0.288316 0.000000 -0.957535 0.648829 0.648829 0.648829
4420.948730 0.000000 2824.333740 0.000000 0.111672 0.000000 -0.993745 0.536958 0.536958 0.536958
4416.042480 0.000000 2824.226074 0.000000 0.122779 0.000000 -0.992434 0.655298 0.655298 0.655298
4426.564941 0.000000 2826.767578 0.000000 0.456346 0.000000 -0.889802 0.518686 0.518686 0.518686
4434.498535 0.000000 2828.036865 0.000000 0.608885 0.000000 -0.793259 0.545981 0.545981 0.545981
"}
