﻿object={
	name="rainforest_sparse_generator_2_0"
	clamp_to_water_level=no
	render_under_water=no
	generated_content=yes
	layer="semidynamic_medium"
	pdxmesh="tree_rainforest_001_mesh"
	count=111
	transform="5693.252441 0.000000 2213.316895 0.000000 0.437092 0.000000 0.899417 0.212709 0.212709 0.212709
5727.888672 0.000000 2224.434814 0.000000 0.292144 0.000000 0.956374 0.205351 0.205351 0.205351
5697.654297 0.000000 2217.248779 0.000000 0.129529 0.000000 0.991576 0.226301 0.226301 0.226301
5755.526855 0.000000 2235.657715 0.000000 0.540682 0.000000 0.841227 0.247626 0.247626 0.247626
5773.099609 0.000000 2222.667236 0.000000 0.565285 0.000000 0.824895 0.195532 0.195532 0.195532
5793.641602 0.000000 2220.969238 0.000000 0.068911 0.000000 0.997623 0.202968 0.202968 0.202968
5764.483887 0.000000 2232.639404 0.000000 0.174776 0.000000 0.984608 0.227275 0.227275 0.227275
5787.790527 0.000000 2221.644043 0.000000 0.197628 0.000000 0.980277 0.235254 0.235254 0.235254
5865.656250 0.000000 2243.000488 0.000000 0.453691 0.000000 0.891159 0.193064 0.193064 0.193064
5871.917480 0.000000 2239.672607 0.000000 0.006457 0.000000 0.999979 0.189299 0.189299 0.189299
5867.659668 0.000000 2239.070312 0.000000 0.101380 0.000000 0.994848 0.208119 0.208119 0.208119
5864.567383 0.000000 2237.573975 0.000000 0.093990 0.000000 0.995573 0.209027 0.209027 0.209027
5878.588867 0.000000 2256.073730 0.000000 0.268300 0.000000 0.963335 0.226353 0.226353 0.226353
5951.510742 0.000000 2114.658691 0.000000 0.512291 0.000000 0.858812 0.201231 0.201231 0.201231
5933.747070 0.000000 2138.613525 0.000000 0.430291 0.000000 0.902690 0.224184 0.224184 0.224184
5941.449707 0.000000 2139.813477 0.000000 0.263517 0.000000 0.964655 0.226789 0.226789 0.226789
5949.535645 0.000000 2144.097412 0.000000 0.109691 0.000000 0.993966 0.238969 0.238969 0.238969
5929.936523 0.000000 2143.018311 0.000000 0.279049 0.000000 0.960277 0.246406 0.246406 0.246406
5950.321777 0.000000 2108.254150 0.000000 0.053072 0.000000 0.998591 0.229761 0.229761 0.229761
5937.352051 0.000000 2143.055664 0.000000 0.574739 0.000000 0.818337 0.282842 0.282842 0.282842
5934.953613 0.000000 2143.321533 0.000000 0.341973 0.000000 0.939710 0.277672 0.277672 0.277672
5986.144043 0.000000 2140.911377 0.000000 0.267927 0.000000 0.963439 0.242396 0.242396 0.242396
5954.058594 0.000000 2108.361328 0.000000 0.364685 0.000000 0.931131 0.279416 0.279416 0.279416
6073.814453 0.000000 2108.764404 0.000000 0.425880 0.000000 0.904780 0.261172 0.261172 0.261172
6068.080566 0.000000 2103.115479 0.000000 0.448319 0.000000 0.893874 0.225389 0.225389 0.225389
6085.141602 0.000000 2115.428223 0.000000 0.030724 0.000000 0.999528 0.199247 0.199247 0.199247
6082.681152 0.000000 2112.140381 0.000000 0.403028 0.000000 0.915188 0.243196 0.243196 0.243196
5950.025391 0.000000 2149.534424 0.000000 0.182014 0.000000 0.983296 0.274223 0.274223 0.274223
6008.473633 0.000000 2154.537109 0.000000 0.331713 0.000000 0.943380 0.201188 0.201188 0.201188
5979.678223 0.000000 2151.420410 0.000000 0.460548 0.000000 0.887635 0.203822 0.203822 0.203822
6009.129395 0.000000 2185.224854 0.000000 0.570870 0.000000 0.821041 0.208456 0.208456 0.208456
5971.070801 0.000000 2189.774170 0.000000 0.585307 0.000000 0.810812 0.283216 0.283216 0.283216
5991.089844 0.000000 2161.719482 0.000000 0.444408 0.000000 0.895824 0.236816 0.236816 0.236816
6001.237305 0.000000 2159.612793 0.000000 0.111257 0.000000 0.993792 0.267088 0.267088 0.267088
5992.469727 0.000000 2165.671387 0.000000 0.237378 0.000000 0.971417 0.274577 0.274577 0.274577
5999.029785 0.000000 2160.649658 0.000000 0.494910 0.000000 0.868944 0.280913 0.280913 0.280913
5995.954590 0.000000 2170.112305 0.000000 0.561868 0.000000 0.827227 0.247946 0.247946 0.247946
6000.395508 0.000000 2178.737305 0.000000 0.412976 0.000000 0.910742 0.229470 0.229470 0.229470
5972.841797 0.000000 2180.972412 0.000000 0.313439 0.000000 0.949608 0.226850 0.226850 0.226850
6002.908203 0.000000 2185.172119 0.000000 0.417897 0.000000 0.908495 0.229528 0.229528 0.229528
6014.905762 0.000000 2152.216553 0.000000 0.543903 0.000000 0.839148 0.281990 0.281990 0.281990
6000.663086 0.000000 2165.062256 0.000000 0.444178 0.000000 0.895939 0.265864 0.265864 0.265864
6006.609375 0.000000 2174.254883 0.000000 0.049967 0.000000 0.998751 0.228776 0.228776 0.228776
6012.055664 0.000000 2152.323486 0.000000 0.525191 0.000000 0.850985 0.243895 0.243895 0.243895
6014.095703 0.000000 2177.952393 0.000000 0.079776 0.000000 0.996813 0.271525 0.271525 0.271525
6006.203613 0.000000 2186.736816 0.000000 0.039588 0.000000 0.999216 0.270756 0.270756 0.270756
5975.062012 0.000000 2162.527832 0.000000 0.250757 0.000000 0.968050 0.270307 0.270307 0.270307
6008.732422 0.000000 2194.963379 0.000000 0.565758 0.000000 0.824571 0.281485 0.281485 0.281485
5972.561035 0.000000 2197.171631 0.000000 0.540603 0.000000 0.841278 0.282518 0.282518 0.282518
5939.634277 0.000000 2245.618408 0.000000 0.491038 0.000000 0.871138 0.192766 0.192766 0.192766
5943.867676 0.000000 2250.122314 0.000000 0.258839 0.000000 0.965920 0.219388 0.219388 0.219388
5920.801270 0.000000 2231.205811 0.000000 0.484392 0.000000 0.874851 0.212171 0.212171 0.212171
5935.436035 0.000000 2237.612061 0.000000 0.436680 0.000000 0.899617 0.221251 0.221251 0.221251
5945.360352 0.000000 2214.147217 0.000000 0.157955 0.000000 0.987446 0.207639 0.207639 0.207639
5940.072754 0.000000 2251.393799 0.000000 0.474635 0.000000 0.880183 0.237207 0.237207 0.237207
5947.262207 0.000000 2225.026611 0.000000 0.311072 0.000000 0.950386 0.214475 0.214475 0.214475
5949.976074 0.000000 2243.576416 0.000000 0.248736 0.000000 0.968571 0.226627 0.226627 0.226627
5947.962402 0.000000 2241.838867 0.000000 0.484903 0.000000 0.874568 0.238840 0.238840 0.238840
5950.871094 0.000000 2246.401123 0.000000 0.139501 0.000000 0.990222 0.272673 0.272673 0.272673
5932.311035 0.000000 2216.479736 0.000000 0.216525 0.000000 0.976277 0.235480 0.235480 0.235480
5933.556641 0.000000 2248.533936 0.000000 0.307053 0.000000 0.951693 0.265060 0.265060 0.265060
5936.927734 0.000000 2247.906494 0.000000 0.388165 0.000000 0.921590 0.277613 0.277613 0.277613
6000.918945 0.000000 2217.876709 0.000000 0.015473 0.000000 0.999880 0.189205 0.189205 0.189205
5966.979980 0.000000 2227.730713 0.000000 0.208851 0.000000 0.977948 0.202161 0.202161 0.202161
5961.795410 0.000000 2202.915039 0.000000 0.126482 0.000000 0.991969 0.195577 0.195577 0.195577
5976.077637 0.000000 2212.287109 0.000000 0.286221 0.000000 0.958164 0.197809 0.197809 0.197809
5999.645996 0.000000 2210.588623 0.000000 0.043956 0.000000 0.999034 0.205675 0.205675 0.205675
5963.263184 0.000000 2239.452881 0.000000 0.228184 0.000000 0.973618 0.202817 0.202817 0.202817
5982.725586 0.000000 2206.483154 0.000000 0.489535 0.000000 0.871983 0.213744 0.213744 0.213744
5953.843750 0.000000 2249.270264 0.000000 0.570626 0.000000 0.821210 0.281598 0.281598 0.281598
5976.512695 0.000000 2210.623535 0.000000 0.414827 0.000000 0.909900 0.220014 0.220014 0.220014
5996.442383 0.000000 2209.403320 0.000000 0.119866 0.000000 0.992790 0.254658 0.254658 0.254658
5965.306641 0.000000 2227.442139 0.000000 0.472782 0.000000 0.881179 0.226675 0.226675 0.226675
5985.760254 0.000000 2207.298828 0.000000 0.431008 0.000000 0.902348 0.240114 0.240114 0.240114
5954.875977 0.000000 2235.477295 0.000000 0.102106 0.000000 0.994774 0.273988 0.273988 0.273988
6053.098633 0.000000 2189.277344 0.000000 0.165768 0.000000 0.986165 0.190359 0.190359 0.190359
6057.967773 0.000000 2176.224121 0.000000 0.252427 0.000000 0.967616 0.191038 0.191038 0.191038
6048.330078 0.000000 2200.703613 0.000000 0.348278 0.000000 0.937391 0.204340 0.204340 0.204340
6056.284180 0.000000 2184.872803 0.000000 0.406974 0.000000 0.913440 0.212915 0.212915 0.212915
6049.680176 0.000000 2202.233887 0.000000 0.395578 0.000000 0.918432 0.209288 0.209288 0.209288
6043.849121 0.000000 2173.011963 0.000000 0.418356 0.000000 0.908283 0.221552 0.221552 0.221552
6042.057129 0.000000 2181.869385 0.000000 0.547196 0.000000 0.837004 0.281058 0.281058 0.281058
6029.317383 0.000000 2199.633545 0.000000 0.164796 0.000000 0.986328 0.240606 0.240606 0.240606
6035.835449 0.000000 2167.293213 0.000000 0.331387 0.000000 0.943495 0.240785 0.240785 0.240785
6049.478516 0.000000 2176.427734 0.000000 0.207008 0.000000 0.978339 0.235366 0.235366 0.235366
6019.916016 0.000000 2151.019287 0.000000 0.457527 0.000000 0.889196 0.279691 0.279691 0.279691
6047.303223 0.000000 2173.417725 0.000000 0.558589 0.000000 0.829445 0.254410 0.254410 0.254410
6048.608398 0.000000 2177.937500 0.000000 0.023938 0.000000 0.999713 0.233213 0.233213 0.233213
6038.249023 0.000000 2202.773438 0.000000 0.248941 0.000000 0.968519 0.275101 0.275101 0.275101
6036.063965 0.000000 2187.280518 0.000000 0.235559 0.000000 0.971860 0.265341 0.265341 0.265341
6018.875977 0.000000 2178.992920 0.000000 0.397756 0.000000 0.917491 0.247055 0.247055 0.247055
6022.510254 0.000000 2163.006592 0.000000 0.393818 0.000000 0.919188 0.275158 0.275158 0.275158
6035.693848 0.000000 2175.741943 0.000000 0.029731 0.000000 0.999558 0.261659 0.261659 0.261659
6087.143066 0.000000 2173.790771 0.000000 0.139988 0.000000 0.990153 0.198641 0.198641 0.198641
6083.099121 0.000000 2173.107910 0.000000 0.338105 0.000000 0.941108 0.228605 0.228605 0.228605
6080.049316 0.000000 2172.103760 0.000000 0.383227 0.000000 0.923654 0.267268 0.267268 0.267268
6053.372070 0.000000 2206.955078 0.000000 0.152964 0.000000 0.988232 0.274260 0.274260 0.274260
6032.728516 0.000000 2202.897217 0.000000 0.442558 0.000000 0.896740 0.280589 0.280589 0.280589
5929.128906 0.000000 2280.240723 0.000000 0.563575 0.000000 0.826065 0.205816 0.205816 0.205816
5900.251465 0.000000 2266.211182 0.000000 0.156037 0.000000 0.987751 0.223206 0.223206 0.223206
5888.371582 0.000000 2264.459717 0.000000 0.354644 0.000000 0.935001 0.230274 0.230274 0.230274
5907.704102 0.000000 2273.139160 0.000000 0.180917 0.000000 0.983498 0.218605 0.218605 0.218605
5913.045410 0.000000 2271.266846 0.000000 0.339217 0.000000 0.940708 0.232063 0.232063 0.232063
5950.208984 0.000000 2296.035645 0.000000 0.018062 0.000000 0.999837 0.271333 0.271333 0.271333
5946.093750 0.000000 2289.811768 0.000000 0.507884 0.000000 0.861426 0.249133 0.249133 0.249133
5951.314453 0.000000 2287.287842 0.000000 0.542925 0.000000 0.839781 0.250162 0.250162 0.250162
5972.436035 0.000000 2301.646973 0.000000 0.201332 0.000000 0.979523 0.199127 0.199127 0.199127
5969.493164 0.000000 2303.347900 0.000000 0.319107 0.000000 0.947719 0.207584 0.207584 0.207584
5956.166992 0.000000 2308.139648 0.000000 0.447652 0.000000 0.894208 0.218356 0.218356 0.218356
5953.843750 0.000000 2305.754639 0.000000 0.435429 0.000000 0.900223 0.277847 0.277847 0.277847
6247.743652 0.000000 2012.693481 0.000000 0.531762 0.000000 0.846894 0.282032 0.282032 0.282032
"}
object={
	name="rainforest_sparse_generator_2_1"
	clamp_to_water_level=no
	render_under_water=no
	generated_content=yes
	layer="semidynamic_medium"
	pdxmesh="tree_rainforest_002_mesh"
	count=123
	transform="5688.473633 0.000000 2211.021484 0.000000 0.898334 0.000000 0.439313 0.215405 0.215405 0.215405
5694.905762 0.000000 2208.700928 0.000000 0.687685 0.000000 0.726009 0.284018 0.284018 0.284018
5692.055664 0.000000 2208.807861 0.000000 0.932059 0.000000 0.362305 0.292919 0.292919 0.292919
5693.256836 0.000000 2208.255371 0.000000 0.832332 0.000000 0.554278 0.288780 0.288780 0.288780
5751.893555 0.000000 2246.395508 0.000000 0.933693 0.000000 0.358074 0.227002 0.227002 0.227002
5752.471680 0.000000 2243.346680 0.000000 0.934916 0.000000 0.354870 0.241631 0.241631 0.241631
5750.203613 0.000000 2243.221191 0.000000 0.674622 0.000000 0.738164 0.240034 0.240034 0.240034
5729.762207 0.000000 2224.788574 0.000000 0.800834 0.000000 0.598886 0.241674 0.241674 0.241674
5750.834961 0.000000 2240.565186 0.000000 0.850598 0.000000 0.525817 0.280033 0.280033 0.280033
5735.319336 0.000000 2227.603271 0.000000 0.671086 0.000000 0.741379 0.264452 0.264452 0.264452
5782.404297 0.000000 2172.021484 0.000000 0.772380 0.000000 0.635161 0.251031 0.251031 0.251031
5772.062012 0.000000 2224.196045 0.000000 0.608442 0.000000 0.793599 0.281759 0.281759 0.281759
5778.834473 0.000000 2229.479980 0.000000 0.767577 0.000000 0.640957 0.233762 0.233762 0.233762
5866.281250 0.000000 2245.102295 0.000000 0.922698 0.000000 0.385524 0.232649 0.232649 0.232649
5870.049316 0.000000 2240.804199 0.000000 0.608124 0.000000 0.793842 0.275778 0.275778 0.275778
5869.556641 0.000000 2248.533936 0.000000 0.855903 0.000000 0.517136 0.252846 0.252846 0.252846
5944.427734 0.000000 2141.792969 0.000000 0.946607 0.000000 0.322389 0.293731 0.293731 0.293731
5954.069824 0.000000 2114.743652 0.000000 0.692206 0.000000 0.721700 0.213415 0.213415 0.213415
5963.256348 0.000000 2142.955322 0.000000 0.804100 0.000000 0.594495 0.251678 0.251678 0.251678
5987.429199 0.000000 2140.092773 0.000000 0.901833 0.000000 0.432085 0.252992 0.252992 0.252992
6062.908691 0.000000 2101.231201 0.000000 0.588451 0.000000 0.808533 0.254396 0.254396 0.254396
6084.483887 0.000000 2119.670654 0.000000 0.634542 0.000000 0.772889 0.220988 0.220988 0.220988
6083.597168 0.000000 2115.028564 0.000000 0.652422 0.000000 0.757856 0.245309 0.245309 0.245309
5946.669922 0.000000 2202.144043 0.000000 0.678776 0.000000 0.734346 0.243177 0.243177 0.243177
5990.346680 0.000000 2200.663818 0.000000 0.821228 0.000000 0.570600 0.200276 0.200276 0.200276
5982.608887 0.000000 2151.945801 0.000000 0.820870 0.000000 0.571116 0.199739 0.199739 0.199739
5969.436523 0.000000 2170.275391 0.000000 0.741990 0.000000 0.670411 0.204070 0.204070 0.204070
5962.235840 0.000000 2190.090576 0.000000 0.681667 0.000000 0.731663 0.199222 0.199222 0.199222
6004.706543 0.000000 2202.721680 0.000000 0.864847 0.000000 0.502036 0.218530 0.218530 0.218530
5999.085449 0.000000 2185.234375 0.000000 0.809944 0.000000 0.586507 0.223435 0.223435 0.223435
6003.318359 0.000000 2180.047607 0.000000 0.771213 0.000000 0.636577 0.231732 0.231732 0.231732
6002.490723 0.000000 2169.195801 0.000000 0.756127 0.000000 0.654425 0.224178 0.224178 0.224178
5976.332520 0.000000 2181.610596 0.000000 0.942851 0.000000 0.333214 0.227800 0.227800 0.227800
5979.120117 0.000000 2148.354980 0.000000 0.879548 0.000000 0.475811 0.224683 0.224683 0.224683
6012.473145 0.000000 2173.390381 0.000000 0.600937 0.000000 0.799296 0.240455 0.240455 0.240455
5997.674805 0.000000 2159.409668 0.000000 0.900154 0.000000 0.435573 0.263070 0.263070 0.263070
5952.523438 0.000000 2148.062256 0.000000 0.860438 0.000000 0.509556 0.290287 0.290287 0.290287
5984.594727 0.000000 2166.044678 0.000000 0.606622 0.000000 0.794991 0.225256 0.225256 0.225256
6008.427734 0.000000 2198.277344 0.000000 0.783500 0.000000 0.621392 0.249171 0.249171 0.249171
5986.977539 0.000000 2160.905762 0.000000 0.899534 0.000000 0.436851 0.265179 0.265179 0.265179
5998.203125 0.000000 2169.927734 0.000000 0.947952 0.000000 0.318413 0.251811 0.251811 0.251811
6012.027344 0.000000 2191.288574 0.000000 0.856312 0.000000 0.516459 0.254440 0.254440 0.254440
5963.761719 0.000000 2170.815918 0.000000 0.611878 0.000000 0.790952 0.255794 0.255794 0.255794
5991.789551 0.000000 2160.343750 0.000000 0.590952 0.000000 0.806707 0.238790 0.238790 0.238790
5975.955566 0.000000 2180.196777 0.000000 0.602641 0.000000 0.798012 0.282353 0.282353 0.282353
5987.030762 0.000000 2170.300537 0.000000 0.832126 0.000000 0.554586 0.288773 0.288773 0.288773
5974.014160 0.000000 2151.940430 0.000000 0.714916 0.000000 0.699210 0.285212 0.285212 0.285212
5996.311035 0.000000 2159.995361 0.000000 0.946624 0.000000 0.322339 0.264732 0.264732 0.264732
6006.908203 0.000000 2158.280273 0.000000 0.759259 0.000000 0.650788 0.287660 0.287660 0.287660
5995.008789 0.000000 2172.955811 0.000000 0.756335 0.000000 0.654184 0.274433 0.274433 0.274433
6006.834961 0.000000 2184.080811 0.000000 0.887641 0.000000 0.460536 0.270113 0.270113 0.270113
5921.210449 0.000000 2247.763916 0.000000 0.792948 0.000000 0.609290 0.195715 0.195715 0.195715
5949.292480 0.000000 2215.449707 0.000000 0.866455 0.000000 0.499255 0.196581 0.196581 0.196581
5938.318359 0.000000 2203.096436 0.000000 0.704977 0.000000 0.709230 0.194705 0.194705 0.194705
5950.582031 0.000000 2217.757812 0.000000 0.771047 0.000000 0.636778 0.213374 0.213374 0.213374
5943.044922 0.000000 2241.979004 0.000000 0.611538 0.000000 0.791215 0.201128 0.201128 0.201128
5926.962402 0.000000 2247.070557 0.000000 0.766014 0.000000 0.642824 0.230602 0.230602 0.230602
5948.454590 0.000000 2243.229736 0.000000 0.933215 0.000000 0.359319 0.236719 0.236719 0.236719
5925.294434 0.000000 2247.846680 0.000000 0.878539 0.000000 0.477670 0.220921 0.220921 0.220921
5930.375488 0.000000 2234.433838 0.000000 0.930202 0.000000 0.367048 0.293216 0.293216 0.293216
5951.462891 0.000000 2203.240479 0.000000 0.780167 0.000000 0.625571 0.248585 0.248585 0.248585
5939.824219 0.000000 2247.225098 0.000000 0.832276 0.000000 0.554362 0.249140 0.249140 0.249140
5935.029785 0.000000 2217.134033 0.000000 0.925153 0.000000 0.379593 0.289574 0.289574 0.289574
5933.387695 0.000000 2235.678711 0.000000 0.817225 0.000000 0.576319 0.288476 0.288476 0.288476
5923.500488 0.000000 2230.475098 0.000000 0.674784 0.000000 0.738015 0.274143 0.274143 0.274143
5942.203613 0.000000 2243.221191 0.000000 0.649778 0.000000 0.760124 0.247814 0.247814 0.247814
5931.575684 0.000000 2233.620850 0.000000 0.655322 0.000000 0.755350 0.275749 0.275749 0.275749
5946.590332 0.000000 2245.445068 0.000000 0.734399 0.000000 0.678718 0.287065 0.287065 0.287065
5951.365723 0.000000 2212.855957 0.000000 0.931620 0.000000 0.363435 0.292896 0.292896 0.292896
5988.575195 0.000000 2205.279541 0.000000 0.919045 0.000000 0.394153 0.201227 0.201227 0.201227
5968.098633 0.000000 2212.650146 0.000000 0.715790 0.000000 0.698315 0.229311 0.229311 0.229311
5952.369629 0.000000 2213.792480 0.000000 0.931218 0.000000 0.364463 0.281821 0.281821 0.281821
5961.912598 0.000000 2231.992676 0.000000 0.771548 0.000000 0.636171 0.231738 0.231738 0.231738
5972.029785 0.000000 2206.817383 0.000000 0.904042 0.000000 0.427444 0.289760 0.289760 0.289760
5974.014160 0.000000 2208.424805 0.000000 0.848458 0.000000 0.529262 0.290267 0.290267 0.290267
5953.498535 0.000000 2230.867432 0.000000 0.615851 0.000000 0.787863 0.282671 0.282671 0.282671
6051.991211 0.000000 2162.132812 0.000000 0.718014 0.000000 0.696029 0.194753 0.194753 0.194753
6035.771973 0.000000 2169.031738 0.000000 0.866125 0.000000 0.499827 0.196511 0.196511 0.196511
6039.836426 0.000000 2197.019043 0.000000 0.800526 0.000000 0.599298 0.204259 0.204259 0.204259
6064.580566 0.000000 2176.846924 0.000000 0.885926 0.000000 0.463827 0.204965 0.204965 0.204965
6028.526855 0.000000 2169.452148 0.000000 0.768891 0.000000 0.639379 0.203335 0.203335 0.203335
6032.244141 0.000000 2175.604004 0.000000 0.886800 0.000000 0.462153 0.212501 0.212501 0.212501
6018.627930 0.000000 2175.113525 0.000000 0.754150 0.000000 0.656702 0.204213 0.204213 0.204213
6046.609375 0.000000 2172.068848 0.000000 0.928570 0.000000 0.371158 0.262415 0.262415 0.262415
6019.095703 0.000000 2161.856445 0.000000 0.749291 0.000000 0.662241 0.224599 0.224599 0.224599
6049.433594 0.000000 2182.209717 0.000000 0.775805 0.000000 0.630973 0.251618 0.251618 0.251618
6028.062012 0.000000 2167.711670 0.000000 0.870546 0.000000 0.492087 0.278023 0.278023 0.278023
6027.461426 0.000000 2174.000732 0.000000 0.694993 0.000000 0.719017 0.227975 0.227975 0.227975
6032.278320 0.000000 2167.125488 0.000000 0.790992 0.000000 0.611826 0.287654 0.287654 0.287654
6054.078125 0.000000 2188.035889 0.000000 0.675573 0.000000 0.737293 0.284601 0.284601 0.284601
6024.161133 0.000000 2158.527588 0.000000 0.922910 0.000000 0.385015 0.239656 0.239656 0.239656
6057.033691 0.000000 2187.843018 0.000000 0.718737 0.000000 0.695282 0.242806 0.242806 0.242806
6029.763672 0.000000 2201.044434 0.000000 0.588564 0.000000 0.808451 0.277374 0.277374 0.277374
6054.464355 0.000000 2189.300293 0.000000 0.650359 0.000000 0.759627 0.283975 0.283975 0.283975
6024.407715 0.000000 2210.702881 0.000000 0.789666 0.000000 0.613537 0.195729 0.195729 0.195729
6046.961914 0.000000 2203.852051 0.000000 0.630595 0.000000 0.776112 0.197679 0.197679 0.197679
6039.366211 0.000000 2205.543213 0.000000 0.734449 0.000000 0.678664 0.225946 0.225946 0.225946
6051.182129 0.000000 2209.656982 0.000000 0.596062 0.000000 0.802939 0.223080 0.223080 0.223080
6038.020996 0.000000 2204.210693 0.000000 0.773748 0.000000 0.633493 0.226539 0.226539 0.226539
6055.522949 0.000000 2206.888672 0.000000 0.927777 0.000000 0.373134 0.283279 0.283279 0.283279
5880.246582 0.000000 2262.231934 0.000000 0.630147 0.000000 0.776476 0.208560 0.208560 0.208560
5883.529785 0.000000 2260.021973 0.000000 0.812671 0.000000 0.582723 0.211314 0.211314 0.211314
5926.889160 0.000000 2282.814697 0.000000 0.899245 0.000000 0.437445 0.196835 0.196835 0.196835
5896.614258 0.000000 2272.903809 0.000000 0.642238 0.000000 0.766505 0.197270 0.197270 0.197270
5948.008301 0.000000 2301.652100 0.000000 0.937551 0.000000 0.347849 0.213007 0.213007 0.213007
5919.888672 0.000000 2280.919189 0.000000 0.773195 0.000000 0.634168 0.220237 0.220237 0.220237
5892.035156 0.000000 2265.594727 0.000000 0.857173 0.000000 0.515029 0.239122 0.239122 0.239122
5948.771484 0.000000 2296.459229 0.000000 0.662129 0.000000 0.749390 0.238817 0.238817 0.238817
5919.972656 0.000000 2283.755859 0.000000 0.920722 0.000000 0.390219 0.237981 0.237981 0.237981
5899.316406 0.000000 2260.291992 0.000000 0.769805 0.000000 0.638279 0.242142 0.242142 0.242142
5925.265137 0.000000 2279.038574 0.000000 0.677178 0.000000 0.735819 0.255416 0.255416 0.255416
5931.954590 0.000000 2283.081055 0.000000 0.755963 0.000000 0.654614 0.242414 0.242414 0.242414
5913.632324 0.000000 2274.592529 0.000000 0.942623 0.000000 0.333858 0.233215 0.233215 0.233215
5910.351074 0.000000 2278.115479 0.000000 0.883908 0.000000 0.467660 0.258869 0.258869 0.258869
5911.560547 0.000000 2276.900879 0.000000 0.808378 0.000000 0.588664 0.236045 0.236045 0.236045
5951.883789 0.000000 2298.114502 0.000000 0.793626 0.000000 0.608406 0.245719 0.245719 0.245719
5968.905273 0.000000 2313.274414 0.000000 0.809530 0.000000 0.587078 0.223428 0.223428 0.223428
5973.101562 0.000000 2305.825928 0.000000 0.842640 0.000000 0.538478 0.227702 0.227702 0.227702
5954.335449 0.000000 2290.604980 0.000000 0.942171 0.000000 0.335133 0.258076 0.258076 0.258076
5963.049316 0.000000 2309.255859 0.000000 0.859093 0.000000 0.511820 0.258730 0.258730 0.258730
5970.634277 0.000000 2304.643555 0.000000 0.779067 0.000000 0.626940 0.276526 0.276526 0.276526
5954.875977 0.000000 2291.961670 0.000000 0.703325 0.000000 0.710868 0.252310 0.252310 0.252310
6251.407227 0.000000 2021.181152 0.000000 0.902359 0.000000 0.430985 0.234820 0.234820 0.234820
"}
object={
	name="rainforest_sparse_generator_2_2"
	clamp_to_water_level=no
	render_under_water=no
	generated_content=yes
	layer="semidynamic_medium"
	pdxmesh="tree_rainforest_004_mesh"
	count=109
	transform="5737.656250 0.000000 2243.000488 0.000000 0.995616 0.000000 -0.093533 0.200938 0.200938 0.200938
5733.967285 0.000000 2227.787842 0.000000 0.977912 0.000000 -0.209015 0.287535 0.287535 0.287535
5736.687988 0.000000 2225.391357 0.000000 0.989644 0.000000 0.143544 0.231354 0.231354 0.231354
5781.422363 0.000000 2170.761230 0.000000 0.993588 0.000000 0.113064 0.219460 0.219460 0.219460
5788.979980 0.000000 2218.169678 0.000000 0.989465 0.000000 -0.144775 0.244998 0.244998 0.244998
5773.642090 0.000000 2224.542236 0.000000 0.999785 0.000000 -0.020716 0.297548 0.297548 0.297548
5791.902832 0.000000 2218.174316 0.000000 0.998597 0.000000 -0.052962 0.259765 0.259765 0.259765
5873.424316 0.000000 2241.307129 0.000000 0.951221 0.000000 0.308512 0.220435 0.220435 0.220435
5869.814941 0.000000 2239.436768 0.000000 0.994824 0.000000 0.101617 0.231770 0.231770 0.231770
5882.669922 0.000000 2258.628418 0.000000 0.994692 0.000000 -0.102899 0.263789 0.263789 0.263789
5950.390625 0.000000 2145.682373 0.000000 0.964536 0.000000 0.263952 0.207719 0.207719 0.207719
5992.388184 0.000000 2139.923584 0.000000 0.999265 0.000000 0.038329 0.237977 0.237977 0.237977
5952.043457 0.000000 2114.172852 0.000000 1.000000 0.000000 0.000026 0.259664 0.259664 0.259664
6067.863281 0.000000 2114.294678 0.000000 0.998403 0.000000 -0.056502 0.200395 0.200395 0.200395
6068.316895 0.000000 2119.047852 0.000000 0.996126 0.000000 -0.087933 0.235900 0.235900 0.235900
6072.708984 0.000000 2110.365479 0.000000 0.964847 0.000000 -0.262813 0.246310 0.246310 0.246310
6071.822754 0.000000 2121.215088 0.000000 0.983530 0.000000 -0.180743 0.237983 0.237983 0.237983
6066.132324 0.000000 2109.343018 0.000000 0.968046 0.000000 -0.250773 0.268598 0.268598 0.268598
6069.385254 0.000000 2120.529053 0.000000 0.966365 0.000000 -0.257176 0.257747 0.257747 0.257747
6064.663086 0.000000 2108.577881 0.000000 0.997724 0.000000 0.067431 0.272720 0.272720 0.272720
5930.009766 0.000000 2201.343018 0.000000 0.992377 0.000000 0.123239 0.199180 0.199180 0.199180
5951.423340 0.000000 2149.881592 0.000000 0.985374 0.000000 -0.170405 0.303181 0.303181 0.303181
6013.212891 0.000000 2171.798096 0.000000 0.986410 0.000000 0.164303 0.198887 0.198887 0.198887
5974.782715 0.000000 2153.709717 0.000000 0.980139 0.000000 -0.198313 0.206237 0.206237 0.206237
6012.008301 0.000000 2188.683350 0.000000 0.995535 0.000000 -0.094388 0.213365 0.213365 0.213365
6003.914062 0.000000 2152.194580 0.000000 0.975437 0.000000 0.220279 0.219060 0.219060 0.219060
5979.673340 0.000000 2199.179688 0.000000 0.957494 0.000000 -0.288453 0.214958 0.214958 0.214958
5999.135742 0.000000 2162.462402 0.000000 0.958773 0.000000 -0.284173 0.220664 0.220664 0.220664
6005.007812 0.000000 2187.556641 0.000000 0.982306 0.000000 -0.187284 0.233489 0.233489 0.233489
5960.076660 0.000000 2190.459717 0.000000 0.978576 0.000000 -0.205886 0.227393 0.227393 0.227393
6001.909180 0.000000 2178.247559 0.000000 0.995958 0.000000 0.089823 0.240773 0.240773 0.240773
5974.981445 0.000000 2174.630859 0.000000 0.989316 0.000000 -0.145785 0.268328 0.268328 0.268328
5992.687988 0.000000 2168.906982 0.000000 0.997845 0.000000 0.065614 0.291647 0.291647 0.291647
6005.385254 0.000000 2177.013428 0.000000 0.994608 0.000000 0.103705 0.256144 0.256144 0.256144
5980.899902 0.000000 2197.954834 0.000000 0.968128 0.000000 0.250455 0.278267 0.278267 0.278267
6004.777832 0.000000 2179.354248 0.000000 0.964153 0.000000 0.265346 0.264455 0.264455 0.264455
6003.609375 0.000000 2181.755371 0.000000 0.978445 0.000000 0.206508 0.236764 0.236764 0.236764
5989.508789 0.000000 2161.794678 0.000000 0.956187 0.000000 0.292756 0.294326 0.294326 0.294326
6011.523926 0.000000 2159.865479 0.000000 0.959866 0.000000 0.280460 0.294901 0.294901 0.294901
5984.240234 0.000000 2160.376221 0.000000 0.973585 0.000000 -0.228325 0.278636 0.278636 0.278636
5960.364746 0.000000 2146.863037 0.000000 0.968053 0.000000 0.250745 0.267381 0.267381 0.267381
5976.470703 0.000000 2169.154297 0.000000 0.999652 0.000000 0.026383 0.297871 0.297871 0.297871
5972.600586 0.000000 2157.428223 0.000000 0.998124 0.000000 -0.061223 0.251975 0.251975 0.251975
5991.243164 0.000000 2197.306641 0.000000 0.977840 0.000000 -0.209355 0.270904 0.270904 0.270904
5999.546387 0.000000 2152.753662 0.000000 0.967368 0.000000 -0.253374 0.304576 0.304576 0.304576
6001.244629 0.000000 2183.458496 0.000000 0.999879 0.000000 -0.015567 0.280623 0.280623 0.280623
5967.028809 0.000000 2159.512207 0.000000 0.987455 0.000000 -0.157903 0.294159 0.294159 0.294159
5999.484375 0.000000 2165.865234 0.000000 0.986228 0.000000 -0.165394 0.273726 0.273726 0.273726
5929.385742 0.000000 2235.808838 0.000000 0.974487 0.000000 -0.224446 0.201481 0.201481 0.201481
5947.100586 0.000000 2212.983398 0.000000 0.983522 0.000000 0.180786 0.202867 0.202867 0.202867
5951.509766 0.000000 2240.109131 0.000000 0.977874 0.000000 -0.209195 0.208598 0.208598 0.208598
5943.432129 0.000000 2251.974365 0.000000 0.956743 0.000000 0.290933 0.229321 0.229321 0.229321
5924.099609 0.000000 2241.208496 0.000000 0.999995 0.000000 0.003158 0.223221 0.223221 0.223221
5946.270996 0.000000 2211.224365 0.000000 0.990140 0.000000 -0.140084 0.247787 0.247787 0.247787
5931.765137 0.000000 2232.174805 0.000000 0.961478 0.000000 0.274883 0.284930 0.284930 0.284930
5927.989746 0.000000 2228.794434 0.000000 0.964364 0.000000 -0.264578 0.235411 0.235411 0.235411
5945.112305 0.000000 2209.480957 0.000000 0.955729 0.000000 -0.294249 0.243783 0.243783 0.243783
5950.905762 0.000000 2208.700928 0.000000 0.972841 0.000000 0.231473 0.242518 0.242518 0.242518
5919.813965 0.000000 2225.928955 0.000000 0.965573 0.000000 -0.260133 0.257784 0.257784 0.257784
5944.732422 0.000000 2251.447754 0.000000 0.998726 0.000000 0.050455 0.271845 0.271845 0.271845
5949.256836 0.000000 2208.255371 0.000000 0.998599 0.000000 0.052915 0.299023 0.299023 0.299023
5978.245605 0.000000 2221.402588 0.000000 0.970362 0.000000 -0.241657 0.216855 0.216855 0.216855
5962.166504 0.000000 2209.404297 0.000000 0.972741 0.000000 -0.231893 0.236224 0.236224 0.236224
5999.135742 0.000000 2218.946777 0.000000 0.999993 0.000000 -0.003638 0.237853 0.237853 0.237853
5980.979980 0.000000 2218.169678 0.000000 0.995025 0.000000 0.099628 0.217356 0.217356 0.217356
5960.309570 0.000000 2231.683838 0.000000 0.990201 0.000000 0.139649 0.237473 0.237473 0.237473
5988.749023 0.000000 2212.260010 0.000000 0.997424 0.000000 -0.071734 0.288802 0.288802 0.288802
5999.105469 0.000000 2206.451904 0.000000 0.985220 0.000000 -0.171295 0.281233 0.281233 0.281233
5957.961426 0.000000 2253.523438 0.000000 0.958747 0.000000 0.284261 0.238649 0.238649 0.238649
5989.374023 0.000000 2208.857178 0.000000 0.975784 0.000000 -0.218736 0.294010 0.294010 0.294010
5961.923828 0.000000 2220.485107 0.000000 0.996915 0.000000 0.078487 0.253678 0.253678 0.253678
5955.093750 0.000000 2232.960693 0.000000 0.979269 0.000000 -0.202562 0.299486 0.299486 0.299486
6025.400879 0.000000 2162.525391 0.000000 0.972220 0.000000 0.234067 0.198472 0.198472 0.198472
6034.230469 0.000000 2184.441895 0.000000 0.990519 0.000000 0.137375 0.203190 0.203190 0.203190
6043.635742 0.000000 2169.456543 0.000000 0.974754 0.000000 0.223283 0.212992 0.212992 0.212992
6045.291016 0.000000 2188.748779 0.000000 0.964826 0.000000 -0.262891 0.211307 0.211307 0.211307
6016.371582 0.000000 2151.490967 0.000000 0.999919 0.000000 -0.012744 0.229533 0.229533 0.229533
6076.473145 0.000000 2173.390381 0.000000 0.952986 0.000000 -0.303013 0.228315 0.228315 0.228315
6030.777344 0.000000 2166.658447 0.000000 0.966208 0.000000 0.257765 0.235668 0.235668 0.235668
6023.699707 0.000000 2162.261230 0.000000 0.970815 0.000000 0.239829 0.290402 0.290402 0.290402
6018.335449 0.000000 2177.636230 0.000000 0.995380 0.000000 0.096009 0.298164 0.298164 0.298164
6019.050781 0.000000 2149.800537 0.000000 0.980468 0.000000 -0.196677 0.258144 0.258144 0.258144
6071.822754 0.000000 2177.699463 0.000000 0.997876 0.000000 0.065147 0.245491 0.245491 0.245491
6016.016113 0.000000 2155.058838 0.000000 0.964532 0.000000 0.263966 0.241057 0.241057 0.241057
6026.583984 0.000000 2172.630371 0.000000 0.996385 0.000000 0.084957 0.273027 0.273027 0.273027
6045.067383 0.000000 2169.919189 0.000000 0.951940 0.000000 0.306286 0.240031 0.240031 0.240031
6056.728027 0.000000 2189.219971 0.000000 0.978298 0.000000 0.207201 0.296014 0.296014 0.296014
6038.889648 0.000000 2195.668213 0.000000 0.985669 0.000000 0.168693 0.259738 0.259738 0.259738
6019.093750 0.000000 2176.476318 0.000000 0.987006 0.000000 -0.160682 0.303082 0.303082 0.303082
6055.243164 0.000000 2197.306641 0.000000 0.996557 0.000000 0.082909 0.264730 0.264730 0.264730
6062.049316 0.000000 2184.319824 0.000000 0.995166 0.000000 -0.098203 0.296021 0.296021 0.296021
6061.556641 0.000000 2192.049561 0.000000 0.999236 0.000000 -0.039085 0.268031 0.268031 0.268031
6048.342773 0.000000 2181.451660 0.000000 0.994989 0.000000 -0.099989 0.275646 0.275646 0.275646
6028.112305 0.000000 2217.797363 0.000000 0.994895 0.000000 -0.100911 0.203249 0.203249 0.203249
6030.749512 0.000000 2202.921631 0.000000 0.979837 0.000000 -0.199800 0.291405 0.291405 0.291405
5924.759766 0.000000 2280.751221 0.000000 0.999866 0.000000 -0.016385 0.208810 0.208810 0.208810
5904.278320 0.000000 2272.930664 0.000000 0.980711 0.000000 0.195464 0.250063 0.250063 0.250063
5951.210449 0.000000 2293.976807 0.000000 0.978685 0.000000 -0.205367 0.303695 0.303695 0.303695
5917.380859 0.000000 2278.772705 0.000000 0.982465 0.000000 0.186447 0.233677 0.233677 0.233677
5901.322266 0.000000 2263.971680 0.000000 0.977498 0.000000 -0.210943 0.257175 0.257175 0.257175
5915.790527 0.000000 2278.128418 0.000000 0.974852 0.000000 0.222852 0.256298 0.256298 0.256298
5962.072266 0.000000 2315.547119 0.000000 0.960750 0.000000 -0.277416 0.207411 0.207411 0.207411
5960.564453 0.000000 2311.105957 0.000000 0.996003 0.000000 0.089321 0.298292 0.298292 0.298292
5960.986816 0.000000 2314.083008 0.000000 0.999305 0.000000 0.037282 0.236872 0.236872 0.236872
5968.398438 0.000000 2304.431396 0.000000 0.999814 0.000000 -0.019290 0.300349 0.300349 0.300349
5952.126465 0.000000 2305.057861 0.000000 0.967637 0.000000 0.252346 0.292360 0.292360 0.292360
5956.035156 0.000000 2322.079102 0.000000 0.965296 0.000000 -0.261157 0.219314 0.219314 0.219314
5959.434570 0.000000 2326.603027 0.000000 0.996801 0.000000 -0.079926 0.295718 0.295718 0.295718
6252.412598 0.000000 2019.226807 0.000000 0.996568 0.000000 -0.082777 0.200571 0.200571 0.200571
"}
object={
	name="rainforest_sparse_generator_2_3"
	clamp_to_water_level=no
	render_under_water=no
	generated_content=yes
	layer="semidynamic_medium"
	pdxmesh="tree_rainforest_005_mesh"
	count=119
	transform="5686.173828 0.000000 2209.074951 0.000000 0.697562 0.000000 -0.716524 0.205404 0.205404 0.205404
5679.350098 0.000000 2257.633789 0.000000 0.678808 0.000000 -0.734316 0.240896 0.240896 0.240896
5695.365723 0.000000 2212.855957 0.000000 0.730699 0.000000 -0.682699 0.279389 0.279389 0.279389
5739.659668 0.000000 2239.070312 0.000000 0.900676 0.000000 -0.434491 0.231364 0.231364 0.231364
5752.742188 0.000000 2232.784424 0.000000 0.828588 0.000000 -0.559859 0.226221 0.226221 0.226221
5753.190430 0.000000 2244.997559 0.000000 0.795079 0.000000 -0.606505 0.224355 0.224355 0.224355
5738.678223 0.000000 2241.065674 0.000000 0.644411 0.000000 -0.764679 0.237713 0.237713 0.237713
5730.087402 0.000000 2227.945801 0.000000 0.946837 0.000000 -0.321715 0.228496 0.228496 0.228496
5747.824219 0.000000 2247.225098 0.000000 0.866367 0.000000 -0.499407 0.296476 0.296476 0.296476
5789.938965 0.000000 2219.424072 0.000000 0.791456 0.000000 -0.611227 0.250571 0.250571 0.250571
5943.867676 0.000000 2137.153564 0.000000 0.627980 0.000000 -0.778229 0.230647 0.230647 0.230647
5927.167969 0.000000 2138.391846 0.000000 0.858632 0.000000 -0.512593 0.227491 0.227491 0.227491
5940.072754 0.000000 2138.425049 0.000000 0.828984 0.000000 -0.559272 0.246909 0.246909 0.246909
5942.588867 0.000000 2143.104980 0.000000 0.624560 0.000000 -0.780977 0.239779 0.239779 0.239779
5948.104492 0.000000 2143.575684 0.000000 0.608361 0.000000 -0.793660 0.317510 0.317510 0.317510
5951.116211 0.000000 2109.671631 0.000000 0.858267 0.000000 -0.513203 0.252822 0.252822 0.252822
5934.236328 0.000000 2145.778320 0.000000 0.780650 0.000000 -0.624968 0.278954 0.278954 0.278954
5949.367188 0.000000 2141.057617 0.000000 0.647915 0.000000 -0.761713 0.293859 0.293859 0.293859
5952.254883 0.000000 2137.062744 0.000000 0.886188 0.000000 -0.463326 0.203127 0.203127 0.203127
5991.299805 0.000000 2136.301270 0.000000 0.935686 0.000000 -0.352834 0.209156 0.209156 0.209156
5968.382324 0.000000 2145.738281 0.000000 0.594500 0.000000 -0.804096 0.220722 0.220722 0.220722
5991.167969 0.000000 2138.391846 0.000000 0.810091 0.000000 -0.586305 0.220004 0.220004 0.220004
5962.331055 0.000000 2135.258301 0.000000 0.605230 0.000000 -0.796051 0.246717 0.246717 0.246717
5952.049316 0.000000 2115.619385 0.000000 0.762990 0.000000 -0.646410 0.268481 0.268481 0.268481
6067.016113 0.000000 2110.772949 0.000000 0.900840 0.000000 -0.434151 0.203139 0.203139 0.203139
6052.029297 0.000000 2108.474609 0.000000 0.665888 0.000000 -0.746051 0.213378 0.213378 0.213378
6064.943848 0.000000 2101.510254 0.000000 0.669567 0.000000 -0.742752 0.232569 0.232569 0.232569
6070.403320 0.000000 2109.607666 0.000000 0.843222 0.000000 -0.537565 0.240134 0.240134 0.240134
6078.499512 0.000000 2119.310547 0.000000 0.944751 0.000000 -0.327788 0.269076 0.269076 0.269076
5958.057129 0.000000 2191.343994 0.000000 0.811083 0.000000 -0.584931 0.212322 0.212322 0.212322
5985.491699 0.000000 2152.301514 0.000000 0.699157 0.000000 -0.714969 0.210646 0.210646 0.210646
6006.158691 0.000000 2178.466064 0.000000 0.946586 0.000000 -0.322450 0.215821 0.215821 0.215821
5976.535645 0.000000 2162.761230 0.000000 0.939377 0.000000 -0.342887 0.222346 0.222346 0.222346
5968.382324 0.000000 2202.222656 0.000000 0.883643 0.000000 -0.468161 0.217106 0.217106 0.217106
6015.163574 0.000000 2179.080811 0.000000 0.601580 0.000000 -0.798813 0.220650 0.220650 0.220650
6009.678223 0.000000 2161.527832 0.000000 0.934129 0.000000 -0.356935 0.220741 0.220741 0.220741
6001.324707 0.000000 2182.003418 0.000000 0.908323 0.000000 -0.418269 0.286796 0.286796 0.286796
6011.502441 0.000000 2158.403564 0.000000 0.668631 0.000000 -0.743594 0.315040 0.315040 0.315040
5992.256348 0.000000 2163.253906 0.000000 0.750764 0.000000 -0.660571 0.313781 0.313781 0.313781
5986.087402 0.000000 2171.461426 0.000000 0.896877 0.000000 -0.442279 0.308750 0.308750 0.308750
5976.779785 0.000000 2150.942871 0.000000 0.844974 0.000000 -0.534808 0.248373 0.248373 0.248373
5983.972656 0.000000 2170.787109 0.000000 0.820186 0.000000 -0.572097 0.275065 0.275065 0.275065
6009.206055 0.000000 2156.032715 0.000000 0.825115 0.000000 -0.564964 0.310500 0.310500 0.310500
6012.201172 0.000000 2166.996826 0.000000 0.638279 0.000000 -0.769805 0.297134 0.297134 0.297134
5970.929199 0.000000 2151.880371 0.000000 0.924351 0.000000 -0.381542 0.279179 0.279179 0.279179
5987.595703 0.000000 2166.518066 0.000000 0.737679 0.000000 -0.675152 0.288352 0.288352 0.288352
5973.555664 0.000000 2150.491211 0.000000 0.824292 0.000000 -0.566164 0.282140 0.282140 0.282140
5989.106445 0.000000 2159.004150 0.000000 0.599506 0.000000 -0.800370 0.317722 0.317722 0.317722
6006.485352 0.000000 2171.820557 0.000000 0.937617 0.000000 -0.347669 0.244961 0.244961 0.244961
5998.421387 0.000000 2155.453369 0.000000 0.838542 0.000000 -0.544837 0.261544 0.261544 0.261544
5973.918945 0.000000 2157.913574 0.000000 0.905955 0.000000 -0.423373 0.256361 0.256361 0.256361
5972.029785 0.000000 2150.333008 0.000000 0.908632 0.000000 -0.417597 0.279733 0.279733 0.279733
5998.908691 0.000000 2157.715576 0.000000 0.936566 0.000000 -0.350492 0.306410 0.306410 0.306410
5953.598145 0.000000 2149.971924 0.000000 0.863779 0.000000 -0.503870 0.308480 0.308480 0.308480
6001.824707 0.000000 2156.891602 0.000000 0.882455 0.000000 -0.470396 0.288252 0.288252 0.288252
5993.922852 0.000000 2171.558105 0.000000 0.902079 0.000000 -0.431571 0.308522 0.308522 0.308522
5983.902832 0.000000 2161.689941 0.000000 0.838799 0.000000 -0.544441 0.281772 0.281772 0.281772
5996.992676 0.000000 2169.306885 0.000000 0.731949 0.000000 -0.681359 0.268462 0.268462 0.268462
5918.952637 0.000000 2222.402832 0.000000 0.949567 0.000000 -0.313565 0.209418 0.209418 0.209418
5937.314941 0.000000 2245.588867 0.000000 0.845464 0.000000 -0.534033 0.225363 0.225363 0.225363
5920.607910 0.000000 2241.981201 0.000000 0.943900 0.000000 -0.330231 0.217040 0.217040 0.217040
5914.057129 0.000000 2238.353760 0.000000 0.766476 0.000000 -0.642272 0.249807 0.249807 0.249807
5930.059082 0.000000 2238.173584 0.000000 0.837995 0.000000 -0.545678 0.311024 0.311024 0.311024
5933.249512 0.000000 2234.129395 0.000000 0.859984 0.000000 -0.510322 0.310048 0.310048 0.310048
5948.055664 0.000000 2208.807861 0.000000 0.886246 0.000000 -0.463216 0.308892 0.308892 0.308892
5925.085938 0.000000 2229.261475 0.000000 0.707801 0.000000 -0.706412 0.313953 0.313953 0.313953
5930.783691 0.000000 2235.696777 0.000000 0.754754 0.000000 -0.656008 0.312915 0.312915 0.312915
5956.755371 0.000000 2230.763184 0.000000 0.632137 0.000000 -0.774857 0.206508 0.206508 0.206508
5992.647949 0.000000 2204.217285 0.000000 0.777540 0.000000 -0.628833 0.241857 0.241857 0.241857
5997.431152 0.000000 2206.942383 0.000000 0.785156 0.000000 -0.619299 0.236970 0.236970 0.236970
5963.256348 0.000000 2255.924072 0.000000 0.875071 0.000000 -0.483995 0.251267 0.251267 0.251267
5969.288086 0.000000 2207.971924 0.000000 0.916922 0.000000 -0.399067 0.279447 0.279447 0.279447
5970.929199 0.000000 2208.364746 0.000000 0.934284 0.000000 -0.356530 0.282300 0.282300 0.282300
5975.673828 0.000000 2208.846680 0.000000 0.746421 0.000000 -0.665474 0.312707 0.312707 0.312707
5953.323730 0.000000 2208.947998 0.000000 0.741041 0.000000 -0.671460 0.313178 0.313178 0.313178
5952.126465 0.000000 2248.573486 0.000000 0.676162 0.000000 -0.736753 0.315819 0.315819 0.315819
6052.276367 0.000000 2179.653076 0.000000 0.837580 0.000000 -0.546314 0.203910 0.203910 0.203910
6074.637207 0.000000 2173.339844 0.000000 0.630894 0.000000 -0.775869 0.214930 0.214930 0.214930
6026.329590 0.000000 2171.110840 0.000000 0.734466 0.000000 -0.678645 0.219199 0.219199 0.219199
6054.646484 0.000000 2178.563477 0.000000 0.863405 0.000000 -0.504512 0.219786 0.219786 0.219786
6022.363770 0.000000 2155.918945 0.000000 0.762970 0.000000 -0.646434 0.213510 0.213510 0.213510
6018.944824 0.000000 2163.802246 0.000000 0.878622 0.000000 -0.477519 0.211939 0.211939 0.211939
6020.602051 0.000000 2149.011963 0.000000 0.729554 0.000000 -0.683923 0.220450 0.220450 0.220450
6071.405273 0.000000 2181.259277 0.000000 0.754262 0.000000 -0.656574 0.241623 0.241623 0.241623
6065.424316 0.000000 2184.822754 0.000000 0.633209 0.000000 -0.773980 0.219120 0.219120 0.219120
6061.465820 0.000000 2190.702148 0.000000 0.846701 0.000000 -0.532068 0.218291 0.218291 0.218291
6058.678223 0.000000 2184.581299 0.000000 0.847006 0.000000 -0.531583 0.233578 0.233578 0.233578
6058.281250 0.000000 2188.617920 0.000000 0.671001 0.000000 -0.741456 0.247655 0.247655 0.247655
6056.388184 0.000000 2196.407959 0.000000 0.749619 0.000000 -0.661870 0.242891 0.242891 0.242891
6016.233887 0.000000 2159.849609 0.000000 0.773589 0.000000 -0.633688 0.309973 0.309973 0.309973
6070.362793 0.000000 2180.048096 0.000000 0.921302 0.000000 -0.388849 0.238451 0.238451 0.238451
6047.740723 0.000000 2191.374756 0.000000 0.752620 0.000000 -0.658455 0.256641 0.256641 0.256641
6061.470215 0.000000 2193.690674 0.000000 0.871799 0.000000 -0.489863 0.274362 0.274362 0.274362
6043.159668 0.000000 2200.534668 0.000000 0.644820 0.000000 -0.764334 0.315801 0.315801 0.315801
6059.248047 0.000000 2193.603271 0.000000 0.732612 0.000000 -0.680646 0.259392 0.259392 0.259392
6020.298828 0.000000 2202.304688 0.000000 0.826968 0.000000 -0.562250 0.260606 0.260606 0.260606
6065.244629 0.000000 2183.458496 0.000000 0.782369 0.000000 -0.622815 0.312161 0.312161 0.312161
6017.498535 0.000000 2174.383057 0.000000 0.936273 0.000000 -0.351273 0.296229 0.296229 0.296229
6022.753418 0.000000 2151.571045 0.000000 0.881550 0.000000 -0.472090 0.273500 0.273500 0.273500
6036.561035 0.000000 2197.171631 0.000000 0.900775 0.000000 -0.434285 0.290006 0.290006 0.290006
6082.681152 0.000000 2168.624756 0.000000 0.937671 0.000000 -0.347525 0.255402 0.255402 0.255402
6086.267578 0.000000 2170.846191 0.000000 0.931210 0.000000 -0.364483 0.306608 0.306608 0.306608
6026.378418 0.000000 2214.751953 0.000000 0.945715 0.000000 -0.324997 0.252227 0.252227 0.252227
6053.374023 0.000000 2208.857178 0.000000 0.640726 0.000000 -0.767769 0.316718 0.316718 0.316718
5679.339355 0.000000 2259.621094 0.000000 0.936270 0.000000 -0.351281 0.213182 0.213182 0.213182
5947.000977 0.000000 2297.176025 0.000000 0.668274 0.000000 -0.743915 0.216951 0.216951 0.216951
5905.219727 0.000000 2270.833740 0.000000 0.612677 0.000000 -0.790333 0.228398 0.228398 0.228398
5912.030273 0.000000 2272.680176 0.000000 0.942542 0.000000 -0.334089 0.245965 0.245965 0.245965
5947.955078 0.000000 2290.430176 0.000000 0.601721 0.000000 -0.798706 0.281129 0.281129 0.281129
5948.112793 0.000000 2295.050049 0.000000 0.801292 0.000000 -0.598274 0.276095 0.276095 0.276095
5945.187988 0.000000 2290.860352 0.000000 0.865340 0.000000 -0.501185 0.265658 0.265658 0.265658
5956.384766 0.000000 2310.147705 0.000000 0.927685 0.000000 -0.373365 0.219154 0.219154 0.219154
5957.832520 0.000000 2291.240723 0.000000 0.755261 0.000000 -0.655424 0.245798 0.245798 0.245798
5974.025391 0.000000 2301.668945 0.000000 0.932551 0.000000 -0.361038 0.253826 0.253826 0.253826
5955.329590 0.000000 2294.803223 0.000000 0.715410 0.000000 -0.698704 0.297980 0.297980 0.297980
5953.639160 0.000000 2294.581299 0.000000 0.914343 0.000000 -0.404940 0.291866 0.291866 0.291866
5971.616211 0.000000 2305.633789 0.000000 0.769378 0.000000 -0.638794 0.297943 0.297943 0.297943
5952.098633 0.000000 2295.437500 0.000000 0.910650 0.000000 -0.413179 0.292006 0.292006 0.292006
5965.188965 0.000000 2324.114014 0.000000 0.838661 0.000000 -0.544654 0.247907 0.247907 0.247907
"}
object={
	name="rainforest_sparse_generator_2_4"
	clamp_to_water_level=no
	render_under_water=no
	generated_content=yes
	layer="semidynamic_medium"
	pdxmesh="tree_rainforest_005_mesh"
	count=123
	transform="5686.255859 0.000000 2211.650635 0.000000 0.102667 0.000000 -0.994716 0.246595 0.246595 0.246595
5692.271484 0.000000 2211.404053 0.000000 0.385855 0.000000 -0.922559 0.242478 0.242478 0.242478
5684.393066 0.000000 2225.284180 0.000000 0.048848 0.000000 -0.998806 0.251611 0.251611 0.251611
5700.035156 0.000000 2209.110352 0.000000 0.450694 0.000000 -0.892678 0.226385 0.226385 0.226385
5730.177734 0.000000 2229.823730 0.000000 0.078543 0.000000 -0.996911 0.257721 0.257721 0.257721
5696.233887 0.000000 2216.333984 0.000000 0.171930 0.000000 -0.985109 0.256713 0.256713 0.256713
5728.594727 0.000000 2222.529053 0.000000 0.013329 0.000000 -0.999911 0.301524 0.301524 0.301524
5731.595703 0.000000 2223.002441 0.000000 0.051757 0.000000 -0.998660 0.250940 0.250940 0.250940
5733.085938 0.000000 2229.261475 0.000000 0.022239 0.000000 -0.999753 0.284968 0.284968 0.284968
5783.724609 0.000000 2173.535645 0.000000 0.578914 0.000000 -0.815389 0.271623 0.271623 0.271623
5779.362793 0.000000 2230.878418 0.000000 0.228355 0.000000 -0.973578 0.229009 0.229009 0.229009
5768.309570 0.000000 2231.683838 0.000000 0.119247 0.000000 -0.992865 0.266907 0.266907 0.266907
5791.967773 0.000000 2221.090332 0.000000 0.011179 0.000000 -0.999938 0.252639 0.252639 0.252639
5769.912598 0.000000 2231.992676 0.000000 0.581201 0.000000 -0.813760 0.261122 0.261122 0.261122
5766.164062 0.000000 2231.460449 0.000000 0.249585 0.000000 -0.968353 0.255229 0.255229 0.255229
5948.034180 0.000000 2137.745117 0.000000 0.354687 0.000000 -0.934985 0.244050 0.244050 0.244050
5950.675293 0.000000 2141.673096 0.000000 0.548121 0.000000 -0.836399 0.318921 0.318921 0.318921
5947.964844 0.000000 2141.223633 0.000000 0.337406 0.000000 -0.941359 0.294123 0.294123 0.294123
5929.205566 0.000000 2146.378174 0.000000 0.467773 0.000000 -0.883849 0.309116 0.309116 0.309116
5955.051758 0.000000 2139.774414 0.000000 0.513805 0.000000 -0.857907 0.247236 0.247236 0.247236
5954.009277 0.000000 2110.970703 0.000000 0.392087 0.000000 -0.919928 0.279357 0.279357 0.279357
5955.455566 0.000000 2108.603027 0.000000 0.301528 0.000000 -0.953457 0.321735 0.321735 0.321735
6078.854492 0.000000 2116.505371 0.000000 0.222966 0.000000 -0.974826 0.230309 0.230309 0.230309
6073.773926 0.000000 2111.710693 0.000000 0.358738 0.000000 -0.933438 0.256513 0.256513 0.256513
6064.063965 0.000000 2115.717773 0.000000 0.121705 0.000000 -0.992566 0.325120 0.325120 0.325120
6080.712402 0.000000 2108.142822 0.000000 0.523886 0.000000 -0.851789 0.226288 0.226288 0.226288
6007.062500 0.000000 2197.423828 0.000000 0.115213 0.000000 -0.993341 0.217394 0.217394 0.217394
5999.436035 0.000000 2181.127686 0.000000 0.474838 0.000000 -0.880073 0.223093 0.223093 0.223093
5968.905273 0.000000 2200.305664 0.000000 0.158371 0.000000 -0.987380 0.264528 0.264528 0.264528
5982.021484 0.000000 2154.673096 0.000000 0.024318 0.000000 -0.999704 0.289526 0.289526 0.289526
6008.471680 0.000000 2186.862305 0.000000 0.123809 0.000000 -0.992306 0.326004 0.326004 0.326004
6000.891113 0.000000 2174.780273 0.000000 0.553440 0.000000 -0.832889 0.318799 0.318799 0.318799
6013.535645 0.000000 2200.581787 0.000000 0.242052 0.000000 -0.970263 0.242689 0.242689 0.242689
5986.375977 0.000000 2162.848877 0.000000 0.032275 0.000000 -0.999479 0.277009 0.277009 0.277009
6006.403320 0.000000 2166.092041 0.000000 0.451441 0.000000 -0.892301 0.251064 0.251064 0.251064
6004.080566 0.000000 2159.599854 0.000000 0.105368 0.000000 -0.994433 0.284528 0.284528 0.284528
6015.416504 0.000000 2153.631348 0.000000 0.179021 0.000000 -0.983845 0.325156 0.325156 0.325156
6006.998047 0.000000 2163.708496 0.000000 0.581008 0.000000 -0.813898 0.249473 0.249473 0.249473
5952.016113 0.000000 2155.058838 0.000000 0.034694 0.000000 -0.999398 0.329337 0.329337 0.329337
5974.444824 0.000000 2198.104980 0.000000 0.434289 0.000000 -0.900774 0.304640 0.304640 0.304640
5981.938965 0.000000 2162.939697 0.000000 0.022832 0.000000 -0.999739 0.327361 0.327361 0.327361
5975.560547 0.000000 2163.932129 0.000000 0.413332 0.000000 -0.910580 0.310096 0.310096 0.310096
5954.970703 0.000000 2155.854004 0.000000 0.565564 0.000000 -0.824704 0.271210 0.271210 0.271210
6004.241699 0.000000 2158.141113 0.000000 0.277262 0.000000 -0.960794 0.282222 0.282222 0.282222
6006.848633 0.000000 2168.918945 0.000000 0.523694 0.000000 -0.851906 0.267491 0.267491 0.267491
5975.035156 0.000000 2156.843262 0.000000 0.510449 0.000000 -0.859908 0.279496 0.279496 0.279496
5998.671387 0.000000 2179.942871 0.000000 0.168607 0.000000 -0.985683 0.269534 0.269534 0.269534
6010.669922 0.000000 2202.144043 0.000000 0.527901 0.000000 -0.849306 0.285455 0.285455 0.285455
5983.069336 0.000000 2155.789307 0.000000 0.248806 0.000000 -0.968553 0.286456 0.286456 0.286456
6015.974609 0.000000 2177.937744 0.000000 0.471545 0.000000 -0.881842 0.320622 0.320622 0.320622
5980.436523 0.000000 2163.009033 0.000000 0.020572 0.000000 -0.999788 0.327401 0.327401 0.327401
6015.365723 0.000000 2156.371582 0.000000 0.504964 0.000000 -0.863141 0.292085 0.292085 0.292085
5911.890625 0.000000 2221.948242 0.000000 0.501476 0.000000 -0.865172 0.206812 0.206812 0.206812
5942.173828 0.000000 2209.074951 0.000000 0.340011 0.000000 -0.940421 0.208158 0.208158 0.208158
5931.407227 0.000000 2247.118652 0.000000 0.253801 0.000000 -0.967256 0.250760 0.250760 0.250760
5941.097168 0.000000 2204.676025 0.000000 0.260632 0.000000 -0.965438 0.262069 0.262069 0.262069
5918.190918 0.000000 2239.944580 0.000000 0.051215 0.000000 -0.998688 0.328623 0.328623 0.328623
5932.147461 0.000000 2218.526123 0.000000 0.120737 0.000000 -0.992685 0.253431 0.253431 0.253431
5933.641602 0.000000 2219.247559 0.000000 0.554660 0.000000 -0.832077 0.248582 0.248582 0.248582
5926.782227 0.000000 2230.900391 0.000000 0.177861 0.000000 -0.984056 0.326585 0.326585 0.326585
5949.818848 0.000000 2204.255859 0.000000 0.044099 0.000000 -0.999027 0.303049 0.303049 0.303049
5931.818848 0.000000 2240.392578 0.000000 0.336000 0.000000 -0.941862 0.318529 0.318529 0.318529
5950.147949 0.000000 2247.845459 0.000000 0.399255 0.000000 -0.916840 0.322156 0.322156 0.322156
5959.408691 0.000000 2220.728027 0.000000 0.245878 0.000000 -0.969301 0.231358 0.231358 0.231358
6004.657715 0.000000 2202.926758 0.000000 0.253124 0.000000 -0.967434 0.235048 0.235048 0.235048
5958.953125 0.000000 2238.500977 0.000000 0.549619 0.000000 -0.835415 0.236397 0.236397 0.236397
5969.219727 0.000000 2214.349365 0.000000 0.447499 0.000000 -0.894285 0.255457 0.255457 0.255457
6012.271484 0.000000 2211.404053 0.000000 0.449502 0.000000 -0.893279 0.258542 0.258542 0.258542
5964.080078 0.000000 2234.179443 0.000000 0.152899 0.000000 -0.988242 0.234704 0.234704 0.234704
5962.618164 0.000000 2254.333984 0.000000 0.077697 0.000000 -0.996977 0.262232 0.262232 0.262232
5952.371582 0.000000 2207.975342 0.000000 0.542618 0.000000 -0.839980 0.237698 0.237698 0.237698
5964.773926 0.000000 2237.074707 0.000000 0.051361 0.000000 -0.998680 0.263170 0.263170 0.263170
5954.335449 0.000000 2234.120605 0.000000 0.384750 0.000000 -0.923021 0.320828 0.320828 0.320828
5973.555664 0.000000 2206.975586 0.000000 0.164085 0.000000 -0.986446 0.320879 0.320879 0.320879
5973.209473 0.000000 2209.752930 0.000000 0.438498 0.000000 -0.898732 0.300764 0.300764 0.300764
5973.918945 0.000000 2214.397949 0.000000 0.372480 0.000000 -0.928040 0.267021 0.267021 0.267021
5970.425781 0.000000 2251.742676 0.000000 0.265578 0.000000 -0.964089 0.270900 0.270900 0.270900
5990.826172 0.000000 2209.626709 0.000000 0.480778 0.000000 -0.876843 0.320421 0.320421 0.320421
5990.002930 0.000000 2204.552246 0.000000 0.137751 0.000000 -0.990467 0.292532 0.292532 0.292532
5991.522949 0.000000 2206.888672 0.000000 0.250230 0.000000 -0.968186 0.317444 0.317444 0.317444
5999.546387 0.000000 2209.238037 0.000000 0.520519 0.000000 -0.853850 0.304362 0.304362 0.304362
5966.755859 0.000000 2212.338623 0.000000 0.203543 0.000000 -0.979066 0.299365 0.299365 0.299365
5978.696777 0.000000 2222.636719 0.000000 0.512982 0.000000 -0.858399 0.315214 0.315214 0.315214
6048.544434 0.000000 2193.737793 0.000000 0.106655 0.000000 -0.994296 0.215576 0.215576 0.215576
6022.070312 0.000000 2153.446289 0.000000 0.521002 0.000000 -0.853556 0.230592 0.230592 0.230592
6017.042969 0.000000 2178.907227 0.000000 0.185378 0.000000 -0.982667 0.231266 0.231266 0.231266
6018.199219 0.000000 2153.518555 0.000000 0.459792 0.000000 -0.888027 0.237368 0.237368 0.237368
6078.970703 0.000000 2169.062256 0.000000 0.068503 0.000000 -0.997651 0.235458 0.235458 0.235458
6026.618164 0.000000 2159.950684 0.000000 0.030487 0.000000 -0.999535 0.238347 0.238347 0.238347
6065.324707 0.000000 2182.003418 0.000000 0.214819 0.000000 -0.976654 0.324496 0.324496 0.324496
6032.985352 0.000000 2168.582031 0.000000 0.149077 0.000000 -0.988826 0.239796 0.239796 0.239796
6073.864746 0.000000 2174.997559 0.000000 0.345810 0.000000 -0.938304 0.264208 0.264208 0.264208
6023.434570 0.000000 2157.149902 0.000000 0.061245 0.000000 -0.998123 0.312024 0.312024 0.312024
6016.369629 0.000000 2157.308105 0.000000 0.416366 0.000000 -0.909197 0.244636 0.244636 0.244636
6052.813477 0.000000 2163.560547 0.000000 0.298024 0.000000 -0.954558 0.273666 0.273666 0.273666
6062.867676 0.000000 2176.865967 0.000000 0.485175 0.000000 -0.874417 0.254994 0.254994 0.254994
6044.743164 0.000000 2175.019287 0.000000 0.384688 0.000000 -0.923047 0.293394 0.293394 0.293394
6046.348145 0.000000 2176.744629 0.000000 0.007956 0.000000 -0.999968 0.291718 0.291718 0.291718
6086.028809 0.000000 2169.335938 0.000000 0.342049 0.000000 -0.939682 0.221811 0.221811 0.221811
6027.786133 0.000000 2207.943604 0.000000 0.190827 0.000000 -0.981624 0.209535 0.209535 0.209535
6023.434570 0.000000 2213.634277 0.000000 0.053913 0.000000 -0.998546 0.247714 0.247714 0.247714
5880.639160 0.000000 2264.347412 0.000000 0.238903 0.000000 -0.971043 0.225168 0.225168 0.225168
5882.082520 0.000000 2263.599365 0.000000 0.027870 0.000000 -0.999612 0.280323 0.280323 0.280323
5883.590332 0.000000 2262.527588 0.000000 0.290199 0.000000 -0.956966 0.276947 0.276947 0.276947
5913.283691 0.000000 2280.992676 0.000000 0.017622 0.000000 -0.999845 0.223826 0.223826 0.223826
5949.738281 0.000000 2287.624268 0.000000 0.325691 0.000000 -0.945476 0.223188 0.223188 0.223188
5944.742188 0.000000 2289.268799 0.000000 0.330624 0.000000 -0.943762 0.232455 0.232455 0.232455
5949.810547 0.000000 2293.028564 0.000000 0.353075 0.000000 -0.935595 0.284978 0.284978 0.284978
5901.188965 0.000000 2267.629639 0.000000 0.385358 0.000000 -0.922767 0.249956 0.249956 0.249956
5935.392090 0.000000 2280.655273 0.000000 0.370721 0.000000 -0.928744 0.277761 0.277761 0.277761
5909.918945 0.000000 2270.882324 0.000000 0.577326 0.000000 -0.816514 0.261792 0.261792 0.261792
5926.060059 0.000000 2280.199219 0.000000 0.004801 0.000000 -0.999988 0.282577 0.282577 0.282577
5947.526855 0.000000 2292.142090 0.000000 0.552883 0.000000 -0.833259 0.316967 0.316967 0.316967
5908.600586 0.000000 2270.396973 0.000000 0.271629 0.000000 -0.962402 0.265744 0.265744 0.265744
5914.696777 0.000000 2279.121094 0.000000 0.347335 0.000000 -0.937741 0.274286 0.274286 0.274286
5957.729492 0.000000 2301.403809 0.000000 0.451547 0.000000 -0.892247 0.225763 0.225763 0.225763
5953.726074 0.000000 2302.279541 0.000000 0.078176 0.000000 -0.996940 0.250032 0.250032 0.250032
5952.850586 0.000000 2299.939697 0.000000 0.086350 0.000000 -0.996265 0.262135 0.262135 0.262135
5971.070801 0.000000 2302.742920 0.000000 0.460937 0.000000 -0.887433 0.247855 0.247855 0.247855
5952.926758 0.000000 2313.068604 0.000000 0.421651 0.000000 -0.906758 0.292812 0.292812 0.292812
5957.464844 0.000000 2320.641357 0.000000 0.383780 0.000000 -0.923425 0.208080 0.208080 0.208080
5965.735352 0.000000 2331.527588 0.000000 0.441000 0.000000 -0.897507 0.288089 0.288089 0.288089
6245.085938 0.000000 2003.324097 0.000000 0.509140 0.000000 -0.860684 0.278270 0.278270 0.278270
"}
