﻿
STATE_HOLD_1 = {
    id = 700
    subsistence_building = "building_subsistence_farms"
    provinces = { "xB92198" "xB9992E" "xB9E16D" "xB9FF88" "xBB0796" "xBB326D" "xBD585E" "xBF2691" "xBFAD33" "xC207A4" "xC46056" "xC6FB1C" "xC7348A" "xC9D881" "xCE330D" "xCE546F" "xCE78A1" "xCF3D19" "xCF4827" "xCF573F" "xCF6C30" "xCF7570" "xCF9D42" "xCFE123" "xD05C58" "xD0614D" "xD06B59" "xD1C2A3" "xD24F0E" "xD26D3E" "xD34E82" "xD37881" "xD38F81" "xD3B77F" "xD45857" "xD49F49" "xD57598" "xD66E3C" "xD68A4A" "xD69559" "xD6C581" "xD7A669" "xD8C529" "xD9A14E" "xDA893C" "xDA9181" "xDA9E7D" "xDAA972" "xDB8732" "xDBD770" "xDC750F" "xDC7D36" "xDC7E1C" "xDD5D45" "xDD8526" "xDE667C" "xDE9411" "xDE9D93" "xDEE08E" "xDF913B" "xDFC793" "xE0A17F" "xE0A358" "xE0A981" "xE0BF7F" "xE0C869" "xE0C878" "xE15B66" "xE48A2E" "xE59E5B" "xE5D174" "xE6C48D" "xE7B78A" "xE7C381" "xE7EC62" "xE7F0A1" "xE85856" "xE85D72" "xE86448" "xE86459" "xE86467" "xE8CA73" "xE9767A" "xEA706F" "xEA8369" "xEA9266" "xEB6022" "xEC9427" "xED7768" "xEDBA29" "xEEE16F" "xEF6A4D" "xF0A28A" "xF3871C" "xF55F39" "xF5E16F" "xF69F3E" "xF6B74F" "xF6CF60" "xF87F3F" "xFBA60A" "xFBCC31" "xFCB016" "xFDF90F" }
    traits = {}
    city = ""
    farm = ""
    mine = ""
    arable_land = 1
    arable_resources = { bg_wheat_farms bg_livestock_ranches bg_serpentbloom_farms }
    capped_resources = {
        bg_logging = 1
    }
}

STATE_HOLD_2 = {
    id = 701
    subsistence_building = "building_subsistence_farms"
    provinces = { "x96002C" "x961A20" "x99301B" "xA10030" "xA91B28" "xB31A04" "xB42107" "xB4432F" "xB5270B" "xB5820A" "xB7321A" "xB76F30" "xBA2B04" "xBA3D12" "xBB2A26" "xBB4326" "xBD301A" "xBF4E16" "xBF551A" "xC15F1F" "xC3710C" "xC55226" "xC74D0F" "xC76121" "xC84205" "xC94610" "xC94708" "xCA4B0B" "xCB3924" "xCC592B" "xCC812A" "xCE722B" "xD06126" "xD06E25" "xD0731F" "xD07323" "xD87129" "xD87922" "xDA7026" "xDA881D" "xDE4224" "xDE4A1F" "xDE531E" "xE1350A" "xED4D08" "xF03411" "xF08221" "xF25B12" "xF26917" "xF2781C" "xF44712" "xF95F03" "xF9760E" "xFA6506" "xFC9105" }
    traits = {}
    city = ""
    farm = ""
    mine = ""
    arable_land = 1
    arable_resources = { bg_wheat_farms bg_livestock_ranches bg_serpentbloom_farms }
    capped_resources = {
        bg_logging = 1
    }
}

STATE_HOLD_3 = {
    id = 702
    subsistence_building = "building_subsistence_farms"
    provinces = { "xDF533A" "xDF9A05" "xE29608" "xE6E81F" "xE7920F" "xE7D900" "xE7E131" "xE8763C" "xE8CC37" "xE8F735" "xEAC31A" "xEC8616" "xEC943A" "xECD023" "xEE8320" "xEEDC1E" "xEEDF27" "xEFE02A" "xEFE833" "xF0AA16" "xF0B337" "xF0E736" "xF2DD2C" "xF47D21" "xF4D135" "xF66E0F" "xF6DC27" "xF79627" "xF8741C" "xF88C1D" "xF97A26" "xF97A27" "xFA8316" "xFAF125" "xFC6E20" "xFC9C18" "xFCE725" "xFDC208" "xFDD812" "xFDEE1D" "xFF6519" }
    traits = {}
    city = ""
    farm = ""
    mine = ""
    arable_land = 1
    arable_resources = { bg_wheat_farms bg_livestock_ranches bg_serpentbloom_farms }
    capped_resources = {
        bg_logging = 1
    }
}

STATE_HOLD_4 = {
    id = 703
    subsistence_building = "building_subsistence_farms"
    provinces = { "x0872C3" "x0872CD" "x0872DF" "x0872E8" "x0884B1" "x0886DF" "x08B1C5" "x08C7CE" "x0972A8" "x1072C3" "x1086DF" "x10B1C5" "x1172B1" "x1786DF" "x17B1CD" "x1972C3" "x1B5EC4" "x1BA1C0" "x1C5ABD" "x1F86DF" "x1FB1D5" "x20B2C4" "x2172C3" "x239FBE" "x2686DF" "x26B1DC" "x275ED3" "x28A4CD" "x28B2C3" "x2972C3" "x2AA3DF" "x2CA3CB" "x2E86DF" "x3086E4" "x30A6D3" "x3161DA" "x31A3CB" "x3272C3" "x33E1F3" "x359ECB" "x3686DF" "x36A2D4" "x3786EC" "x3A63E2" "x3ACCC3" "x3AD2F3" "x3C96EA" "x3C99D4" "x3E86DF" "x4194F2" "x4396E8" "x4396E9" "x446FC3" "x4480CD" "x4586DF" "x4A5ED9" "x4A5EEA" "x4A94DF" "x934829" "xA0892F" "xAB8B33" "xBB8931" "xC28531" "xCD4D4A" }
    traits = {}
    city = ""
    farm = ""
    mine = ""
    arable_land = 1
    arable_resources = { bg_wheat_farms bg_livestock_ranches bg_serpentbloom_farms }
    capped_resources = {
        bg_logging = 1
    }
}

STATE_HOLD_5 = {
    id = 704
    subsistence_building = "building_subsistence_farms"
    provinces = { "x631863" "x670061" "x672747" "x6C493D" "x701C5E" "x78006A" "x7C5138" "x7FDC12" "x832859" "x8E5B32" "x912808" "x924548" "x926668" "x933110" "x94D727" "x953B19" "x95872B" "x95C516" "x964C39" "x965231" "x975A39" "x98A96A" "x9B4109" "x9B5C28" "x9D4054" "x9D6654" "x9D9F52" "x9F4939" "xA26363" "xA37730" "xA3803A" "xA45D27" "xA69044" "xA9AB1B" "xABD13F" "xAC7627" "xAC7D54" "xAE542F" "xAE7420" "xAE934A" "xAFBC48" "xB0630A" "xB16A23" "xB16B12" "xB34D2C" "xB37219" "xB45650" "xB4C45C" "xB57F0B" "xB5875F" "xB5C45C" "xB8AD5F" "xBA9354" "xBAA652" "xBAAE44" "xBAAE4D" "xBAAE4E" "xBE5439" "xC2AA1C" "xC4771E" "xC6B74B" "xC7AA5B" "xC9AA54" "xCA9F59" "xCACE3F" "xCAD368" "xCB4938" "xCD542F" "xCD543A" "xCD5443" "xCDB14A" "xCF5F47" "xCF644F" "xD07044" "xD07E42" "xD35116" "xD47F19" "xD53F64" "xD76543" "xD7A21A" "xD8725B" "xDC5A32" "xDD7228" "xDE8C59" "xE57412" "xE94F25" "xEAC548" "xEC8928" "xEC9F33" "xECB53E" "xED745A" "xEE6C29" "xF68F06" "xF6B220" "xF8990E" "xFA4260" "xFBDB0A" }
    traits = {}
    city = ""
    farm = ""
    mine = ""
    arable_land = 1
    arable_resources = { bg_wheat_farms bg_livestock_ranches bg_serpentbloom_farms }
    capped_resources = {
        bg_logging = 1
    }
}

STATE_HOLD_6 = {
    id = 705
    subsistence_building = "building_subsistence_farms"
    provinces = { "x00B407" "x00C519" "x00EA2E" "x03E730" "x08B10C" "x0DE437" "x12F300" "x13EE2D" "x15AE15" "x15DD09" "x15E000" "x15E300" "x15E945" "x18D94E" "x199A55" "x19DA14" "x19F94B" "x1AE23F" "x1CC300" "x1DD225" "x1EC721" "x1FD723" "x20B700" "x23B309" "x23DC31" "x24A520" "x24B052" "x24F652" "x26D835" "x27C254" "x288C58" "x28A32E" "x29B041" "x29CB4A" "x29E52A" "x2AE738" "x2B9F3B" "x2BBA58" "x2D9C46" "x2DEE49" "x2EED4D" "x35E62A" "x35E63F" "x37AF48" "x3A9D47" "x40E538" "x419416" "x438D58" "x449827" "x44AC52" "x479D37" "x489C37" "x4AF535" "x50942E" "x51ED34" "x52B328" "x52B557" "x52F329" "x53E21A" "x559F25" "x588D23" }
    traits = {}
    city = ""
    farm = ""
    mine = ""
    arable_land = 1
    arable_resources = { bg_wheat_farms bg_livestock_ranches bg_serpentbloom_farms }
    capped_resources = {
        bg_logging = 1
    }
}

STATE_HOLD_7 = {
    id = 706
    subsistence_building = "building_subsistence_farms"
    provinces = { "x1DEF93" "x26ED98" "x40EBAA" "x4BF61D" "x53C253" "x53EA1D" "x5CE351" "x5EB7AE" "x5FE9BF" "x65B1C4" "x66D21D" "x6CE177" "x75AFD8" "x7ABB6F" "x7EE1A5" "x85A7FF" "x85B993" "x86C3C5" "x8DB6B4" "x91DC4D" "x93D0E3" "xA7CADF" "xA9CADF" "xA9F9D5" "xAAC2D5" "xADD677" "xAECB93" "xAFD98E" "xB1D74C" "xC2715B" "xC4D456" "xC7CCB5" "xC8A9FF" "xCCC0EF" "xECAE92" "xF0BFD3" "xF0C7FD" "xF6B2C5" }
    traits = {}
    city = ""
    farm = ""
    mine = ""
    arable_land = 1
    arable_resources = { bg_wheat_farms bg_livestock_ranches bg_serpentbloom_farms }
    capped_resources = {
        bg_logging = 1
    }
}

STATE_HOLD_8 = {
    id = 707
    subsistence_building = "building_subsistence_farms"
    provinces = { "x7D03F4" "x8804EC" "x920BB3" "x941E7A" "x9C19DC" "xA016ED" "xA10CAA" "xA20AC6" "xA313C0" "xA40EC5" "xA50CA3" "xA510B4" "xA608D5" "xA611C7" "xA61D9B" "xA70995" "xA815A2" "xAA068A" "xAA129B" "xAB037C" "xAC006F" "xAF08E3" "xB10060" "xB117B9" "xB31480" "xB61199" "xB711F7" "xB906FF" "xB90DD6" "xB913E6" "xB91CBE" "xBA16D9" "xBC0FFE" "xBC1490" "xBF0BDF" "xC01481" "xC1045F" "xC111EB" "xC2066C" "xC3035F" "xC30A7E" "xC31199" "xC4025F" "xC40D8D" "xC714A0" "xCC075F" "xCC178A" "xCE0DE2" "xCE0FE8" "xCE108C" "xCE1CE2" "xCF0D9C" "xCF0EDB" "xCF109D" "xD0139E" "xD110B2" "xD113AF" "xD21380" "xDA10D7" "xDB1185" "xDD1687" "xDE0EC5" "xDF06FF" "xDF10CA" "xE10CF4" "xE20CAA" "xF60CE0" "xFA09D6" }
    traits = {}
    city = ""
    farm = ""
    mine = ""
    arable_land = 1
    arable_resources = { bg_wheat_farms bg_livestock_ranches bg_serpentbloom_farms }
    capped_resources = {
        bg_logging = 1
    }
}

STATE_HOLD_9 = {
    id = 708
    subsistence_building = "building_subsistence_farms"
    provinces = { "x00E029" "x00F662" "x00FF7A" "x0DD81C" "x0DE62E" "x0DED49" "x0FD20D" "x1BE63B" "x1ED21B" "x27E646" "x2BF06A" "x2ED22B" "x37D675" "x3CD58A" "x3DD392" "x3DED74" "x3ED336" "x45DD75" "x46E171" "x47D041" "x49DA63" "x4CCD3E" "x4EE184" "x52D86B" "x53E575" "x56D050" "x5EF169" "x5FD877" "x5FED7F" "x62F958" "x63CC4E" "x64D041" "x64D051" "x64D05D" "x6ACE1F" "x74DA38" "x7BDA19" "x80F664" "x82E138" "x82E947" "x82F057" "x8AD893" "x8BF844" "x8CF02C" "x8DE714" "x94BD3B" "x94C36A" "xABBAD3" }
    traits = {}
    city = ""
    farm = ""
    mine = ""
    arable_land = 1
    arable_resources = { bg_wheat_farms bg_livestock_ranches bg_serpentbloom_farms }
    capped_resources = {
        bg_logging = 1
    }
}

STATE_HOLD_10 = {
    id = 709
    subsistence_building = "building_subsistence_farms"
    provinces = { "xE6F396" "xE6F62B" "xE7E741" "xE7E92B" "xE7EB2B" "xE8E45C" "xE8FBDF" "xE9D42B" "xE9F9FD" "xEAE27F" "xEBCB2B" "xEBEB2B" "xECBF77" "xECC941" "xECF9F0" "xEDC55F" "xEDD3F5" "xEDE3AB" "xEEACFF" "xEEBD9A" "xEED9DE" "xEEE3CC" "xEEED91" "xEEED93" "xEEEEB1" "xEFB8D3" "xEFBAB8" "xEFCDFE" "xEFF3DA" "xF2ED90" "xF2EDC3" "xF4B9D5" "xF6ECB2" "xF7ADFF" "xF9B8B0" "xF9B9D0" "xFCB299" "xFCDFA4" "xFCF2A9" "xFDC98B" "xFEBA85" "xFFAD80" }
    traits = {}
    city = ""
    farm = ""
    mine = ""
    arable_land = 1
    arable_resources = { bg_wheat_farms bg_livestock_ranches bg_serpentbloom_farms }
    capped_resources = {
        bg_logging = 1
    }
}

STATE_HOLD_11 = {
    id = 710
    subsistence_building = "building_subsistence_farms"
    provinces = { "xACA108" "xADB048" "xAEA610" "xAEAB19" "xB3AE09" "xB9C930" "xBACE3A" "xBBD644" "xC1C927" "xC1D84A" "xC2C820" "xC3C00A" "xC4C412" "xC5C719" "xCBE152" "xCBE644" "xCBE64D" "xCBE64E" }
    traits = {}
    city = ""
    farm = ""
    mine = ""
    arable_land = 1
    arable_resources = { bg_wheat_farms bg_livestock_ranches bg_serpentbloom_farms }
    capped_resources = {
        bg_logging = 1
    }
}

STATE_HOLD_12 = {
    id = 711
    subsistence_building = "building_subsistence_farms"
    provinces = { "x08DB45" "x08DB58" "x08E023" "x08E07A" "x08EB47" "x08F159" "x09DB10" "x10DB45" "x10E07A" "x10EB48" "x17E07A" "x17EB56" "x1ADB45" "x1BD646" "x1CE73E" "x1CE74A" "x1DD53A" "x1DD762" "x1DD955" "x1DDB62" "x20DC45" "x20E07A" "x20EB66" "x21DB4A" "x21EC47" "x21EC59" "x21F26F" "x21F886" "x22D761" "x23E851" "x24DB45" "x24E73B" "x25E045" "x27E07A" "x27EB74" "x27F12E" "x28D763" "x29E857" "x29EC45" "x2ADA50" "x2AF893" "x2BE27A" "x2BE645" "x2BE87A" "x2CE15B" "x2DE854" "x2FE07A" "x31E083" "x31E962" "x31EC45" "x32D771" "x32E854" "x34F7A0" "x36E754" "x37E765" "x38E07A" "x39E092" "x3AFBB3" "x3CD87E" "x3CDB45" "x3CE045" "x3CE745" "x3CEDA0" "x3CF4A0" "x3DDC7B" "x3DE175" "x3DE565" "x3DE571" "x3DE58D" "x3FE07A" "x40EC8F" "x43E49D" "x44D96F" "x44E57D" "x44E58B" "x44E58C" "x45D951" "x45DB44" "x45DF56" "x45E56D" "x45EA84" "x47E07A" "x4CD66D" "x4CD68F" "x4CD93B" "x4CE43B" "x4CE47A" "x55D5A6" "xA2B3D3" "xD34937" "xD3BD4C" }
    traits = {}
    city = ""
    farm = ""
    mine = ""
    arable_land = 1
    arable_resources = { bg_wheat_farms bg_livestock_ranches bg_serpentbloom_farms }
    capped_resources = {
        bg_logging = 1
    }
}

STATE_HOLD_13 = {
    id = 712
    subsistence_building = "building_subsistence_farms"
    provinces = { "xD91A35" "xD91A44" "xDD1A35" "xE11A35" "xE2145F" "xE21C60" "xE5236E" "xE52D6D" "xE6186D" "xE8065E" "xE91A35" "xE9372D" "xEB0C5E" "xED246D" "xED286D" "xED2E6D" "xEE1A35" "xF0175E" "xF0372D" "xF1186E" "xF11A35" "xF11C5B" "xF11E6E" "xF11F35" "xF12145" "xF1246E" "xF12635" "xF12A6E" "xF13235" "xF13262" "xF13835" "xF13844" "xF13852" "xF13860" "xF21A35" "xF32745" "xF5385F" "xF72E45" "xF9364D" }
    traits = {}
    city = ""
    farm = ""
    mine = ""
    arable_land = 1
    arable_resources = { bg_wheat_farms bg_livestock_ranches bg_serpentbloom_farms }
    capped_resources = {
        bg_logging = 1
    }
}

STATE_HOLD_14 = {
    id = 713
    subsistence_building = "building_subsistence_farms"
    provinces = { "x00CE0E" "x00D834" "x00F161" "x03EF65" "x06CB19" "x0BED74" "x0CC362" "x12CA2C" "x12ED00" "x14E6A5" "x15C078" "x15C758" "x15E62B" "x15EC85" "x16CC77" "x16DC71" "x17C850" "x17D362" "x17D879" "x17FB45" "x18BB89" "x18BE3F" "x1AAB22" "x1AE44A" "x1BA113" "x1DB99A" "x1EA101" "x1EC443" "x1EE868" "x1EE992" "x20E570" "x21D6B1" "x22B3BA" "x22CB8A" "x22F96E" "x24D1B9" "x24E039" "x25C395" "x25D05D" "x26E127" "x27AF00" "x27B40F" "x27D6A3" "x28C124" "x28CB36" "x28D543" "x2ADF4C" "x2DB600" "x2DD1A0" "x2DE832" "x2ECA98" "x2ECB90" "x2ED1A0" "x2EFA98" "x2FC847" "x2FD248" "x2FDB4A" "x30D261" "x30DC27" "x30DE5D" "x35D38C" "x36B82E" "x36BCAF" "x36D62C" "x37E52E" "x38B4BA" "x38D1A0" "x38D37D" "x39BB53" "x39C8AD" "x3ADC9D" "x3BBE73" "x42D29E" "x45C796" "x45CEB9" "x45F756" "x47BC8B" "x4AAE4A" "x4AB585" }
    traits = {}
    city = ""
    farm = ""
    mine = ""
    arable_land = 1
    arable_resources = { bg_wheat_farms bg_livestock_ranches bg_serpentbloom_farms }
    capped_resources = {
        bg_logging = 1
    }
}

STATE_HOLD_15 = {
    id = 714
    subsistence_building = "building_subsistence_farms"
    provinces = { "x066505" "x066514" "x066519" "x066523" "x066528" "x06780A" "x067A23" "x06A614" "x06BE19" "x0A1615" "x0B6514" "x0B7A23" "x0E2E15" "x117A23" "x11A619" "x124815" "x126514" "x134D23" "x136E23" "x167A23" "x16A61D" "x178829" "x17B028" "x186514" "x196414" "x1A5C28" "x1B7A23" "x1B9F21" "x1BA621" "x1C1623" "x1DD611" "x1E5D17" "x1E6514" "x1E9823" "x1EA224" "x202E23" "x217A23" "x239A28" "x239B28" "x23A229" "x23B128" "x23B828" "x23C126" "x244223" "x245C29" "x245D1C" "x246514" "x248B28" "x277A23" "x287A2A" "x28D611" "x29BC29" "x2A5C29" "x2A5D21" "x2A6514" "x2A7429" "x2A7A14" "x2A7E19" "x2A8B29" "x2A9414" "x2AA229" "x2AAB14" "x2AC029" "x2AC314" "x2AC325" "x2ADA14" "x2ADA19" "x2ADA1F" "x2ADA23" "x2ADA29" "x2B6514" "x2D7A23" "x2D9919" "x2F882D" "x2FDA23" "x317E14" "x327A23" "x32B319" "x35501F" "x355029" "x355A11" "x358811" "x358823" "x35D01D" "x369814" "x36B019" }
    traits = {}
    city = ""
    farm = ""
    mine = ""
    arable_land = 1
    arable_resources = { bg_wheat_farms bg_livestock_ranches bg_serpentbloom_farms }
    capped_resources = {
        bg_logging = 1
    }
}

STATE_HOLD_16 = {
    id = 715
    subsistence_building = "building_subsistence_farms"
    provinces = { "x581B5F" "x5F0D85" "x5F185F" "x671684" "x71115F" "x76169E" "x790F5F" "x830B99" "x831CF4" "x8D0BB2" "x8F19AC" "x950ACA" "x9909DE" "x991AE3" "xAD19D2" "xB709E0" "xC618C5" "xC70787" "xCC06FF" "xEA15BB" "xED07B2" "xEE1ABE" "xF00EA8" "xF80AA3" "xFF069F" }
    traits = {}
    city = ""
    farm = ""
    mine = ""
    arable_land = 1
    arable_resources = { bg_wheat_farms bg_livestock_ranches bg_serpentbloom_farms }
    capped_resources = {
        bg_logging = 1
    }
}

STATE_HOLD_17 = {
    id = 716
    subsistence_building = "building_subsistence_farms"
    provinces = { "xBF0FBA" "xBF147F" "xC60FBA" "xCC0FBA" "xCD0C7C" "xCF0A7E" "xCF1275" "xD00970" "xD00B8F" "xD00C9F" "xD214A3" "xD3147F" "xD60C7C" "xD61271" "xD71082" "xD814B3" "xD90A9F" "xD91391" "xDA107A" "xDA147C" "xDB12BA" "xDB1AD7" "xDC0F42" "xDD128E" "xDE1143" "xE0139E" "xE0147C" "xE10AAF" "xE1128E" "xE21AE5" "xE50FBA" "xE512A1" "xE80ABF" "xE8127C" "xE818E5" "xE81ABC" "xE90C7C" "xEA0DBB" "xEA11A2" "xEA11D0" "xEC0FBA" "xEE10E2" "xEF11CE" "xF00C7B" "xF00E91" "xF011AB" "xF10FBA" "xF50AAB" "xF50AD2" }
    traits = {}
    city = ""
    farm = ""
    mine = ""
    arable_land = 1
    arable_resources = { bg_wheat_farms bg_livestock_ranches bg_serpentbloom_farms }
    capped_resources = {
        bg_logging = 1
    }
}

STATE_HOLD_18 = {
    id = 717
    subsistence_building = "building_subsistence_farms"
    provinces = { "x0FFB05" "x12E741" "x12F51E" "x12F705" "x15F43F" "x18ED05" "x1BEA05" "x1BF368" "x1EE91E" "x1FE45F" "x1FFCED" "x20E742" "x21F39C" "x22EDF3" "x23E487" "x23F77E" "x25EBFE" "x26E3AC" "x27E2CB" "x27FAD4" "x2EF8B8" "x32E2CE" "x37F7A4" "x38DF43" "x3ADDFF" "x3EE2A2" "x3EE2C8" "x45DF86" "x45F294" "x46FA99" "x47E977" "x4AE36F" "x4CDD69" "xD11C19" "xDA90F4" }
    traits = {}
    city = ""
    farm = ""
    mine = ""
    arable_land = 1
    arable_resources = { bg_wheat_farms bg_livestock_ranches bg_serpentbloom_farms }
    capped_resources = {
        bg_logging = 1
    }
}

STATE_HOLD_19 = {
    id = 718
    subsistence_building = "building_subsistence_farms"
    provinces = { "x00E751" "x00F8A5" "x07F7A9" "x0FE65C" "x1AF6B8" "x23FB43" "x29E570" "x29F456" "x29F543" "x29F643" "x2FF36E" "x37EC43" "x3BF28D" "x3DE843" "x43E656" "x46E287" "x49F2B5" "x4BEBF6" "x4EDAFF" "x4EE1A5" "x4FE6CE" "x4FEEE2" "x53E9FE" "x54E0C0" "x57DFD8" "x6AE5DC" "x6DE9A5" "x6DEE8D" "x6EEFA1" "x6FEE6A" "x70DFDA" "x7DDC71" "x81DAFF" "x83DE97" "x83E4F2" "x89DFB7" "x8BDFB9" "x8FFCB5" "x9BDCA4" "x9EE699" "x9FFB9A" "xA1F67B" "xA5E093" "xAADA8E" }
    traits = {}
    city = ""
    farm = ""
    mine = ""
    arable_land = 1
    arable_resources = { bg_wheat_farms bg_livestock_ranches bg_serpentbloom_farms }
    capped_resources = {
        bg_logging = 1
    }
}

STATE_HOLD_20 = {
    id = 719
    subsistence_building = "building_subsistence_farms"
    provinces = { "x005E42" "x008D9E" "x00A0C5" "x096B4A" "x0B4115" "x136B5E" "x15412C" "x214145" "x2378ED" "x2749BC" "x2B4357" "x2B7ABB" "x3159BC" "x3161B6" "x3353A0" "x353764" "x3761D5" "x397CD6" "x4283A9" "x437ACC" "x45347D" "x45938E" "x473C69" "x473C82" "x4B3A31" "x543293" "x565328" "x5A8DA1" "x61926E" "x627F47" "x636D20" "x6821AB" "xC6F489" "xF49061" }
    traits = {}
    city = ""
    farm = ""
    mine = ""
    arable_land = 1
    arable_resources = { bg_wheat_farms bg_livestock_ranches bg_serpentbloom_farms }
    capped_resources = {
        bg_logging = 1
    }
}

STATE_HOLD_21 = {
    id = 720
    subsistence_building = "building_subsistence_farms"
    provinces = { "xBD4D1E" "xBD4D27" "xBD4D36" "xBD4D3D" "xBD5C36" "xC44D1E" "xC45C36" "xCA5C36" "xCC4D1E" "xD15C36" "xD34D1E" "xD75C36" "xD94D1E" "xDE5C36" "xE14D1E" "xE45C36" "xE8463F" "xE84D1E" "xE8583F" "xE85C1E" "xE8693F" "xE8701E" "xE87B3F" "xE8821E" "xE8913F" "xE8931E" "xE8A51E" "xE8A527" "xE8A52F" "xE8A537" "xE8A53F" "xEB5C36" "xF15C36" "xF5451A" "xF5671A" "xF56736" }
    traits = {}
    city = ""
    farm = ""
    mine = ""
    arable_land = 1
    arable_resources = { bg_wheat_farms bg_livestock_ranches bg_serpentbloom_farms }
    capped_resources = {
        bg_logging = 1
    }
}

STATE_HOLD_22 = {
    id = 721
    subsistence_building = "building_subsistence_farms"
    provinces = { "x14B852" "x14B869" "x14B892" "x14B8A7" "x14C292" "x14D755" "x14E36B" "x28B852" "x28C292" "x3AC292" "x3FB852" "x45CF4A" "x4FC292" "x52DA6A" "x52E585" "x52F0A1" "x54B852" "x59B752" "x5ACF46" "x61C292" "x61D78B" "x64AE77" "x68B460" "x68B852" "x69F0B0" "x6BD092" "x75C292" "x7CAF87" "x7FB852" "x80F0BF" "x89D079" "x8AC292" "x94B852" "x94C252" "x94CF52" "x94DA52" "x94DCBF" "x94E552" "x94E8BF" "x94F052" "x94F069" "x94F080" "x94F095" "x96B852" "x97CAA9" "x97CC79" "x9DC292" "x9FD8AC" "xA9B485" "xA9CA96" "xA9CAA7" "xA9CAA8" "xABC452" "xACB461" "xACB751" "xACBF67" "xACCA83" "xACD69E" "xAFC292" "xBCAE83" "xBCAEAB" "xBCB346" "xBCC946" "xBCC992" }
    traits = {}
    city = ""
    farm = ""
    mine = ""
    arable_land = 1
    arable_resources = { bg_wheat_farms bg_livestock_ranches bg_serpentbloom_farms }
    capped_resources = {
        bg_logging = 1
    }
}

STATE_HOLD_23 = {
    id = 722
    subsistence_building = "building_subsistence_farms"
    provinces = { "x0003F6" "x0300F4" "x0306D4" "x070AC8" "x0B04F0" "x1100FF" "x140CC2" "x161F95" "x1906EA" "x230BD1" "x230DBB" "x250689" "x260793" "x260DB6" "x2611C3" "x27089D" "x2709DD" "x2713B3" "x271C9A" "x271FAF" "x280AAA" "x290BC4" "x290DC4" "x2D0DAF" "x2E09E4" "x3008E9" "x300AC3" "x3114B8" "x320080" "x3311B9" "x3312C5" "x3515D1" "x37189F" "x3914BC" "x391ECB" "x3D0E8B" "x3E0F95" "x3E0FA9" "x3F109D" "x41057F" "x410CE0" "x4112EF" "x4614BA" "x4714BA" "x4B077F" "x4B18A1" "x4C10ED" "x4C13BA" "x4D10ED" "x4D11A3" "x4D1EE7" "x5217EA" "x521EFD" "x560ED5" "x560EDE" "x5710D1" "x5712CE" "x5A129D" "x5B09F7" "x5C0ED0" "x5C179F" "x5D10ED" "x5EA1ED" "x600DBB" "x6214EB" "x6A0BAC" "x6E11EC" "x6F0FB0" "x740DE6" "x751487" "x7709DE" "x7809F3" "x791F8B" "xEDCF5A" }
    traits = {}
    city = ""
    farm = ""
    mine = ""
    arable_land = 1
    arable_resources = { bg_wheat_farms bg_livestock_ranches bg_serpentbloom_farms }
    capped_resources = {
        bg_logging = 1
    }
}

STATE_HOLD_24 = {
    id = 723
    subsistence_building = "building_subsistence_farms"
    provinces = { "x21A557" "x22A068" "x269B7E" "x2C7A57" "x326757" "x33A957" "x366268" "x3A5B80" "x3D77F7" "x4085E5" "x4444C7" "x473FDC" "x5B41DE" "x7043DA" "x76A1D7" }
    traits = {}
    city = ""
    farm = ""
    mine = ""
    arable_land = 1
    arable_resources = { bg_wheat_farms bg_livestock_ranches bg_serpentbloom_farms }
    capped_resources = {
        bg_logging = 1
    }
}

STATE_HOLD_25 = {
    id = 724
    subsistence_building = "building_subsistence_farms"
    provinces = { "x06D2D2" "x06D2DA" "x06D2E7" "x06D2EE" "x06D8E7" "x06E6D3" "x06EDDA" "x0DD2D2" "x0DD8E7" "x12D8E7" "x14D2D2" "x19D8E7" "x19DDF0" "x19E9EF" "x1AD2D2" "x1CCFEF" "x1CD2D2" "x1ED8E7" "x1EE6E5" "x21D0D7" "x21D2D2" "x21E1E7" "x25D8E7" "x26E2EF" "x26E9EF" "x27DEEF" "x28CFF0" "x28D2D2" "x2BD8E7" "x2ECFF0" "x2ED2D2" "x2ED6F0" "x2ED8D2" "x2EDEF0" "x2EE0D2" "x2EE5F0" "x2EE7D2" "x2EEEF0" "x2EEFD2" "x2EEFEA" "x2EF6D2" "x2EF6DA" "x2EF6E1" "x2EF6E8" "x2EF6F0" "x2FD2D2" "x31D8E7" "x33F6E8" "x35DAD2" "x37D8E7" "x3BCBE2" "x3BCBEF" "x3BCFCE" "x3BDDCE" "x3BDDE7" "xDFF2D7" "xED1A07" }
    traits = {}
    city = ""
    farm = ""
    mine = ""
    arable_land = 1
    arable_resources = { bg_wheat_farms bg_livestock_ranches bg_serpentbloom_farms }
    capped_resources = {
        bg_logging = 1
    }
}

STATE_HOLD_26 = {
    id = 725
    subsistence_building = "building_subsistence_farms"
    provinces = { "x00CE70" "x00D890" "x00F4CB" "x00FFE4" "x0CEDC5" "x10C781" "x17ECD4" "x18C792" "x1DCCDE" "x20C89D" "x20E9DE" "x24D5DE" "x25DADB" "x28C1A6" "x2CEAD6" "x32E9E9" "x32EED2" "x33F8C1" "x34C0B6" "x35C4A9" "x35C4B9" "x38C385" "x3FBEC4" "x41D27F" "x43F4CD" "x45E4AF" "x45EDC0" "x49CEFE" "x4AE17A" "x4AEC93" "x4EAEA3" "x4EB5D4" }
    traits = {}
    city = ""
    farm = ""
    mine = ""
    arable_land = 1
    arable_resources = { bg_wheat_farms bg_livestock_ranches bg_serpentbloom_farms }
    capped_resources = {
        bg_logging = 1
    }
}

STATE_HOLD_27 = {
    id = 726
    subsistence_building = "building_subsistence_farms"
    provinces = { "x5510CC" "x6A405F" "x7010D2" "x72655F" "x7F795F" "x8145CC" "x8177D3" "x8187DE" "x8197E8" "x858A5C" "x859451" "x8952C9" "x9697EE" "x9765C9" "xA575C9" "xA92EE3" "xB63EE3" "xBA10EB" "xBC4CE1" "xC875ED" "xD471E7" }
    traits = {}
    city = ""
    farm = ""
    mine = ""
    arable_land = 1
    arable_resources = { bg_wheat_farms bg_livestock_ranches bg_serpentbloom_farms }
    capped_resources = {
        bg_logging = 1
    }
}

STATE_HOLD_28 = {
    id = 727
    subsistence_building = "building_subsistence_farms"
    provinces = { "x7F6695" "x7FB6C8" "x84B2CB" "x8A619C" "x93AED4" "x99C48D" "x9E5CA8" "x9EA399" "x9EA88D" "x9EAC8D" "xA39EA7" "xA447D6" "xA83CE1" "xA87C8D" "xAC9ABA" "xAD698D" "xAFAC8D" "xB137EB" "xB16499" "xB44FB6" "xB490A5" "xB55DA9" "xB69BD2" "xB87AFA" "xBA28FF" "xBA4CC8" "xBA60E1" "xBA87ED" "xBB9CE4" "xBD6EFF" "xBD8FB0" "xBE46D9" "xC191A5" "xC279F1" "xC88EBB" "xCD6CEF" "xCE6CEF" "xCF5EEA" "xD05AB9" "xD070B9" "xD072B9" "xD170C8" "xD185BA" "xD28AC6" "xD386A5" "xDF71D9" "xE02BFF" "xE259F7" "xE841D5" "xEDCE71" "xF06FEE" "xF435C8" "xF657E9" "xFA3DE2" "xFF2ABB" }
    traits = {}
    city = ""
    farm = ""
    mine = ""
    arable_land = 1
    arable_resources = { bg_wheat_farms bg_livestock_ranches bg_serpentbloom_farms }
    capped_resources = {
        bg_logging = 1
    }
}

STATE_HOLD_29 = {
    id = 728
    subsistence_building = "building_subsistence_farms"
    provinces = { "x6587A9" "x6683B2" "x6D7FBD" "x7664A9" "x7E54A9" "x808AA9" "x8450B2" "x8B4BBE" "x8F62FB" "x926DF2" "x937DEA" "x9938E2" "x9D34ED" "xBA35EE" "xD937EC" "xEB76DA" "xED1004" "xED4F0B" "xF150D0" "xF937CD" }
    traits = {}
    city = ""
    farm = ""
    mine = ""
    arable_land = 1
    arable_resources = { bg_wheat_farms bg_livestock_ranches bg_serpentbloom_farms }
    capped_resources = {
        bg_logging = 1
    }
}

STATE_HOLD_30 = {
    id = 729
    subsistence_building = "building_subsistence_farms"
    provinces = { "x0400C5" "x1200D8" "x282B11" "x2A3521" "x2A4E53" "x2B4033" "x2B9257" "x2BD52E" "x2C5374" "x2C5865" "x2D6275" "x304613" "x306451" "x334F73" "x359460" "x3CB936" "x3E9667" "x426B14" "x427D91" "x437347" "x437424" "x447B32" "x459464" "x4B779C" "x4B9874" "x4C5286" "x4C9464" "x528F63" "x549377" "x5677AE" "x58ACB5" "x58E4D5" "x5B5496" "x5D6692" "x5E798B" "x5E8886" "x6244CB" "x6685BA" "x8247C5" "x86329B" }
    traits = {}
    city = ""
    farm = ""
    mine = ""
    arable_land = 1
    arable_resources = { bg_wheat_farms bg_livestock_ranches bg_serpentbloom_farms }
    capped_resources = {
        bg_logging = 1
    }
}

STATE_HOLD_31 = {
    id = 730
    subsistence_building = "building_subsistence_farms"
    provinces = { "x00BA10" "x00C93C" "x00EF8F" "x00FFB3" "x07E976" "x10B71D" "x1DE687" "x37E49B" "x4DE0A9" "x58CBA5" "x75B5B0" "x91B2C9" "xAFBBD6" "xBC8D56" "xBC969B" }
    traits = {}
    city = ""
    farm = ""
    mine = ""
    arable_land = 1
    arable_resources = { bg_wheat_farms bg_livestock_ranches bg_serpentbloom_farms }
    capped_resources = {
        bg_logging = 1
    }
}

STATE_HOLD_32 = {
    id = 731
    subsistence_building = "building_subsistence_farms"
    provinces = { "xC7210B" "xC7210E" "xC72114" "xC72117" "xD22714" "xD72714" "xD9210B" "xDC2714" "xDF210B" "xE22714" "xE5210B" "xEB210B" "xEB270B" "xEB2D18" "xEB300B" "xEB370B" "xEB3F0B" "xEB460B" "xEB460E" "xEB4612" "xEB4614" "xF32714" "xF61D0A" "xF62C0A" "xF62C14" }
    traits = {}
    city = ""
    farm = ""
    mine = ""
    arable_land = 1
    arable_resources = { bg_wheat_farms bg_livestock_ranches bg_serpentbloom_farms }
    capped_resources = {
        bg_logging = 1
    }
}

STATE_HOLD_33 = {
    id = 800
    subsistence_building = "building_subsistence_farms"
    provinces = { "xFF692A" "xFF7337" "xFF7D54" "xFF7E43" "xFF7F55" "xFF8053" "xFF812D" "xFF8247" "xFF8737" "xFF8A26" "xFF961A" "xFF9C0B" "xFF9C30" "xFFA000" "xFFA56A" "xFFAF65" "xFFB100" "xFFC53D" "xFFCA2A" "xFFCC40" "xFFCE19" "xFFD30B" "xFFD700" "xFFDB00" "xFFDD33" "xFFDD34" "xFFDD43" "xFFDE4C" "xFFDF33" "xFFE043" "xFFE836" "xFFE83F" "xFFE958" "xFFEF00" "xFFF363" "xFFF569" "xFFF75A" }
    traits = {}
    city = ""
    farm = ""
    mine = ""
    arable_land = 1
    arable_resources = { bg_wheat_farms bg_livestock_ranches bg_serpentbloom_farms }
    capped_resources = {
        bg_logging = 1
    }
}

STATE_DWAROVAR_3 = {
    id = 732
    subsistence_building = "building_subsistence_farms"
    provinces = { "x105B34" "x374A99" "x379966" "x869971" "x949941" "x993812" "x99532A" "x997264" "x99934A" "x99938F" "xC4A55B" "xEF3169" }
    impassable = { "x374A99" "x997264" "x99532A" "x869971" "x99938F" "x379966" "x993812" "x99934A" "x949941" }
    traits = {}
    city = ""
    farm = ""
    mine = ""
    arable_land = 1
    arable_resources = { bg_wheat_farms bg_livestock_ranches bg_serpentbloom_farms }
    capped_resources = {
        bg_logging = 1
    }
}

STATE_DWAROVAR_4 = {
    id = 733
    subsistence_building = "building_subsistence_farms"
    provinces = { "x9A5C19" "xA25B34" "xEA1B1B" }
    traits = {}
    city = ""
    farm = ""
    mine = ""
    arable_land = 1
    arable_resources = { bg_wheat_farms bg_livestock_ranches bg_serpentbloom_farms }
    capped_resources = {
        bg_logging = 1
    }
}

STATE_DWAROVAR_5 = {
    id = 734
    subsistence_building = "building_subsistence_farms"
    provinces = { "x2B8FC9" "x5E34D5" "xAB436D" }
    traits = {}
    city = ""
    farm = ""
    mine = ""
    arable_land = 1
    arable_resources = { bg_wheat_farms bg_livestock_ranches bg_serpentbloom_farms }
    capped_resources = {
        bg_logging = 1
    }
}

STATE_DWAROVAR_6 = {
    id = 735
    subsistence_building = "building_subsistence_farms"
    provinces = { "x1B9F81" "x8DE11F" }
    traits = {}
    city = ""
    farm = ""
    mine = ""
    arable_land = 1
    arable_resources = { bg_wheat_farms bg_livestock_ranches bg_serpentbloom_farms }
    capped_resources = {
        bg_logging = 1
    }
}

STATE_DWAROVAR_7 = {
    id = 736
    subsistence_building = "building_subsistence_farms"
    provinces = { "x37F617" "xA0D3C6" "xDC3400" "xDEB023" }
    traits = {}
    city = ""
    farm = ""
    mine = ""
    arable_land = 1
    arable_resources = { bg_wheat_farms bg_livestock_ranches bg_serpentbloom_farms }
    capped_resources = {
        bg_logging = 1
    }
}

STATE_DWAROVAR_8 = {
    id = 737
    subsistence_building = "building_subsistence_farms"
    provinces = { "xB59660" "xC83A4E" "xE80B0B" }
    traits = {}
    city = ""
    farm = ""
    mine = ""
    arable_land = 1
    arable_resources = { bg_wheat_farms bg_livestock_ranches bg_serpentbloom_farms }
    capped_resources = {
        bg_logging = 1
    }
}

STATE_DWAROVAR_9 = {
    id = 738
    subsistence_building = "building_subsistence_farms"
    provinces = { "x5B7DDE" "x88308E" "xF315AC" }
    traits = {}
    city = ""
    farm = ""
    mine = ""
    arable_land = 1
    arable_resources = { bg_wheat_farms bg_livestock_ranches bg_serpentbloom_farms }
    capped_resources = {
        bg_logging = 1
    }
}

STATE_DWAROVAR_10 = {
    id = 739
    subsistence_building = "building_subsistence_farms"
    provinces = { "x2219E8" "x473849" "xE5AB21" "xF8F59D" }
    traits = {}
    city = ""
    farm = ""
    mine = ""
    arable_land = 1
    arable_resources = { bg_wheat_farms bg_livestock_ranches bg_serpentbloom_farms }
    capped_resources = {
        bg_logging = 1
    }
}

STATE_DWAROVAR_11 = {
    id = 740
    subsistence_building = "building_subsistence_farms"
    provinces = { "x30C1BF" "x3E4949" "xD3ABC0" "xE7B046" "xFF5ACB" }
    traits = {}
    city = ""
    farm = ""
    mine = ""
    arable_land = 1
    arable_resources = { bg_wheat_farms bg_livestock_ranches bg_serpentbloom_farms }
    capped_resources = {
        bg_logging = 1
    }
}

STATE_DWAROVAR_12 = {
    id = 741
    subsistence_building = "building_subsistence_farms"
    provinces = { "x00B3D3" "x1944D3" "x86C6C0" "xBC6EDC" "xC44A83" "xD31C19" "xE80505" }
    traits = {}
    city = ""
    farm = ""
    mine = ""
    arable_land = 1
    arable_resources = { bg_wheat_farms bg_livestock_ranches bg_serpentbloom_farms }
    capped_resources = {
        bg_logging = 1
    }
}

STATE_DWAROVAR_13 = {
    id = 742
    subsistence_building = "building_subsistence_farms"
    provinces = { "x3A75AB" "xCF0F96" "xD3412E" }
    traits = {}
    city = ""
    farm = ""
    mine = ""
    arable_land = 1
    arable_resources = { bg_wheat_farms bg_livestock_ranches bg_serpentbloom_farms }
    capped_resources = {
        bg_logging = 1
    }
}

STATE_DWAROVAR_14 = {
    id = 743
    subsistence_building = "building_subsistence_farms"
    provinces = { "x2C48A6" "x6138D0" "xB365E5" }
    traits = {}
    city = ""
    farm = ""
    mine = ""
    arable_land = 1
    arable_resources = { bg_wheat_farms bg_livestock_ranches bg_serpentbloom_farms }
    capped_resources = {
        bg_logging = 1
    }
}

STATE_DWAROVAR_15 = {
    id = 744
    subsistence_building = "building_subsistence_farms"
    provinces = { "x098C9F" "x5CD1CF" "xBF288F" "xE12D2D" }
    traits = {}
    city = ""
    farm = ""
    mine = ""
    arable_land = 1
    arable_resources = { bg_wheat_farms bg_livestock_ranches bg_serpentbloom_farms }
    capped_resources = {
        bg_logging = 1
    }
}

STATE_DWAROVAR_16 = {
    id = 745
    subsistence_building = "building_subsistence_farms"
    provinces = { "x9CD1B5" "xB287C1" "xB655D1" "xD16B62" "xDE6C45" "xFA0F64" }
    traits = {}
    city = ""
    farm = ""
    mine = ""
    arable_land = 1
    arable_resources = { bg_wheat_farms bg_livestock_ranches bg_serpentbloom_farms }
    capped_resources = {
        bg_logging = 1
    }
}

STATE_DWAROVAR_17 = {
    id = 746
    subsistence_building = "building_subsistence_farms"
    provinces = { "x6886D1" "x7C1696" "x8CD717" "xA4EA35" "xB0D183" "xC4D1BE" "xD1744D" "xD18C3E" "xD1CB98" }
    traits = {}
    city = ""
    farm = ""
    mine = ""
    arable_land = 1
    arable_resources = { bg_wheat_farms bg_livestock_ranches bg_serpentbloom_farms }
    capped_resources = {
        bg_logging = 1
    }
}

STATE_DWAROVAR_18 = {
    id = 747
    subsistence_building = "building_subsistence_farms"
    provinces = { "x49690C" "x7084BF" "x8B35CD" "x90D1B3" "xAFD1C1" "xB4D173" "xD14B6C" "xD15C51" "xD198A8" "xEF2139" }
    traits = {}
    city = ""
    farm = ""
    mine = ""
    arable_land = 1
    arable_resources = { bg_wheat_farms bg_livestock_ranches bg_serpentbloom_farms }
    capped_resources = {
        bg_logging = 1
    }
}

STATE_DWAROVAR_19 = {
    id = 748
    subsistence_building = "building_subsistence_farms"
    provinces = { "x319B63" "xC81375" "xD16100" "xEACC96" }
    traits = {}
    city = ""
    farm = ""
    mine = ""
    arable_land = 1
    arable_resources = { bg_wheat_farms bg_livestock_ranches bg_serpentbloom_farms }
    capped_resources = {
        bg_logging = 1
    }
}

STATE_DWAROVAR_20 = {
    id = 749
    subsistence_building = "building_subsistence_farms"
    provinces = { "xCEE3A9" "xD1596F" "xDFEC49" "xF10F0F" }
    traits = {}
    city = ""
    farm = ""
    mine = ""
    arable_land = 1
    arable_resources = { bg_wheat_farms bg_livestock_ranches bg_serpentbloom_farms }
    capped_resources = {
        bg_logging = 1
    }
}

STATE_DWAROVAR_21 = {
    id = 750
    subsistence_building = "building_subsistence_farms"
    provinces = { "x58A3D7" "xC0DB0A" "xFFEFA3" }
    traits = {}
    city = ""
    farm = ""
    mine = ""
    arable_land = 1
    arable_resources = { bg_wheat_farms bg_livestock_ranches bg_serpentbloom_farms }
    capped_resources = {
        bg_logging = 1
    }
}

STATE_DWAROVAR_22 = {
    id = 751
    subsistence_building = "building_subsistence_farms"
    provinces = { "x59E124" "x79E165" "xD0D547" }
    traits = {}
    city = ""
    farm = ""
    mine = ""
    arable_land = 1
    arable_resources = { bg_wheat_farms bg_livestock_ranches bg_serpentbloom_farms }
    capped_resources = {
        bg_logging = 1
    }
}

STATE_DWAROVAR_23 = {
    id = 752
    subsistence_building = "building_subsistence_farms"
    provinces = { "x0664D1" "x2D7439" "xD1BEA3" "xDB543A" }
    traits = {}
    city = ""
    farm = ""
    mine = ""
    arable_land = 1
    arable_resources = { bg_wheat_farms bg_livestock_ranches bg_serpentbloom_farms }
    capped_resources = {
        bg_logging = 1
    }
}

STATE_DWAROVAR_24 = {
    id = 753
    subsistence_building = "building_subsistence_farms"
    provinces = { "x1D3B9F" "x6B79BF" }
    traits = {}
    city = ""
    farm = ""
    mine = ""
    arable_land = 1
    arable_resources = { bg_wheat_farms bg_livestock_ranches bg_serpentbloom_farms }
    capped_resources = {
        bg_logging = 1
    }
}

STATE_DWAROVAR_25 = {
    id = 754
    subsistence_building = "building_subsistence_farms"
    provinces = { "x46E036" "xDCFB2F" "xE08636" }
    traits = {}
    city = ""
    farm = ""
    mine = ""
    arable_land = 1
    arable_resources = { bg_wheat_farms bg_livestock_ranches bg_serpentbloom_farms }
    capped_resources = {
        bg_logging = 1
    }
}

STATE_DWAROVAR_26 = {
    id = 755
    subsistence_building = "building_subsistence_farms"
    provinces = { "x2A48C9" "x79A2D0" }
    traits = {}
    city = ""
    farm = ""
    mine = ""
    arable_land = 1
    arable_resources = { bg_wheat_farms bg_livestock_ranches bg_serpentbloom_farms }
    capped_resources = {
        bg_logging = 1
    }
}

STATE_DWAROVAR_27 = {
    id = 756
    subsistence_building = "building_subsistence_farms"
    provinces = { "x4FA02F" "xC9F489" "xDB1A10" "xE2F4B2" "xED2A0A" "xF2E4D2" "xF4C133" }
    traits = {}
    city = ""
    farm = ""
    mine = ""
    arable_land = 1
    arable_resources = { bg_wheat_farms bg_livestock_ranches bg_serpentbloom_farms }
    capped_resources = {
        bg_logging = 1
    }
}

STATE_DWAROVAR_28 = {
    id = 757
    subsistence_building = "building_subsistence_farms"
    provinces = { "x0DAC2F" "x3C44DB" "xEBF26A" "xF27D59" "xF28EA4" }
    traits = {}
    city = ""
    farm = ""
    mine = ""
    arable_land = 1
    arable_resources = { bg_wheat_farms bg_livestock_ranches bg_serpentbloom_farms }
    capped_resources = {
        bg_logging = 1
    }
}

STATE_DWAROVAR_29 = {
    id = 758
    subsistence_building = "building_subsistence_farms"
    provinces = { "xB17331" "xD75093" "xD95ACC" }
    traits = {}
    city = ""
    farm = ""
    mine = ""
    arable_land = 1
    arable_resources = { bg_wheat_farms bg_livestock_ranches bg_serpentbloom_farms }
    capped_resources = {
        bg_logging = 1
    }
}

STATE_DWAROVAR_30 = {
    id = 759
    subsistence_building = "building_subsistence_farms"
    provinces = { "x65C823" "xB82CDB" }
    traits = {}
    city = ""
    farm = ""
    mine = ""
    arable_land = 1
    arable_resources = { bg_wheat_farms bg_livestock_ranches bg_serpentbloom_farms }
    capped_resources = {
        bg_logging = 1
    }
}

STATE_DWAROVAR_31 = {
    id = 760
    subsistence_building = "building_subsistence_farms"
    provinces = { "x3358C4" "x6C50D5" "x6C8C17" }
    traits = {}
    city = ""
    farm = ""
    mine = ""
    arable_land = 1
    arable_resources = { bg_wheat_farms bg_livestock_ranches bg_serpentbloom_farms }
    capped_resources = {
        bg_logging = 1
    }
}

STATE_DWAROVAR_32 = {
    id = 761
    subsistence_building = "building_subsistence_farms"
    provinces = { "x32BFC8" "x65E021" "xE7B814" }
    traits = {}
    city = ""
    farm = ""
    mine = ""
    arable_land = 1
    arable_resources = { bg_wheat_farms bg_livestock_ranches bg_serpentbloom_farms }
    capped_resources = {
        bg_logging = 1
    }
}

STATE_DWAROVAR_33 = {
    id = 762
    subsistence_building = "building_subsistence_farms"
    provinces = { "x67A06C" "x77D496" "x9D7CD5" "xE0EDD7" }
    traits = {}
    city = ""
    farm = ""
    mine = ""
    arable_land = 1
    arable_resources = { bg_wheat_farms bg_livestock_ranches bg_serpentbloom_farms }
    capped_resources = {
        bg_logging = 1
    }
}

STATE_DWAROVAR_34 = {
    id = 763
    subsistence_building = "building_subsistence_farms"
    provinces = { "x23E030" "x915586" "x93EDD6" "xA57BED" "xDBD94C" "xED6A50" "xED9C71" "xEDCB89" "xEDDB3B" }
    traits = {}
    city = ""
    farm = ""
    mine = ""
    arable_land = 1
    arable_resources = { bg_wheat_farms bg_livestock_ranches bg_serpentbloom_farms }
    capped_resources = {
        bg_logging = 1
    }
}

STATE_DWAROVAR_35 = {
    id = 764
    subsistence_building = "building_subsistence_farms"
    provinces = { "x4585EF" "x85270A" "x98B6C9" "xAA7280" "xC7E7ED" "xED4C77" "xEFE145" }
    traits = {}
    city = ""
    farm = ""
    mine = ""
    arable_land = 1
    arable_resources = { bg_wheat_farms bg_livestock_ranches bg_serpentbloom_farms }
    capped_resources = {
        bg_logging = 1
    }
}

STATE_DWAROVAR_36 = {
    id = 765
    subsistence_building = "building_subsistence_farms"
    provinces = { "x8DDCAC" "x991ED2" "xD71E70" }
    traits = {}
    city = ""
    farm = ""
    mine = ""
    arable_land = 1
    arable_resources = { bg_wheat_farms bg_livestock_ranches bg_serpentbloom_farms }
    capped_resources = {
        bg_logging = 1
    }
}

STATE_DWAROVAR_37 = {
    id = 766
    subsistence_building = "building_subsistence_farms"
    provinces = { "x0FF1F4" "x2E27C3" "x53A7BC" "xDE1111" "xED5E6F" "xF28CD0" }
    traits = {}
    city = ""
    farm = ""
    mine = ""
    arable_land = 1
    arable_resources = { bg_wheat_farms bg_livestock_ranches bg_serpentbloom_farms }
    capped_resources = {
        bg_logging = 1
    }
}

STATE_DWAROVAR_38 = {
    id = 767
    subsistence_building = "building_subsistence_farms"
    provinces = { "x2C8E2E" "x2C985F" "xD76767" }
    traits = {}
    city = ""
    farm = ""
    mine = ""
    arable_land = 1
    arable_resources = { bg_wheat_farms bg_livestock_ranches bg_serpentbloom_farms }
    capped_resources = {
        bg_logging = 1
    }
}

STATE_DWAROVAR_39 = {
    id = 768
    subsistence_building = "building_subsistence_farms"
    provinces = { "x09A985" "x4FB551" "xC9923A" }
    traits = {}
    city = ""
    farm = ""
    mine = ""
    arable_land = 1
    arable_resources = { bg_wheat_farms bg_livestock_ranches bg_serpentbloom_farms }
    capped_resources = {
        bg_logging = 1
    }
}

STATE_DWAROVAR_40 = {
    id = 769
    subsistence_building = "building_subsistence_farms"
    provinces = { "x1FE324" "xA6325E" "xAB0D36" }
    traits = {}
    city = ""
    farm = ""
    mine = ""
    arable_land = 1
    arable_resources = { bg_wheat_farms bg_livestock_ranches bg_serpentbloom_farms }
    capped_resources = {
        bg_logging = 1
    }
}

STATE_DWAROVAR_41 = {
    id = 770
    subsistence_building = "building_subsistence_farms"
    provinces = { "x6320C8" "x9FC893" "xE74E0A" "xED2210" "xED9C8E" }
    traits = {}
    city = ""
    farm = ""
    mine = ""
    arable_land = 1
    arable_resources = { bg_wheat_farms bg_livestock_ranches bg_serpentbloom_farms }
    capped_resources = {
        bg_logging = 1
    }
}

STATE_DWAROVAR_42 = {
    id = 771
    subsistence_building = "building_subsistence_farms"
    provinces = { "x0D5E6D" "x443BEF" "xD5C510" "xE0ED8B" "xE1CD24" "xEDA553" }
    traits = {}
    city = ""
    farm = ""
    mine = ""
    arable_land = 1
    arable_resources = { bg_wheat_farms bg_livestock_ranches bg_serpentbloom_farms }
    capped_resources = {
        bg_logging = 1
    }
}

STATE_DWAROVAR_43 = {
    id = 772
    subsistence_building = "building_subsistence_farms"
    provinces = { "x756DC9" "xB86F6F" "xD22A2A" }
    traits = {}
    city = ""
    farm = ""
    mine = ""
    arable_land = 1
    arable_resources = { bg_wheat_farms bg_livestock_ranches bg_serpentbloom_farms }
    capped_resources = {
        bg_logging = 1
    }
}

STATE_DWAROVAR_44 = {
    id = 773
    subsistence_building = "building_subsistence_farms"
    provinces = { "x45194B" "x76B07B" "x86B18D" "x879B69" }
    traits = {}
    city = ""
    farm = ""
    mine = ""
    arable_land = 1
    arable_resources = { bg_wheat_farms bg_livestock_ranches bg_serpentbloom_farms }
    capped_resources = {
        bg_logging = 1
    }
}

STATE_DWAROVAR_45 = {
    id = 774
    subsistence_building = "building_subsistence_farms"
    provinces = { "xE8B837" "xEB9F21" }
    traits = {}
    city = ""
    farm = ""
    mine = ""
    arable_land = 1
    arable_resources = { bg_wheat_farms bg_livestock_ranches bg_serpentbloom_farms }
    capped_resources = {
        bg_logging = 1
    }
}

STATE_DWAROVAR_46 = {
    id = 775
    subsistence_building = "building_subsistence_farms"
    provinces = { "x33AC6C" "x7C3C56" "x9F4949" }
    traits = {}
    city = ""
    farm = ""
    mine = ""
    arable_land = 1
    arable_resources = { bg_wheat_farms bg_livestock_ranches bg_serpentbloom_farms }
    capped_resources = {
        bg_logging = 1
    }
}

STATE_DWAROVAR_47 = {
    id = 776
    subsistence_building = "building_subsistence_farms"
    provinces = { "x3F801B" "x634DC3" "xA3B752" }
    traits = {}
    city = ""
    farm = ""
    mine = ""
    arable_land = 1
    arable_resources = { bg_wheat_farms bg_livestock_ranches bg_serpentbloom_farms }
    capped_resources = {
        bg_logging = 1
    }
}

STATE_DWAROVAR_48 = {
    id = 777
    subsistence_building = "building_subsistence_farms"
    provinces = { "xB9E328" "xC353BF" "xC9A71D" }
    traits = {}
    city = ""
    farm = ""
    mine = ""
    arable_land = 1
    arable_resources = { bg_wheat_farms bg_livestock_ranches bg_serpentbloom_farms }
    capped_resources = {
        bg_logging = 1
    }
}

STATE_DWAROVAR_49 = {
    id = 778
    subsistence_building = "building_subsistence_farms"
    provinces = { "x69C339" }
    traits = {}
    city = ""
    farm = ""
    mine = ""
    arable_land = 1
    arable_resources = { bg_wheat_farms bg_livestock_ranches bg_serpentbloom_farms }
    capped_resources = {
        bg_logging = 1
    }
}

STATE_DWAROVAR_50 = {
    id = 779
    subsistence_building = "building_subsistence_farms"
    provinces = { "x000799" "x4F996E" "x74E09E" "x99215D" "x993076" "x997358" "xA56D45" "xE00F28" "xEA3D45" "xEA8245" }
    impassable = { "xE00F28" }
    traits = {}
    city = ""
    farm = ""
    mine = ""
    arable_land = 1
    arable_resources = { bg_wheat_farms bg_livestock_ranches bg_serpentbloom_farms }
    capped_resources = {
        bg_logging = 1
    }
}

STATE_DWAROVAR_51 = {
    id = 780
    subsistence_building = "building_subsistence_farms"
    provinces = { "x2A5A99" "x6C7199" "x859499" "x8BC017" "x959997" "x992342" "x992D33" "x993D2F" "x994D49" "x994E18" "xAFB1E0" "xC60C94" "xDC6017" "xDC9017" "xE1F820" "xE8C522" "xED2C00" }
    impassable = { "x993D2F" "x6C7199" "x959997" "x994D49" "x994E18" "x992342" "x859499" "x2A5A99" }
    traits = {}
    city = ""
    farm = ""
    mine = ""
    arable_land = 1
    arable_resources = { bg_wheat_farms bg_livestock_ranches bg_serpentbloom_farms }
    capped_resources = {
        bg_logging = 1
    }
}

STATE_DWAROVAR_52 = {
    id = 781
    subsistence_building = "building_subsistence_farms"
    provinces = { "x2AE76C" "x593D4E" "xC80FC8" "xD12E54" "xD1351D" "xD20F64" }
    traits = {}
    city = ""
    farm = ""
    mine = ""
    arable_land = 1
    arable_resources = { bg_wheat_farms bg_livestock_ranches bg_serpentbloom_farms }
    capped_resources = {
        bg_logging = 1
    }
}

STATE_DWAROVAR_53 = {
    id = 782
    subsistence_building = "building_subsistence_farms"
    provinces = { "x2B2EA7" "x397023" "x3A9976" "x558399" "x992100" "x993730" "x99481D" "x99904C" "xB40F96" "xDB9FB7" "xE0642A" "xEFC092" }
    impassable = { "x992100" "x2B2EA7" "x99904C" "x99481D" "x3A9976" "x993730" "x993730" }
    traits = {}
    city = ""
    farm = ""
    mine = ""
    arable_land = 1
    arable_resources = { bg_wheat_farms bg_livestock_ranches bg_serpentbloom_farms }
    capped_resources = {
        bg_logging = 1
    }
}

STATE_DWAROVAR_54 = {
    id = 783
    subsistence_building = "building_subsistence_farms"
    provinces = { "x21DC1C" "x2C7B2A" "x2D1399" "x3E5099" "x6ABD68" "x8255AC" "x996E2D" "xD3ADCD" "xE0B87F" }
    traits = {}
    city = ""
    farm = ""
    mine = ""
    arable_land = 1
    arable_resources = { bg_wheat_farms bg_livestock_ranches bg_serpentbloom_farms }
    capped_resources = {
        bg_logging = 1
    }
}

STATE_DWAROVAR_55 = {
    id = 784
    subsistence_building = "building_subsistence_farms"
    provinces = { "x1D9982" "x7A9BC2" "x7B7FD0" "x839199" "x991219" "xA97F4D" "xD30066" "xD31F00" "xD3305C" "xD39783" "xD3B1B6" "xD3B38D" "xD3BC78" "xD3D134" "xE1509F" }
    traits = {}
    city = ""
    farm = ""
    mine = ""
    arable_land = 1
    arable_resources = { bg_wheat_farms bg_livestock_ranches bg_serpentbloom_farms }
    capped_resources = {
        bg_logging = 1
    }
}

STATE_DWAROVAR_56 = {
    id = 785
    subsistence_building = "building_subsistence_farms"
    provinces = { "x2E2ED3" "x67D39B" "x7671C4" "x85D53E" "x8DC187" "xBBCBAD" "xD3AE28" }
    traits = {}
    city = ""
    farm = ""
    mine = ""
    arable_land = 1
    arable_resources = { bg_wheat_farms bg_livestock_ranches bg_serpentbloom_farms }
    capped_resources = {
        bg_logging = 1
    }
}

STATE_DWAROVAR_57 = {
    id = 786
    subsistence_building = "building_subsistence_farms"
    provinces = { "x1EBC35" "x4E7E3C" "x5EB2D1" "x7878D3" "xC47540" "xCBD3D1" "xD13032" "xD398BA" "xD71149" "xD7C484" }
    traits = {}
    city = ""
    farm = ""
    mine = ""
    arable_land = 1
    arable_resources = { bg_wheat_farms bg_livestock_ranches bg_serpentbloom_farms }
    capped_resources = {
        bg_logging = 1
    }
}

STATE_DWAROVAR_58 = {
    id = 787
    subsistence_building = "building_subsistence_farms"
    provinces = { "x0A4399" "x129994" "x265315" "x2D3199" "x43998F" "x4C9969" "x578399" "x64C93D" "x769951" "x769960" "x85E079" "x8EB9BA" "x991100" "x993E1D" "x993F18" "x994F3B" "x996137" "x996B8D" "x99802D" "x998E60" "xA94A20" "xD9A62B" "xEAE4AE" "xF46120" }
    impassable = { "x993E1D" "x99802D" "x993F18" "x578399" "x998E60" "x994F3B" "x0A4399" "x43998F" "x991100" "x769960" "x4C9969" "x996137" "x769951" "x129994" }
    traits = {}
    city = ""
    farm = ""
    mine = ""
    arable_land = 1
    arable_resources = { bg_wheat_farms bg_livestock_ranches bg_serpentbloom_farms }
    capped_resources = {
        bg_logging = 1
    }
}

STATE_DWAROVAR_59 = {
    id = 788
    subsistence_building = "building_subsistence_farms"
    provinces = { "x2163D3" "x4119D3" "x70D1D3" "x7EC6D3" "xB4D4B4" "xBFC49B" "xD3B085" "xDE2F60" "xDE97C8" }
    traits = {}
    city = ""
    farm = ""
    mine = ""
    arable_land = 1
    arable_resources = { bg_wheat_farms bg_livestock_ranches bg_serpentbloom_farms }
    capped_resources = {
        bg_logging = 1
    }
}

STATE_DWAROVAR_60 = {
    id = 789
    subsistence_building = "building_subsistence_farms"
    provinces = { "x1D2FD3" "x39D02A" "x3A004A" "x9197D4" "x9AC7D3" "xAC7620" "xCBA05D" "xD36504" "xD36D00" "xD3748D" "xD39658" "xD3B79E" }
    traits = {}
    city = ""
    farm = ""
    mine = ""
    arable_land = 1
    arable_resources = { bg_wheat_farms bg_livestock_ranches bg_serpentbloom_farms }
    capped_resources = {
        bg_logging = 1
    }
}

STATE_DWAROVAR_61 = {
    id = 790
    subsistence_building = "building_subsistence_farms"
    provinces = { "x2EAEB0" "x3051D3" "x9BB84A" "xC4120F" "xCF2A13" "xD34A5A" "xD3A937" "xD3C198" "xDE452C" }
    traits = {}
    city = ""
    farm = ""
    mine = ""
    arable_land = 1
    arable_resources = { bg_wheat_farms bg_livestock_ranches bg_serpentbloom_farms }
    capped_resources = {
        bg_logging = 1
    }
}

STATE_DWAROVAR_62 = {
    id = 791
    subsistence_building = "building_subsistence_farms"
    provinces = { "x282E0A" "x52CBD3" "x60C4A4" "x6999D3" "x7A3D69" "xA9D38F" "xCCD37A" "xDC4ECA" }
    traits = {}
    city = ""
    farm = ""
    mine = ""
    arable_land = 1
    arable_resources = { bg_wheat_farms bg_livestock_ranches bg_serpentbloom_farms }
    capped_resources = {
        bg_logging = 1
    }
}

STATE_DWAROVAR_63 = {
    id = 792
    subsistence_building = "building_subsistence_farms"
    provinces = { "x1C8687" "x79D363" "x99340C" "x993558" "x997484" "x998F0F" "xBFB8D3" "xC1004A" "xCBD354" "xD07189" "xD2A435" "xD3322C" }
    traits = {}
    city = ""
    farm = ""
    mine = ""
    arable_land = 1
    arable_resources = { bg_wheat_farms bg_livestock_ranches bg_serpentbloom_farms }
    capped_resources = {
        bg_logging = 1
    }
}

STATE_DWAROVAR_64 = {
    id = 793
    subsistence_building = "building_subsistence_farms"
    provinces = { "x359824" "x5688D3" "x76D37E" "x914C88" "xA3CFD1" "xA8BF95" "xADD1C9" "xBF5989" "xBF752E" "xC3B8C4" "xCF0FAF" "xD3201D" "xD3303B" "xD3C4D1" }
    traits = {}
    city = ""
    farm = ""
    mine = ""
    arable_land = 1
    arable_resources = { bg_wheat_farms bg_livestock_ranches bg_serpentbloom_farms }
    capped_resources = {
        bg_logging = 1
    }
}

STATE_DWAROVAR_65 = {
    id = 794
    subsistence_building = "building_subsistence_farms"
    provinces = { "x1CBF46" "x30EDF4" "x61B11A" "x6890D1" "xAB4DD1" "xB57130" "xC259A4" "xCFCD25" "xD14D36" "xD14D84" "xD17636" "xD17784" "xD181BF" "xD1B379" "xDB2CC4" "xE37D1A" }
    traits = {}
    city = ""
    farm = ""
    mine = ""
    arable_land = 1
    arable_resources = { bg_wheat_farms bg_livestock_ranches bg_serpentbloom_farms }
    capped_resources = {
        bg_logging = 1
    }
}

STATE_DWAROVAR_66 = {
    id = 795
    subsistence_building = "building_subsistence_farms"
    provinces = { "xA694D1" "xBC4631" "xC1845B" "xD17668" "xE60FAF" "xF00FC8" }
    traits = {}
    city = ""
    farm = ""
    mine = ""
    arable_land = 1
    arable_resources = { bg_wheat_farms bg_livestock_ranches bg_serpentbloom_farms }
    capped_resources = {
        bg_logging = 1
    }
}

STATE_DWAROVAR_67 = {
    id = 796
    subsistence_building = "building_subsistence_farms"
    provinces = { "x0C95BC" "x131616" "x8C56D3" "x9B3D4F" "xA389C1" "xA7BA24" "xB987E0" "xC93655" "xD102BC" "xD1349A" "xD14B51" "xD17300" "xD30003" "xD32338" "xD35B95" "xD3A467" "xD96C81" "xDE91A1" "xEC4E00" }
    traits = {}
    city = ""
    farm = ""
    mine = ""
    arable_land = 1
    arable_resources = { bg_wheat_farms bg_livestock_ranches bg_serpentbloom_farms }
    capped_resources = {
        bg_logging = 1
    }
}

STATE_DWAROVAR_68 = {
    id = 797
    subsistence_building = "building_subsistence_farms"
    provinces = { "x20DAAD" "x3429D1" "x3DC97B" "x44E11A" "x559BD1" "x5D94C1" "x7255D1" "x81D1AD" "x8D66D1" "x92C6D9" "xC468BF" "xD14627" "xD16557" "xD170C1" "xD18F59" "xD1C6CE" "xD1CFCF" "xE54737" "xEF2151" "xF1F914" "xFF853B" }
    traits = {}
    city = ""
    farm = ""
    mine = ""
    arable_land = 1
    arable_resources = { bg_wheat_farms bg_livestock_ranches bg_serpentbloom_farms }
    capped_resources = {
        bg_logging = 1
    }
}

STATE_DWAROVAR_69 = {
    id = 798
    subsistence_building = "building_subsistence_farms"
    provinces = { "x1DD165" "x20FBD4" "x34FD25" "x4BA9D9" "x584DD1" "x62A4D1" "x72C1B9" "x7DCAD1" "xA5C162" "xAFD17D" "xC1956C" "xCD1717" "xD1044F" "xD12156" "xD1542E" "xD15578" "xD1A14F" "xD1BA81" "xE79A05" "xF30145" "xF9F001" }
    traits = {}
    city = ""
    farm = ""
    mine = ""
    arable_land = 1
    arable_resources = { bg_wheat_farms bg_livestock_ranches bg_serpentbloom_farms }
    capped_resources = {
        bg_logging = 1
    }
}

STATE_DWAROVAR_70 = {
    id = 799
    subsistence_building = "building_subsistence_farms"
    provinces = { "x2C34C9" "x42D1CE" "x48C633" "x4D4FD1" "x63CCEA" "x68D1B5" "x79D19F" "x91A5B1" "x969BD1" "x969F2F" "xAA9AD1" "xC1B295" "xD1103D" "xD1781F" "xD1A290" "xD1B575" "xD1D0C8" "xDC1E6A" "xE38735" "xE3A437" "xEC3974" "xECDC74" "xF81313" "xF8E788" }
    traits = {}
    city = ""
    farm = ""
    mine = ""
    arable_land = 1
    arable_resources = { bg_wheat_farms bg_livestock_ranches bg_serpentbloom_farms }
    capped_resources = {
        bg_logging = 1
    }
}

STATE_DWAROVAR_71 = {
    id = 801
    subsistence_building = "building_subsistence_farms"
    provinces = { "x6F90F5" "xA05B84" "xB9F1CA" }
    traits = {}
    city = ""
    farm = ""
    mine = ""
    arable_land = 1
    arable_resources = { bg_wheat_farms bg_livestock_ranches bg_serpentbloom_farms }
    capped_resources = {
        bg_logging = 1
    }
}

STATE_DWAROVAR_72 = {
    id = 802
    subsistence_building = "building_subsistence_farms"
    provinces = { "x2B6A2B" "x35A435" "xC6DB39" "xD2CD44" "xE33636" }
    traits = {}
    city = ""
    farm = ""
    mine = ""
    arable_land = 1
    arable_resources = { bg_wheat_farms bg_livestock_ranches bg_serpentbloom_farms }
    capped_resources = {
        bg_logging = 1
    }
}

STATE_DWAROVAR_73 = {
    id = 803
    subsistence_building = "building_subsistence_farms"
    provinces = { "x369D4C" "x719900" "x75961A" "x7FBA62" "x96D54C" "xC9BFA9" "xD00AA8" }
    traits = {}
    city = ""
    farm = ""
    mine = ""
    arable_land = 1
    arable_resources = { bg_wheat_farms bg_livestock_ranches bg_serpentbloom_farms }
    capped_resources = {
        bg_logging = 1
    }
}

STATE_DWAROVAR_74 = {
    id = 804
    subsistence_building = "building_subsistence_farms"
    provinces = { "x3AA56C" "x5CF259" "x696040" "x7080A5" "x70A5A2" "x81A4A5" "x87A552" "x9F7BF2" "xA5423B" "xBCC838" "xC32C8C" "xC3F2B8" "xCD8AF2" "xD2C4F2" "xF2C5B0" "xF2EC43" "xF4E6C6" }
    traits = {}
    city = ""
    farm = ""
    mine = ""
    arable_land = 1
    arable_resources = { bg_wheat_farms bg_livestock_ranches bg_serpentbloom_farms }
    capped_resources = {
        bg_logging = 1
    }
}

STATE_DWAROVAR_75 = {
    id = 805
    subsistence_building = "building_subsistence_farms"
    provinces = { "x16647B" "x1A3553" "x52E1B0" "x57DC73" "xCDF2C6" "xD9ADC7" "xDBD935" "xE3C4F2" "xED1C68" "xEDC9CE" "xF21A02" "xF21A33" "xF22933" "xF29430" "xF2A363" "xF2D882" }
    traits = {}
    city = ""
    farm = ""
    mine = ""
    arable_land = 1
    arable_resources = { bg_wheat_farms bg_livestock_ranches bg_serpentbloom_farms }
    capped_resources = {
        bg_logging = 1
    }
}

STATE_DWAROVAR_76 = {
    id = 806
    subsistence_building = "building_subsistence_farms"
    provinces = { "x20726F" "x4A8F4D" "x5EF2ED" "x713AF2" "x76B0F2" "x7873CF" "x8AF2D4" "xD7F2EB" "xDC9ED1" "xEADCEF" "xEDF2F0" "xEF0A0A" "xF2441D" "xF2664B" "xF26C6A" "xF2AF79" }
    traits = {}
    city = ""
    farm = ""
    mine = ""
    arable_land = 1
    arable_resources = { bg_wheat_farms bg_livestock_ranches bg_serpentbloom_farms }
    capped_resources = {
        bg_logging = 1
    }
}

STATE_DWAROVAR_77 = {
    id = 807
    subsistence_building = "building_subsistence_farms"
    provinces = { "x09F2CB" "x4F3AF2" "x80ED8C" "x8C0F96" "x9CEDBC" "x9EBA2C" "xA00FC8" "xAA0F64" "xBC3C73" "xBCA15E" "xC50F64" "xC50F96" "xC9EDE0" "xCF0F64" "xCF0FC8" "xD53C5D" "xDDEDDA" "xE77F2B" "xED234B" "xED5421" "xED5F55" "xEDBF36" "xEDE980" "xEDEA44" "xF20075" "xF21D20" "xF29287" }
    traits = {}
    city = ""
    farm = ""
    mine = ""
    arable_land = 1
    arable_resources = { bg_wheat_farms bg_livestock_ranches bg_serpentbloom_farms }
    capped_resources = {
        bg_logging = 1
    }
}

STATE_DWAROVAR_78 = {
    id = 808
    subsistence_building = "building_subsistence_farms"
    provinces = { "x2C7189" "x325190" "x347919" "x60C919" "x687CED" "x752A29" "x86ED84" "x94902E" "xB49DF2" "xCBEBED" "xD0E4F2" "xD17302" "xED2859" "xED3F28" "xED4977" "xED6238" "xED6381" "xED84A9" "xEDAA47" "xEDB47B" "xEDC376" "xEFA9F2" }
    traits = {}
    city = ""
    farm = ""
    mine = ""
    arable_land = 1
    arable_resources = { bg_wheat_farms bg_livestock_ranches bg_serpentbloom_farms }
    capped_resources = {
        bg_logging = 1
    }
}

STATE_DWAROVAR_79 = {
    id = 809
    subsistence_building = "building_subsistence_farms"
    provinces = { "x436BB3" "x43BF18" "x5BC421" "x8471ED" "x9E85F2" "xB4EDBF" "xC6C55F" "xD1E33B" "xD2B336" "xD78018" "xDB1758" "xEBEDB8" "xED2F0E" "xED8BD4" "xEDCBC7" "xEDD1CE" }
    traits = {}
    city = ""
    farm = ""
    mine = ""
    arable_land = 1
    arable_resources = { bg_wheat_farms bg_livestock_ranches bg_serpentbloom_farms }
    capped_resources = {
        bg_logging = 1
    }
}

STATE_DWAROVAR_80 = {
    id = 810
    subsistence_building = "building_subsistence_farms"
    provinces = { "x1FD25A" "x354CB0" "x35C8C3" "x5A90ED" "xC7F2A2" "xD6E718" "xED4836" "xED9B4E" "xEDE2D5" "xFF0E3B" }
    traits = {}
    city = ""
    farm = ""
    mine = ""
    arable_land = 1
    arable_resources = { bg_wheat_farms bg_livestock_ranches bg_serpentbloom_farms }
    capped_resources = {
        bg_logging = 1
    }
}

STATE_DWAROVAR_81 = {
    id = 811
    subsistence_building = "building_subsistence_farms"
    provinces = { "x314DED" "x53CB56" "x5642ED" "x9CEDCA" "xB57C7C" "xBAF492" "xBBD00A" "xC85C14" "xD53838" "xE01826" "xED1E36" "xED9557" "xEDB368" "xEDB46C" "xEDB8D8" "xEDBC80" "xEDEAE8" "xF246D2" }
    traits = {}
    city = ""
    farm = ""
    mine = ""
    arable_land = 1
    arable_resources = { bg_wheat_farms bg_livestock_ranches bg_serpentbloom_farms }
    capped_resources = {
        bg_logging = 1
    }
}

STATE_DWAROVAR_82 = {
    id = 812
    subsistence_building = "building_subsistence_farms"
    provinces = { "x453BC8" "x7F54A4" "xED3E09" "xED8342" "xEF8A37" }
    traits = {}
    city = ""
    farm = ""
    mine = ""
    arable_land = 1
    arable_resources = { bg_wheat_farms bg_livestock_ranches bg_serpentbloom_farms }
    capped_resources = {
        bg_logging = 1
    }
}

STATE_DWAROVAR_83 = {
    id = 813
    subsistence_building = "building_subsistence_farms"
    provinces = { "x30A733" "x46C646" "x4BED66" "x743EB7" "x969229" "xAB0BEF" "xC7EDEB" "xD44F9A" "xED0007" "xED6F79" "xED8F84" "xEDDA80" }
    traits = {}
    city = ""
    farm = ""
    mine = ""
    arable_land = 1
    arable_resources = { bg_wheat_farms bg_livestock_ranches bg_serpentbloom_farms }
    capped_resources = {
        bg_logging = 1
    }
}

STATE_DWAROVAR_84 = {
    id = 814
    subsistence_building = "building_subsistence_farms"
    provinces = { "x11C38A" "x4FB81B" "x977DED" "xA8DB20" "xD2F0F2" "xED406B" "xED5A55" "xEDB942" "xEDC6EF" "xEDD731" }
    traits = {}
    city = ""
    farm = ""
    mine = ""
    arable_land = 1
    arable_resources = { bg_wheat_farms bg_livestock_ranches bg_serpentbloom_farms }
    capped_resources = {
        bg_logging = 1
    }
}

STATE_DWAROVAR_85 = {
    id = 815
    subsistence_building = "building_subsistence_farms"
    provinces = { "x499EA6" "x5A79ED" "x68C498" "x6B70EA" "x80A4ED" "xBF9AED" "xC0EAED" "xC9461E" "xD047C8" "xD3EBED" "xD79B55" "xE00C48" "xE893ED" "xEBEFE1" "xEC7014" "xED049B" "xED6449" "xED686A" "xEDB8C6" "xEDC949" "xEDCB36" }
    traits = {}
    city = ""
    farm = ""
    mine = ""
    arable_land = 1
    arable_resources = { bg_wheat_farms bg_livestock_ranches bg_serpentbloom_farms }
    capped_resources = {
        bg_logging = 1
    }
}

STATE_DWAROVAR_86 = {
    id = 816
    subsistence_building = "building_subsistence_farms"
    provinces = { "x69DB8E" "x93D9ED" "xB6C8ED" "xC62F65" "xD2EFDA" "xDBA858" "xED6F50" "xEDE1EA" "xEDE9C4" "xEFC562" }
    traits = {}
    city = ""
    farm = ""
    mine = ""
    arable_land = 1
    arable_resources = { bg_wheat_farms bg_livestock_ranches bg_serpentbloom_farms }
    capped_resources = {
        bg_logging = 1
    }
}

STATE_DWAROVAR_87 = {
    id = 817
    subsistence_building = "building_subsistence_farms"
    provinces = { "x4B66ED" "x592391" "x608088" "x86C483" "x9065ED" "x95BA95" "x97CCED" "xA3DAED" "xDE2F1D" "xED003B" "xED005E" "xED53DB" "xED733B" "xED867B" "xEF4A34" "xF4DD83" }
    traits = {}
    city = ""
    farm = ""
    mine = ""
    arable_land = 1
    arable_resources = { bg_wheat_farms bg_livestock_ranches bg_serpentbloom_farms }
    capped_resources = {
        bg_logging = 1
    }
}

STATE_DWAROVAR_88 = {
    id = 818
    subsistence_building = "building_subsistence_farms"
    provinces = { "x36C16A" "x3E31ED" "x3EEFBD" "x707894" "xD40E59" "xED555F" "xEDB6E4" "xEDE163" }
    traits = {}
    city = ""
    farm = ""
    mine = ""
    arable_land = 1
    arable_resources = { bg_wheat_farms bg_livestock_ranches bg_serpentbloom_farms }
    capped_resources = {
        bg_logging = 1
    }
}

STATE_DWAROVAR_89 = {
    id = 819
    subsistence_building = "building_subsistence_farms"
    provinces = { "x53EFDA" "x58E08E" "x83EA9E" "x874D7D" "x95EDDB" "x9B9BC6" "xB2E75E" "xB6EDBF" "xBDEDCE" "xBFDC21" "xC09AED" "xC4A1ED" "xD0C675" "xED4025" "xEDB265" "xEDCABD" "xEF6979" "xF8F5AC" }
    traits = {}
    city = ""
    farm = ""
    mine = ""
    arable_land = 1
    arable_resources = { bg_wheat_farms bg_livestock_ranches bg_serpentbloom_farms }
    capped_resources = {
        bg_logging = 1
    }
}

STATE_DWAROVAR_90 = {
    id = 820
    subsistence_building = "building_subsistence_farms"
    provinces = { "x50E0A2" "xE3E8ED" "xED6371" "xEDC88E" }
    traits = {}
    city = ""
    farm = ""
    mine = ""
    arable_land = 1
    arable_resources = { bg_wheat_farms bg_livestock_ranches bg_serpentbloom_farms }
    capped_resources = {
        bg_logging = 1
    }
}

STATE_DWAROVAR_91 = {
    id = 821
    subsistence_building = "building_subsistence_farms"
    provinces = { "x93D2EA" "xC6B8ED" "xED2D50" "xED93C7" "xEDD8C7" }
    traits = {}
    city = ""
    farm = ""
    mine = ""
    arable_land = 1
    arable_resources = { bg_wheat_farms bg_livestock_ranches bg_serpentbloom_farms }
    capped_resources = {
        bg_logging = 1
    }
}

STATE_DWAROVAR_92 = {
    id = 822
    subsistence_building = "building_subsistence_farms"
    provinces = { "x2B2BBF" "xBBBF59" "xBCB7B3" "xBF2315" "xBF2A88" "xBF2B15" "xBF431A" "xBF656B" "xBFB489" "xC1502E" }
    traits = {}
    city = ""
    farm = ""
    mine = ""
    arable_land = 1
    arable_resources = { bg_wheat_farms bg_livestock_ranches bg_serpentbloom_farms }
    capped_resources = {
        bg_logging = 1
    }
}

STATE_DWAROVAR_93 = {
    id = 823
    subsistence_building = "building_subsistence_farms"
    provinces = { "x73BC71" "x86BF4A" "xBC0006" "xC0C178" }
    traits = {}
    city = ""
    farm = ""
    mine = ""
    arable_land = 1
    arable_resources = { bg_wheat_farms bg_livestock_ranches bg_serpentbloom_farms }
    capped_resources = {
        bg_logging = 1
    }
}

STATE_DWAROVAR_94 = {
    id = 824
    subsistence_building = "building_subsistence_farms"
    provinces = { "xA5A3A2" "xBF8478" "xBF922A" }
    traits = {}
    city = ""
    farm = ""
    mine = ""
    arable_land = 1
    arable_resources = { bg_wheat_farms bg_livestock_ranches bg_serpentbloom_farms }
    capped_resources = {
        bg_logging = 1
    }
}

STATE_DWAROVAR_95 = {
    id = 825
    subsistence_building = "building_subsistence_farms"
    provinces = { "x775EA5" "x84873E" "x8487F4" "xA51223" "xA52C2E" "xA55F43" "xA5814A" "xA59272" }
    traits = {}
    city = ""
    farm = ""
    mine = ""
    arable_land = 1
    arable_resources = { bg_wheat_farms bg_livestock_ranches bg_serpentbloom_farms }
    capped_resources = {
        bg_logging = 1
    }
}

STATE_DWAROVAR_96 = {
    id = 826
    subsistence_building = "building_subsistence_farms"
    provinces = { "x0E82F6" "x9E95A5" "xA0A590" "xA50055" "xA51085" "xA51C2C" "xA5600B" "xA57A3D" "xA5904F" "xF2E6CD" }
    traits = {}
    city = ""
    farm = ""
    mine = ""
    arable_land = 1
    arable_resources = { bg_wheat_farms bg_livestock_ranches bg_serpentbloom_farms }
    capped_resources = {
        bg_logging = 1
    }
}

STATE_DWAROVAR_97 = {
    id = 827
    subsistence_building = "building_subsistence_farms"
    provinces = { "xADACC4" "xC4372D" }
    traits = {}
    city = ""
    farm = ""
    mine = ""
    arable_land = 1
    arable_resources = { bg_wheat_farms bg_livestock_ranches bg_serpentbloom_farms }
    capped_resources = {
        bg_logging = 1
    }
}

STATE_DWAROVAR_98 = {
    id = 828
    subsistence_building = "building_subsistence_farms"
    provinces = { "x98E3F2" "xF25B29" "xF2742B" "xF291CD" "xF2CE7B" }
    traits = {}
    city = ""
    farm = ""
    mine = ""
    arable_land = 1
    arable_resources = { bg_wheat_farms bg_livestock_ranches bg_serpentbloom_farms }
    capped_resources = {
        bg_logging = 1
    }
}

STATE_DWAROVAR_99 = {
    id = 829
    subsistence_building = "building_subsistence_farms"
    provinces = { "x26B5F2" "x52A56A" "x6B89A5" "xEAAEF2" }
    traits = {}
    city = ""
    farm = ""
    mine = ""
    arable_land = 1
    arable_resources = { bg_wheat_farms bg_livestock_ranches bg_serpentbloom_farms }
    capped_resources = {
        bg_logging = 1
    }
}

STATE_DWAROVAR_100 = {
    id = 830
    subsistence_building = "building_subsistence_farms"
    provinces = { "xBFD7EF" "xC7EF62" "xE2BAEF" "xEF2124" }
    traits = {}
    city = ""
    farm = ""
    mine = ""
    arable_land = 1
    arable_resources = { bg_wheat_farms bg_livestock_ranches bg_serpentbloom_farms }
    capped_resources = {
        bg_logging = 1
    }
}

STATE_DWAROVAR_101 = {
    id = 831
    subsistence_building = "building_subsistence_farms"
    provinces = { "x93BCC1" "xBF8361" "xC12A19" "xF4A275" }
    traits = {}
    city = ""
    farm = ""
    mine = ""
    arable_land = 1
    arable_resources = { bg_wheat_farms bg_livestock_ranches bg_serpentbloom_farms }
    capped_resources = {
        bg_logging = 1
    }
}
