﻿aelantir_settler = {
}

anbennarian = {
}

alenic = {
}

businori = {
}

escanni = {
}

dostanorian = {
}

lencori = {
}

gerudian = {
}

reachman = {
}

kheteratan_trait = {
}

akani = {
}

bulwari = {
}

triunic = {
}

ynnic = {
}

eordan = {
}

harafe_trait = {
}

noruinic = {
}

kinbond = {
}

leechman_trait = {
}

effelai_i = {
}

amadian = {
}

devandi_trait = {
}

taychendi = {
}

kheionai = {
}

degenerated_elf = {
}

yan = {
}

wuhyun = {
}

kai = {
}

bom = {
}

yanglam = {
}

odheongun = {
}

khantaar = {
}

besholgi = {
}